{
  ////////////////////////////////////////////////////////////////
  //
  //  Wind : Syuriken01 42104005
  //
  ////////////////////////////////////////////////////////////////
  "Hilistray_Wind_Syuriken01_Bullet": {
    "$type": "ConfigGadget",
    "common": {
      "effectAttachShape": {
        "$type": "ConfigEffectAttachBox",
        "emitFrom": "Volume",
        "scaleX": 1.0,
        "scaleY": 1.0,
        "scaleZ": 1.0
      }
    },
    "combat": {
      "property": {
        "useCreatorProperty": true, // 是否继承创造者的数值
        "HP": 999999,
        "attack": 30.0,
        "defense": 999999,
        "isLockHP": true,
        "canTriggerBullet": false
      },
      "combatLock": {
        "denyLockOn": true
      },
      "beHit": {
        "hitBloodEffect": "",
        "muteAllHit": true,
        "muteAllHitEffect": true,
        "muteAllHitText": true
      },
      "animEvents": {}
    },
    // 生命周期管理
    "timer": {
      "lifeInfinite": false,
      "lifeTime": 1.83
    },
    // 子弹线性移动
    /* "move" :
	{
		"$type" : "ConfigFollowMove",
		"target": "TargetEntity",
		"followRotation": true,
		"offset":
		{
			"x": 0.0,
			"y": 0.0,
			"z": 0.0,
		},
		"forward":
		{
			"x": 0.0,
			"y": 0.0,
			"z": 0.0,
		},
	}, */
    // 子弹线性移动
    "move": {
      // "$type" : "ConfigTrackBulletMove",
      "$type": "ConfigBoomerangBulletMove",
      "initClockwise": false,
      "stickToGroundDuration": 0,
      // "delay": 0,
      "speed": 20.0,
      // "acceleration": -5.0,
      "traceOnYAxis": true,
      "anglerVelocity": 60,
      "updateAngle": {
        "$type": "ConfigBulletMoveAngleByVelocity",
        "traceLerpCoef": 360
      },
      "destroyWhenTargetDie": false,
      "stickToGround": {
        "$type": "ConfigMoveStickToGround",
        "heightToGround": 1,
        "flexibleRange": 0.5,
        "maxStepHeight": 1.5,
        "maxSlopeAngle": 40,
        "isStickToWater": true,
        "unstickWhenDownSlide": "Keep",
        "unstickWhenUpSlide": "Keep"
      },
      "canBornInWater": true
    },
    // 子弹参数
    "gadget": {
      "$type": "ConfigBulletPattern",
      "collision": {
        "targetType": "Enemy",
        "triggerType": "TriggerNoRepeat",
        "ignoreScene": true
      },
      "triggerActions": [
        {
          "$type": "ConfigGadgetTriggerAbility",
          "abilityName": "Hilistray_Wind_Syuriken01_Bullet"
        }
      ]
    },
    "abilities": [
      {
        "abilityName": "Hilistray_Wind_Syuriken01_Bullet"
      }
    ]
  },
  ////////////////////////////////////////////////////////////////
  //
  //  Wind : Syuriken02 42104006 42104007
  //
  ////////////////////////////////////////////////////////////////
  "Hilistray_Wind_Syuriken02_SmallBullet": {
    "$type": "ConfigGadget",
    "common": {
      "effectAttachShape": {
        "$type": "ConfigEffectAttachBox",
        "emitFrom": "Volume",
        "scaleX": 1.0,
        "scaleY": 1.0,
        "scaleZ": 1.0
      }
    },
    "combat": {
      "property": {
        "useCreatorProperty": true, // 是否继承创造者的数值
        "HP": 999999,
        "attack": 10.0,
        "defense": 999999,
        "isInvincible": true,
        "isGhostToAllied": true,
        "isGhostToEnemy": true
      },
      "combatLock": {
        "denyLockOn": true
      },
      "beHit": {
        "hitBloodEffect": "",
        "muteAllHit": true,
        "muteAllHitEffect": true,
        "muteAllHitText": true
      }
    },
    // 子弹移动
    "move": {
      "$type": "ConfigLinerBulletMove",
      "speed": 28.0,
      "delay": 0.0,
      "acceleration": 5.0,
      "maxSpeed": 35.0,
      "minSpeed": 25.0,
      "stickToGround": {
        "$type": "ConfigMoveStickToGround",
        "heightToGround": 1.0,
        "flexibleRange": 0.5,
        "maxStepHeight": 2.0,
        "maxSlopeAngle": 25,
        "isStickToWater": true,
        "unstickWhenDownSlide": "Keep",
        "unstickWhenUpSlide": "Keep"
      }
    },
    // 生命周期管理
    "timer": {
      "lifeInfinite": false, //如果未触发是否一致存在
      "lifeTime": 1.3 //存在时间
    },
    // 子弹参数
    "gadget": {
      "$type": "ConfigBulletPattern",
      "collision": {
        "targetType": "Enemy",
        "triggerType": "TriggerOnce",
        "ccd": {
          "type": "Always"
        }
      },
      "triggerActions": [
        {
          "$type": "ConfigGadgetTriggerAbility",
          "abilityName": "Hilistray_Wind_Syuriken02_SmallBullet"
        }
      ],
      "triggerLifeOverActions": [
        {
          "$type": "ConfigGadgetTriggerAbility",
          "abilityName": "Hilistray_Wind_Syuriken02_SmallBullet_LifeOver"
        }
      ],
      "killByOther": true
    },
    "abilities": [
      {
        "abilityName": "Hilistray_Wind_Syuriken02_SmallBullet"
      },
      {
        "abilityName": "Hilistray_Wind_Syuriken02_SmallBullet_LifeOver"
      }
    ]
  },
  "Hilistray_Wind_Syuriken02_BigBullet": {
    "$type": "ConfigGadget",
    "common": {
      "effectAttachShape": {
        "$type": "ConfigEffectAttachBox",
        "emitFrom": "Volume",
        "scaleX": 1.0,
        "scaleY": 1.0,
        "scaleZ": 1.0
      }
    },
    "combat": {
      "property": {
        "useCreatorProperty": true, // 是否继承创造者的数值
        "HP": 999999,
        "attack": 10.0,
        "defense": 999999,
        "isInvincible": true,
        "isGhostToAllied": true,
        "isGhostToEnemy": true
      },
      "combatLock": {
        "denyLockOn": true
      },
      "beHit": {
        "hitBloodEffect": "",
        "muteAllHit": true,
        "muteAllHitEffect": true,
        "muteAllHitText": true
      }
    },
    // 子弹移动
    "move": {
      "$type": "ConfigLinerBulletMove",
      "speed": 28.0,
      "delay": 0.0,
      "acceleration": 5.0,
      "maxSpeed": 35.0,
      "minSpeed": 25.0,
      "stickToGround": {
        "$type": "ConfigMoveStickToGround",
        "heightToGround": 1.0,
        "flexibleRange": 0.5,
        "maxStepHeight": 2.0,
        "maxSlopeAngle": 25,
        "isStickToWater": true,
        "unstickWhenDownSlide": "Keep",
        "unstickWhenUpSlide": "Keep"
      }
    },
    // 生命周期管理
    "timer": {
      "lifeInfinite": false, //如果未触发是否一致存在
      "lifeTime": 1.3 //存在时间
    },
    // 子弹参数
    "gadget": {
      "$type": "ConfigBulletPattern",
      "collision": {
        "targetType": "Enemy",
        "triggerType": "TriggerOnce",
        "ccd": {
          "type": "Always"
        }
      },
      "triggerActions": [
        {
          "$type": "ConfigGadgetTriggerAbility",
          "abilityName": "Hilistray_Wind_Syuriken02_BigBullet"
        }
      ],
      "triggerLifeOverActions": [
        {
          "$type": "ConfigGadgetTriggerAbility",
          "abilityName": "Hilistray_Wind_Syuriken02_BigBullet_LifeOver"
        }
      ],
      "killByOther": true
    },
    "abilities": [
      {
        "abilityName": "Hilistray_Wind_Syuriken02_BigBullet"
      },
      {
        "abilityName": "Hilistray_Wind_Syuriken02_BigBullet_LifeOver"
      }
    ]
  },
  /////////////////////////////////////////////////////////////////
  //
  //  Wind : SpecialAtk Slime 42104001
  //
  /////////////////////////////////////////////////////////////////
  "Hilistray_Wind_SpecialAtk_Slime": {
    "$type": "ConfigGadget",
    "common": {
      "effectAttachShape": {
        "$type": "ConfigEffectAttachBox",
        "emitFrom": "Volume",
        "scaleX": 1.0,
        "scaleY": 1.0,
        "scaleZ": 1.0
      },
      "scale": 1,
      "affectedByWorld": true,
      "checkInSurface": true,
      "mass": 5.0
    },
    //战斗参数
    "combat": {
      "property": {
        "useCreatorProperty": true,
        "HP": 99999,
        "attack": 0,
        "defense": 0,
        "weight": 50,
        //"isInvincible":true,
        "isLockHP": true,
        "isGhostToAllied": true,
        "isGhostToEnemy": false
      }
    },
    "face": {
      "characterName": "Hilistray_Slime_01",
      "baseFaceAnimation": "Default"
    },
    /* "move" :
	{
		"$type" : "ConfigParabolaBulletMove",
		"speed" : 15.0,
		"angleOffHor": 45,
		"gravityOfAcceleration" : 10,
		"updateAngle" : 
		{
			"$type": "ConfigBulletMoveAngleRotating",
			"angularVelocity":
			{
				"x": -900,
				"y": 0,
				"z": 0,
			},
		},
		"correction" : 
		{
			"$type":"ConfigParabolaBulletMoveCorrection",
			"deviation": 1.0,
			"fixAngleOfVer": 15.0,
			"minSpeed": 5.0,
			"maxSpeed": 20.0,
		},
		"velocityForce":
		{
			"includeForces": ["RetreatType","RetreatAirType","WindZoneType"],
		},
	}, */
    "equipment": {
      "attachTo": "equip01",
      "equipEntityType": "Spear"
    },
    "timer": {
      "lifeInfinite": false, //如果未触发是否一致存在
      "lifeTime": 20.0 //存在时间
    },
    "gadget": {
      "$type": "ConfigBulletPattern",
      "collision": {
        "targetType": "Enemy",
        "triggerType": "TriggerOnce",
        "bornWithTriggerEnabled": false
      },
      "triggerActions": [
        {
          "$type": "ConfigGadgetTriggerAbility",
          "abilityName": "Hili_Electric_SlimeThrow_Explode"
        }
      ],
      "killByOther": true
    },
    "stateLayers": {
      "defaultLayer": {
        "$type": "ConfigNormalStateLayer",
        "stateIDs": {
          "Born": {
            "$type": "ConfigNormalStateIDInfo",
            "animatorStates": {
              "Born": []
            }
          },
          "InAir": {
            "$type": "ConfigNormalStateIDInfo",
            "animatorStates": {
              "InAir": []
            }
          },
          "Die": {
            "$type": "ConfigNormalStateIDInfo",
            "animatorStates": {
              "Die": []
            }
          },
          "HitDie": {
            "$type": "ConfigNormalStateIDInfo",
            "animatorStates": {
              "HitDie": []
            }
          }
        }
      }
    },
    "abilities": [
      {
        "abilityName": "Hilistray_Wind_SpecialAtk_Slime"
      },
      {
        "abilityName": "Hilistray_Wind_SpecialAtk_Slime_Effect"
      }
    ]
  },
  /////////////////////////////////////////////////////////////////
  //
  //  Wind : SpecialAtk WindBlade 42104002 42104003 42104004
  //
  /////////////////////////////////////////////////////////////////
  "Hilistray_Wind_SpecialAtk_WindBlade_01": {
    "$type": "ConfigGadget",
    "common": {
      "effectAttachShape": {
        "$type": "ConfigEffectAttachBox",
        "emitFrom": "Volume",
        "scaleX": 1.0,
        "scaleY": 1.0,
        "scaleZ": 1.0
      }
    },
    "combat": {
      "property": {
        "useCreatorProperty": true, // 是否继承创造者的数值
        "HP": 999999,
        "attack": 10.0,
        "defense": 999999,
        "isInvincible": true,
        "isGhostToAllied": true,
        "isGhostToEnemy": true
      },
      "combatLock": {
        "denyLockOn": true
      },
      "beHit": {
        "hitBloodEffect": "",
        "muteAllHit": true,
        "muteAllHitEffect": true,
        "muteAllHitText": true
      }
    },
    // 子弹移动
    "move": {
      "$type": "ConfigLinerBulletMove",
      "speed": 27.0,
      "delay": 0.0,
      "acceleration": 5.0,
      "maxSpeed": 32.0,
      "minSpeed": 25.0
    },
    // 生命周期管理
    "timer": {
      "lifeInfinite": false, //如果未触发是否一致存在
      "lifeTime": 1.0 //存在时间
    },
    // 子弹参数
    "gadget": {
      "$type": "ConfigBulletPattern",
      "collision": {
        "targetType": "Enemy",
        "triggerType": "TriggerNoRepeat",
        "ccd": {
          "type": "Always"
        }
      },
      "triggerActions": [
        {
          "$type": "ConfigGadgetTriggerAbility",
          "abilityName": "Hilistray_Wind_SpecialAtk_WindBlade_01"
        }
      ],
      "killByOther": true
    },
    "abilities": [
      {
        "abilityName": "Hilistray_Wind_SpecialAtk_WindBlade_01"
      }
    ]
  },
  "Hilistray_Wind_SpecialAtk_WindBlade_02": {
    "$type": "ConfigGadget",
    "common": {
      "effectAttachShape": {
        "$type": "ConfigEffectAttachBox",
        "emitFrom": "Volume",
        "scaleX": 1.0,
        "scaleY": 1.0,
        "scaleZ": 1.0
      }
    },
    "combat": {
      "property": {
        "useCreatorProperty": true, // 是否继承创造者的数值
        "HP": 999999,
        "attack": 10.0,
        "defense": 999999,
        "isInvincible": true,
        "isGhostToAllied": true,
        "isGhostToEnemy": true
      },
      "combatLock": {
        "denyLockOn": true
      },
      "beHit": {
        "hitBloodEffect": "",
        "muteAllHit": true,
        "muteAllHitEffect": true,
        "muteAllHitText": true
      }
    },
    // 子弹移动
    "move": {
      "$type": "ConfigLinerBulletMove",
      "speed": 27.0,
      "delay": 0.0,
      "acceleration": 5.0,
      "maxSpeed": 32.0,
      "minSpeed": 25.0
    },
    "timer": {
      "lifeInfinite": false, //如果未触发是否一致存在
      "lifeTime": 1.0 //存在时间
    },
    // 子弹参数
    "gadget": {
      "$type": "ConfigBulletPattern",
      "collision": {
        "targetType": "Enemy",
        "triggerType": "TriggerNoRepeat",
        "ccd": {
          "type": "Always"
        }
      },
      "triggerActions": [
        {
          "$type": "ConfigGadgetTriggerAbility",
          "abilityName": "Hilistray_Wind_SpecialAtk_WindBlade_02"
        }
      ],
      "killByOther": true
    },
    "abilities": [
      {
        "abilityName": "Hilistray_Wind_SpecialAtk_WindBlade_02"
      }
    ]
  },
  "Hilistray_Wind_SpecialAtk_WindBlade_03": {
    "$type": "ConfigGadget",
    "common": {
      "effectAttachShape": {
        "$type": "ConfigEffectAttachBox",
        "emitFrom": "Volume",
        "scaleX": 1.0,
        "scaleY": 1.0,
        "scaleZ": 1.0
      }
    },
    "combat": {
      "property": {
        "useCreatorProperty": true, // 是否继承创造者的数值
        "HP": 999999,
        "attack": 10.0,
        "defense": 999999,
        "isInvincible": true,
        "isGhostToAllied": true,
        "isGhostToEnemy": true
      },
      "combatLock": {
        "denyLockOn": true
      },
      "beHit": {
        "hitBloodEffect": "",
        "muteAllHit": true,
        "muteAllHitEffect": true,
        "muteAllHitText": true
      }
    },
    // 子弹移动
    "move": {
      "$type": "ConfigLinerBulletMove",
      "speed": 27.0,
      "delay": 0.0,
      "acceleration": 5.0,
      "maxSpeed": 32.0,
      "minSpeed": 25.0
    },
    "timer": {
      "lifeInfinite": false, //如果未触发是否一致存在
      "lifeTime": 1.0 //存在时间
    },
    // 子弹参数
    "gadget": {
      "$type": "ConfigBulletPattern",
      "collision": {
        "targetType": "Enemy",
        "triggerType": "TriggerNoRepeat",
        "ccd": {
          "type": "Always"
        }
      },
      "triggerActions": [
        {
          "$type": "ConfigGadgetTriggerAbility",
          "abilityName": "Hilistray_Wind_SpecialAtk_WindBlade_03"
        }
      ],
      "killByOther": true
    },
    "abilities": [
      {
        "abilityName": "Hilistray_Wind_SpecialAtk_WindBlade_03"
      }
    ]
  },
  /////////////////////////////////////////////////////////////////
  //
  //  Water : SpecialAtk Slime 42104011
  //
  /////////////////////////////////////////////////////////////////
  "Hilistray_Water_SpecialAtk_Slime": {
    "$type": "ConfigGadget",
    "common": {
      "effectAttachShape": {
        "$type": "ConfigEffectAttachBox",
        "emitFrom": "Volume",
        "scaleX": 1.0,
        "scaleY": 1.0,
        "scaleZ": 1.0
      },
      "scale": 1,
      "affectedByWorld": true,
      "checkInSurface": true,
      "mass": 5.0
    },
    //战斗参数
    "combat": {
      "property": {
        "useCreatorProperty": true,
        "HP": 99999,
        "attack": 0,
        "defense": 0,
        "weight": 50,
        //"isInvincible":true,
        "isLockHP": true,
        "isGhostToAllied": true,
        "isGhostToEnemy": false
      },
      "combatLock": {
        "denyLockOn": false,
        "lockType": "Gear_Lv3"
      },
      "beHit": {
        "hitBloodEffect": "",
        "muteAllHit": false,
        "muteAllHitEffect": false,
        "muteAllHitText": true
      }
    },
    "face": {
      "characterName": "Hilistray_Slime_02",
      "baseFaceAnimation": "Default",
      "intervalFaceAnimation": "",
      "minInterval": 1.5,
      "maxInterval": 5.5
    },
    "move": {
      "$type": "ConfigParabolaBulletMove",
      "speed": 15.0,
      "angleOffHor": 55,
      "gravityOfAcceleration": 12,
      "updateAngle": {
        "$type": "ConfigBulletMoveAngleRotating",
        "angularVelocity": {
          "x": -900,
          "y": 0,
          "z": 0
        }
      },
      "correction": {
        "$type": "ConfigParabolaBulletMoveCorrection",
        "deviation": 1.0,
        "fixAngleOfVer": 15.0,
        "minSpeed": 5.0,
        "maxSpeed": 20.0
      }
    },
    "equipment": {
      "attachTo": "equip01",
      "equipEntityType": "Spear"
    },
    "timer": {
      "lifeInfinite": false, //如果未触发是否一致存在
      "lifeTime": 20.0 //存在时间
    },
    "gadget": {
      "$type": "ConfigBulletPattern",
      "collision": {
        "targetType": "Enemy",
        "triggerType": "TriggerOnce",
        "bornWithTriggerEnabled": false
      },
      "triggerActions": [
        {
          "$type": "ConfigGadgetTriggerAbility",
          "abilityName": "Hilistray_Water_SpecialAtk_Slime_Explode"
        }
      ],
      "killByOther": true
    },
    "stateLayers": {
      "defaultLayer": {
        "$type": "ConfigNormalStateLayer",
        "stateIDs": {
          "Born": {
            "$type": "ConfigNormalStateIDInfo",
            "animatorStates": {
              "Born": []
            }
          },
          "Standby": {
            "$type": "ConfigNormalStateIDInfo",
            "animatorStates": {
              "Standby": []
            }
          },
          "Shrink": {
            "$type": "ConfigNormalStateIDInfo",
            "animatorStates": {
              "Shrink": []
            }
          },
          "ShrinkStandby": {
            "$type": "ConfigNormalStateIDInfo",
            "animatorStates": {
              "ShrinkStandby": []
            }
          },
          "HitDie": {
            "$type": "ConfigNormalStateIDInfo",
            "animatorStates": {
              "HitDie": []
            }
          }
        }
      }
    },
    "abilities": [
      {
        "abilityName": "Hilistray_Water_SpecialAtk_Slime"
      },
      {
        "abilityName": "Hilistray_Water_SpecialAtk_Slime_SlimeShake"
      },
      {
        "abilityName": "Hilistray_Water_SpecialAtk_Slime_FireBubble"
      },
      {
        "abilityName": "Hilistray_Water_SpecialAtk_Slime_Shrink"
      },
      {
        "abilityName": "Hilistray_Water_SpecialAtk_Slime_SmallSpray"
      },
      {
        "abilityName": "Hilistray_Water_SpecialAtk_Slime_Explode"
      }
    ]
  },
  ////////////////////////////////////////////////////////////////
  //
  //  Water : SpecialAtk Slime Bubble 42104012 42104013 42104014
  //
  ////////////////////////////////////////////////////////////////
  "Hilistray_Water_SpecialAtk_Slime_BubbleBullet": {
    "$type": "ConfigGadget",
    "common": {
      "effectAttachShape": {
        "$type": "ConfigEffectAttachBox",
        "emitFrom": "Volume",
        "scaleX": 1.0,
        "scaleY": 1.0,
        "scaleZ": 0.4
      }
    },
    "combat": {
      "property": {
        "useCreatorProperty": true, // 是否继承创造者的数值
        "HP": 999999,
        "attack": 15.0,
        "defense": 999999,
        "isLockHP": true,
        "isGhostToAllied": false,
        "isGhostToEnemy": false,
        "canTriggerBullet": true
      },
      "combatLock": {
        "denyLockOn": true
      },
      "beHit": {
        "hitBloodEffect": "",
        "muteAllHit": true,
        "muteAllHitEffect": true,
        "muteAllHitText": true
      },
      "animEvents": {}
    },
    // 子弹线性移动
    "move": {
      "$type": "ConfigParabolaBulletMove",
      "speed": 10.0,
      "angleOffHor": 50,
      "gravityOfAcceleration": 6,
      "updateAngle": {
        "$type": "ConfigBulletMoveAngleByVelocity"
      },
      "correction": {
        "$type": "ConfigParabolaBulletMoveCorrection",
        "deviation": 2.0,
        "fixAngleOfVer": 0.0,
        "minSpeed": 8.0,
        "maxSpeed": 12.0
      }
    },
    "timer": {
      "lifeInfinite": false, //如果未触发是否一致存在
      "lifeTime": 5.0 //存在时间
    },
    // 子弹参数
    "gadget": {
      "$type": "ConfigBulletPattern",
      "collision": {
        "targetType": "AllExceptSelf",
        "triggerType": "TriggerOnce"
      },
      "triggerActions": [
        {
          "$type": "ConfigGadgetTriggerAbility",
          "abilityName": "Hilistray_Water_SpecialAtk_Slime_BubbleBullet_Surround"
        }
      ],
      "triggerLifeOverActions": [
        {
          "$type": "ConfigGadgetTriggerAbility",
          "abilityName": "Hilistray_Water_SpecialAtk_Slime_BubbleBullet_Explode"
        }
      ],
      "killByOther": true
    },
    "abilities": [
      {
        "abilityName": "Hilistray_Water_SpecialAtk_Slime_BubbleBullet_Loop"
      },
      {
        "abilityName": "Hilistray_Water_SpecialAtk_Slime_BubbleBullet_Explode"
      },
      {
        "abilityName": "Hilistray_Water_SpecialAtk_Slime_BubbleBullet_Surround"
      }
    ]
  },
  "Hilistray_Water_SpecialAtk_Slime_BubbleBullet_Bounce": {
    "$type": "ConfigGadget",
    "common": {
      "effectAttachShape": {
        "$type": "ConfigEffectAttachBox",
        "emitFrom": "Volume",
        "scaleX": 1.0,
        "scaleY": 1.0,
        "scaleZ": 0.4
      }
    },
    "combat": {
      "property": {
        "useCreatorProperty": true, // 是否继承创造者的数值
        "HP": 999999,
        "attack": 15.0,
        "defense": 999999,
        "isLockHP": true,
        "isGhostToAllied": false,
        "isGhostToEnemy": false,
        "canTriggerBullet": true
      },
      "combatLock": {
        "denyLockOn": true
      },
      "beHit": {
        "hitBloodEffect": "",
        "muteAllHit": true,
        "muteAllHitEffect": true,
        "muteAllHitText": true
      },
      "animEvents": {}
    },
    // 子弹线性移动
    "move": {
      "$type": "ConfigParabolaBulletMove",
      "speed": 7.0,
      "angleOffHor": 45,
      "gravityOfAcceleration": 15,
      "updateAngle": {
        "$type": "ConfigBulletMoveAngleByVelocity"
      },
      "correction": {
        "$type": "ConfigParabolaBulletMoveCorrection",
        "deviation": 0.0,
        "fixAngleOfVer": 0.0,
        "minSpeed": 6.0,
        "maxSpeed": 8.5
      }
    },
    "timer": {
      "lifeInfinite": false, //如果未触发是否一致存在
      "lifeTime": 5.0 //存在时间
    },
    // 子弹参数
    "gadget": {
      "$type": "ConfigBulletPattern",
      "collision": {
        "targetType": "AllExceptSelf",
        "triggerType": "TriggerOnce"
      },
      "triggerActions": [
        {
          "$type": "ConfigGadgetTriggerAbility",
          "abilityName": "Hilistray_Water_SpecialAtk_Slime_BubbleBullet_Surround"
        }
      ],
      "triggerLifeOverActions": [
        {
          "$type": "ConfigGadgetTriggerAbility",
          "abilityName": "Hilistray_Water_SpecialAtk_Slime_BubbleBullet_Explode"
        }
      ],
      "killByOther": true
    },
    "abilities": [
      {
        "abilityName": "Hilistray_Water_SpecialAtk_Slime_BubbleBullet_Bounce_Loop"
      },
      {
        "abilityName": "Hilistray_Water_SpecialAtk_Slime_BubbleBullet_Explode"
      },
      {
        "abilityName": "Hilistray_Water_SpecialAtk_Slime_BubbleBullet_Surround"
      }
    ]
  },
  "Hilistray_Water_SpecialAtk_Slime_BubbleBullet_Float": {
    "$type": "ConfigGadget",
    "common": {
      "effectAttachShape": {
        "$type": "ConfigEffectAttachBox",
        "emitFrom": "Volume",
        "scaleX": 1.0,
        "scaleY": 1.0,
        "scaleZ": 0.4
      }
    },
    "combat": {
      "property": {
        "useCreatorProperty": true, // 是否继承创造者的数值
        "HP": 999999,
        "attack": 15.0,
        "defense": 999999,
        "isLockHP": true,
        "isGhostToAllied": false,
        "isGhostToEnemy": false,
        "canTriggerBullet": true
      },
      "combatLock": {
        "denyLockOn": true
      },
      "beHit": {
        "hitBloodEffect": "",
        "muteAllHit": true,
        "muteAllHitEffect": true,
        "muteAllHitText": true
      },
      "animEvents": {}
    },
    // 子弹线性移动
    "move": {
      "$type": "ConfigLinerBulletMove",
      "speed": 0.2,
      "acceleration": 0,
      "stickToGround": {
        "$type": "ConfigMoveStickToGround",
        "heightToGround": 0.6,
        "flexibleRange": 0.25,
        "maxStepHeight": 2.5,
        "maxSlopeAngle": 75,
        "isStickToWater": true,
        "unstickWhenDownSlide": "Keep",
        "unstickWhenUpSlide": "Keep"
      },
      "updateAngle": {
        "$type": "ConfigBulletMoveAngleByVelocity",
        "traceLerpCoef": 5
      }
    },
    "timer": {
      "lifeInfinite": false, //如果未触发是否一致存在
      "lifeTime": 7.5 //存在时间
    },
    // 子弹参数
    "gadget": {
      "$type": "ConfigBulletPattern",
      "collision": {
        "targetType": "AllExceptSelf",
        "triggerType": "TriggerOnce",
        "ignoreScene": true
      },
      "triggerActions": [
        {
          "$type": "ConfigGadgetTriggerAbility",
          "abilityName": "Hilistray_Water_SpecialAtk_Slime_BubbleBullet_Surround"
        }
      ],
      "triggerLifeOverActions": [
        {
          "$type": "ConfigGadgetTriggerAbility",
          "abilityName": "Hilistray_Water_SpecialAtk_Slime_BubbleBullet_Explode"
        }
      ],
      "killByOther": true
    },
    "abilities": [
      {
        "abilityName": "Hilistray_Water_SpecialAtk_Slime_BubbleBullet_Float_Loop"
      },
      {
        "abilityName": "Hilistray_Water_SpecialAtk_Slime_BubbleBullet_Explode"
      },
      {
        "abilityName": "Hilistray_Water_SpecialAtk_Slime_BubbleBullet_Surround"
      }
    ]
  },
  ////////////////////////////////////////////////////////////////
  //
  //  Water : RushAtk 42104015
  //
  ////////////////////////////////////////////////////////////////
  "Hilistray_Water_RushAtk_FollowBullet": {
    "$type": "ConfigGadget",
    "common": {
      "effectAttachShape": {
        "$type": "ConfigEffectAttachBox",
        "emitFrom": "Volume",
        "scaleX": 1.0,
        "scaleY": 1.0,
        "scaleZ": 1.0
      }
    },
    "combat": {
      "property": {
        "useCreatorProperty": true, // 是否继承创造者的数值
        "HP": 999999,
        "attack": 30.0,
        "defense": 999999,
        "isLockHP": true,
        "canTriggerBullet": false
      },
      "combatLock": {
        "denyLockOn": true
      },
      "beHit": {
        "hitBloodEffect": "",
        "muteAllHit": true,
        "muteAllHitEffect": true,
        "muteAllHitText": true
      },
      "animEvents": {}
    },
    // 生命周期管理
    "timer": {
      "lifeInfinite": false,
      "lifeTime": 10.0
    },
    // 子弹线性移动
    "move": {
      "$type": "ConfigFollowMove",
      "target": "TargetEntity",
      "followRotation": true,
      "offset": {
        "x": 0.0,
        "y": 0.0,
        "z": 0.0
      },
      "forward": {
        "x": 0.0,
        "y": 0.0,
        "z": 0.0
      }
    },
    // 子弹参数
    "gadget": {
      "$type": "ConfigBulletPattern",
      "collision": {
        "targetType": "Enemy",
        "triggerType": "TriggerNoRepeat",
        "ignoreScene": true
      },
      "triggerActions": [
        {
          "$type": "ConfigGadgetTriggerAbility",
          "abilityName": "Hilistray_Water_RushAtk_FollowBullet"
        }
      ]
    },
    "abilities": [
      {
        "abilityName": "Hilistray_Water_RushAtk_FollowBullet"
      }
    ]
  },
  /////////////////////////////////////////////////////////////////
  //
  //  Water : SlimeAtk 42104016
  //
  /////////////////////////////////////////////////////////////////
  "Hilistray_Water_SlimeAtk_Bullet": {
    "$type": "ConfigGadget",
    "common": {
      "effectAttachShape": {
        "$type": "ConfigEffectAttachBox",
        "emitFrom": "Volume",
        "scaleX": 1.0,
        "scaleY": 1.0,
        "scaleZ": 1.0
      }
    },
    "combat": {
      "property": {
        "useCreatorProperty": true, // 是否继承创造者的数值
        "HP": 999999,
        "attack": 10.0,
        "defense": 999999,
        "isInvincible": true,
        "isGhostToAllied": true,
        "isGhostToEnemy": true
      },
      "combatLock": {
        "denyLockOn": true
      },
      "beHit": {
        "hitBloodEffect": "",
        "muteAllHit": true,
        "muteAllHitEffect": true,
        "muteAllHitText": true
      }
    },
    // 子弹移动
    "move": {
      "$type": "ConfigLinerBulletMove",
      "speed": 24,
      "acceleration": 5,
      "updateAngle": {
        "$type": "ConfigBulletMoveAngleByVelocity"
      }
    },
    /* "move" :
	{
		"$type" : "ConfigParabolaBulletMove",
		"speed" : 18.0,
		"angleOffHor": 5,
		"gravityOfAcceleration" : 5,
		"updateAngle" : 
		{
			"$type": "ConfigBulletMoveAngleRotating",
			"angularVelocity":
			{
				"x": -900,
				"y": 0,
				"z": 0,
			},
		},
		"correction" : 
		{
			"$type":"ConfigParabolaBulletMoveCorrection",
			"deviation": 1.0,
			"fixAngleOfVer": 15.0,
			"minSpeed": 5.0,
			"maxSpeed": 20.0,
		},
		"velocityForce":
		{
			"includeForces": ["RetreatType","RetreatAirType","WindZoneType"],
		},
	}, */
    // 生命周期管理
    "timer": {
      "lifeInfinite": false, //如果未触发是否一致存在
      "lifeTime": 1.0 //存在时间
    },
    // 子弹参数
    "gadget": {
      "$type": "ConfigBulletPattern",
      "collision": {
        "targetType": "None",
        "triggerType": "TriggerNoRepeat",
        "ccd": {
          "type": "Always"
        }
      },
      "triggerActions": [
        {
          "$type": "ConfigGadgetTriggerAbility",
          "abilityName": "Hilistray_Water_SlimeAtk_Bullet"
        }
      ],
      "killByOther": true
    },
    "abilities": [
      {
        "abilityName": "Hilistray_Water_SlimeAtk_Bullet"
      }
    ]
  }
}
