[
  {
    "scheduleId": 2001001,
    "shopType": "SHOP_TYPE_ACTIVITY_ASTER",
    "sheetList": [1, 2]
  },
  {
    "scheduleId": 3001001,
    "shopType": "SHOP_TYPE_ACTIVITY_DRAGON_SPINE",
    "sheetList": [3, 4, 5]
  },
  {
    "scheduleId": 2002001,
    "shopType": "SHOP_TYPE_ACTIVITY_SEA_LAMP",
    "sheetList": [7, 8, 9]
  },
  {
    "scheduleId": 2003001,
    "shopType": "SHOP_TYPE_ACTIVITY_FLEUR_FAIR",
    "sheetList": [10, 11]
  },
  {
    "scheduleId": 2004001,
    "shopType": "SHOP_TYPE_ACTIVITY_CHANNELLER_SLAB",
    "sheetList": [12]
  },
  {
    "scheduleId": 2005001,
    "shopType": "SHOP_TYPE_ACTIVITY_SUMMER_TIME",
    "sheetList": [13, 14]
  },
  {
    "scheduleId": 5032001,
    "shopType": "SHOP_TYPE_ACTIVITY_BOUNCE_CONJURING",
    "sheetList": [15]
  },
  {
    "scheduleId": 2006001,
    "shopType": "SHOP_TYPE_ACTIVITY_BLITZ_RUSH",
    "sheetList": [16, 17]
  },
  {
    "scheduleId": 5037001,
    "shopType": "SHOP_TYPE_ACTIVITY_CHESS",
    "sheetList": [18]
  },
  {
    "scheduleId": 2008001,
    "shopType": "SHOP_TYPE_ACTIVITY_ROGUELIKE_DUNGEON",
    "sheetList": [19, 20]
  },
  {
    "scheduleId": 2009001,
    "shopType": "SHOP_TYPE_ACTIVITY_WINTER_CAMP",
    "sheetList": [21, 22]
  },
  {
    "scheduleId": 2010001,
    "shopType": "SHOP_TYPE_ACTIVITY_LANTERN_RITE",
    "sheetList": [23, 24, 25]
  },
  {
    "scheduleId": 2013001,
    "shopType": "SHOP_TYPE_ACTIVITY_ROGUE_DIARY",
    "sheetList": [26]
  },
  {
    "scheduleId": 2014001,
    "shopType": "SHOP_TYPE_ACTIVITY_SUMMER_TIME_V2",
    "sheetList": [27]
  },
  {
    "scheduleId": 2015001,
    "shopType": "SHOP_TYPE_ACTIVITY_GRAVEN_INNOCENCE",
    "sheetList": [28, 29]
  },
  {
    "scheduleId": 5091001,
    "shopType": "SHOP_TYPE_ACTIVITY_TREASURE_MAP",
    "sheetList": [6]
  },
  {
    "scheduleId": 5107001,
    "shopType": "SHOP_TYPE_ACTIVITY_EFFIGY_V2",
    "sheetList": [30]
  },
  {
    "scheduleId": 2017001,
    "shopType": "SHOP_TYPE_ACTIVITY_FUNGUS_FIGHTER",
    "sheetList": [31, 32]
  },
  {
    "scheduleId": 2018001,
    "shopType": "SHOP_TYPE_ACTIVITY_BRICK_BREAKER",
    "sheetList": [33]
  },
  {
    "scheduleId": 2020001,
    "shopType": "SHOP_TYPE_ACTIVITY_FLEURFAIR_V2",
    "sheetList": [34, 35]
  }
]
