[
  {
    "Id": 1,
    "param": ["60,80,100,120", "", "", "", ""],
    "BJCFAFDGBMN": 751969881,
    "CDBFBNNJHHK": 3287737932,
    "BCBJEIGHABB": 3076050057
  },
  {
    "Id": 2,
    "param": ["1", "3", "4", "", ""],
    "BJCFAFDGBMN": 2239727673,
    "CDBFBNNJHHK": 1878334172,
    "BCBJEIGHABB": 4204350777
  },
  {
    "Id": 3,
    "param": ["100,150,200,250", "", "", "", ""],
    "BJCFAFDGBMN": 4286733705,
    "CDBFBNNJHHK": 2764297324,
    "BCBJEIGHABB": 1135991593
  },
  {
    "Id": 4,
    "param": ["3", "", "", "", ""],
    "BJCFAFDGBMN": 3740174441,
    "CDBFBNNJHHK": 893279172,
    "BCBJEIGHABB": 1419849889
  },
  {
    "Id": 5,
    "param": ["24,36,48,60", "8", "4", "", ""],
    "BJCFAFDGBMN": 541518785,
    "CDBFBNNJHHK": 59288044,
    "BCBJEIGHABB": 3270215977
  },
  {
    "Id": 6,
    "param": ["15,20,25,30", "10", "", "", ""],
    "BJCFAFDGBMN": 2957957601,
    "CDBFBNNJHHK": 2647445876,
    "BCBJEIGHABB": 930118105
  },
  {
    "Id": 7,
    "param": ["10", "20", "10", "", ""],
    "BJCFAFDGBMN": 1171666105,
    "CDBFBNNJHHK": 2545696156,
    "BCBJEIGHABB": 2977234321
  },
  {
    "Id": 8,
    "param": ["100,135,170,205", "8", "", "", ""],
    "BJCFAFDGBMN": 2999742425,
    "CDBFBNNJHHK": 1033180860,
    "BCBJEIGHABB": 1675746521
  },
  {
    "Id": 9,
    "param": ["", "", "", "", ""],
    "BJCFAFDGBMN": 2987580945,
    "CDBFBNNJHHK": 4149840404,
    "BCBJEIGHABB": 3058971113
  },
  {
    "Id": 10,
    "param": ["50,75,100,125", "10", "", "", ""],
    "BJCFAFDGBMN": 506333305,
    "CDBFBNNJHHK": 1782686300,
    "BCBJEIGHABB": 918860457
  },
  {
    "Id": 11,
    "param": ["10,15,20,25", "20,30,40,50", "", "", ""],
    "BJCFAFDGBMN": 92273441,
    "CDBFBNNJHHK": 4200054604,
    "BCBJEIGHABB": 3726333289
  },
  {
    "Id": 12,
    "param": ["30,45,60,75", "4", "", "", ""],
    "BJCFAFDGBMN": 688053793,
    "CDBFBNNJHHK": 3247471516,
    "BCBJEIGHABB": 3440541697
  },
  {
    "Id": 13,
    "param": ["4", "20,30,40,50", "", "", ""],
    "BJCFAFDGBMN": 1847127721,
    "CDBFBNNJHHK": 710859188,
    "BCBJEIGHABB": 3837237273
  },
  {
    "Id": 14,
    "param": ["4", "", "", "", ""],
    "BJCFAFDGBMN": 1833638657,
    "CDBFBNNJHHK": 2413564796,
    "BCBJEIGHABB": 2078865481
  },
  {
    "Id": 15,
    "param": ["50,75,100,125", "10", "4", "", ""],
    "BJCFAFDGBMN": 1381543401,
    "CDBFBNNJHHK": 743087636,
    "BCBJEIGHABB": 3631799297
  },
  {
    "Id": 16,
    "param": ["4", "", "", "", ""],
    "BJCFAFDGBMN": 487552409,
    "CDBFBNNJHHK": 1307034980,
    "BCBJEIGHABB": 1312645273
  },
  {
    "Id": 17,
    "param": ["", "", "", "", ""],
    "BJCFAFDGBMN": 3962836241,
    "CDBFBNNJHHK": 2517678484,
    "BCBJEIGHABB": 3805328385
  }
]
