[
  {
    "MBOCIGGACAA": 108009,
    "KOKPGNBJPGD": 141099,
    "IBMGHKEMGGN": 109301,
    "IFAJLCJGOJG": 3940267750
  },
  {
    "MBOCIGGACAA": 108097,
    "KOKPGNBJPGD": 141100,
    "IBMGHKEMGGN": 109405,
    "IFAJLCJGOJG": 3555462734
  },
  {
    "MBOCIGGACAA": 108036,
    "KOKPGNBJPGD": 141101,
    "IBMGHKEMGGN": 109202,
    "IFAJLCJGOJG": 1260508638
  },
  {
    "MBOCIGGACAA": 108013,
    "KOKPGNBJPGD": 141102,
    "IBMGHKEMGGN": 109101,
    "IFAJLCJGOJG": 415623006
  },
  {
    "MBOCIGGACAA": 108030,
    "KOKPGNBJPGD": 141103,
    "IBMGHKEMGGN": 109403,
    "IFAJLCJGOJG": 1341580510
  },
  {
    "MBOCIGGACAA": 108067,
    "KOKPGNBJPGD": 141104,
    "IBMGHKEMGGN": 109206,
    "IFAJLCJGOJG": 482870446
  },
  {
    "MBOCIGGACAA": 108064,
    "KOKPGNBJPGD": 141105,
    "IBMGHKEMGGN": 109205,
    "IFAJLCJGOJG": 2901276782
  },
  {
    "MBOCIGGACAA": 108003,
    "KOKPGNBJPGD": 141106,
    "IBMGHKEMGGN": 109102,
    "IFAJLCJGOJG": 3329823182
  },
  {
    "MBOCIGGACAA": 108027,
    "KOKPGNBJPGD": 141107,
    "IBMGHKEMGGN": 109402,
    "IFAJLCJGOJG": 3628024462
  },
  {
    "MBOCIGGACAA": 108024,
    "KOKPGNBJPGD": 141108,
    "IBMGHKEMGGN": 109401,
    "IFAJLCJGOJG": 2731110766
  },
  {
    "MBOCIGGACAA": 108021,
    "KOKPGNBJPGD": 141109,
    "IBMGHKEMGGN": 109302,
    "IFAJLCJGOJG": 3660824350
  },
  {
    "MBOCIGGACAA": 108043,
    "KOKPGNBJPGD": 141110,
    "IBMGHKEMGGN": 109207,
    "IFAJLCJGOJG": 4072314902
  },
  {
    "MBOCIGGACAA": 108061,
    "KOKPGNBJPGD": 141111,
    "IBMGHKEMGGN": 109204,
    "IFAJLCJGOJG": 3449002558
  },
  {
    "MBOCIGGACAA": 108051,
    "KOKPGNBJPGD": 141112,
    "IBMGHKEMGGN": 109106,
    "IFAJLCJGOJG": 3791415422
  },
  {
    "MBOCIGGACAA": 108227,
    "KOKPGNBJPGD": 141113,
    "IBMGHKEMGGN": 109445,
    "IFAJLCJGOJG": 35084438
  },
  {
    "MBOCIGGACAA": 108209,
    "KOKPGNBJPGD": 141114,
    "IBMGHKEMGGN": 109441,
    "IFAJLCJGOJG": 853909374
  }
]
