[
  {
    "scheduleId": 5047001,
    "GFMMAOKKBKM": [
      373801, 373802, 373803, 373804, 373805, 373806, 373807, 373808, 373809
    ],
    "OEKOAEOPAAO": [130022, 130023, 130024],
    "FEIELOBHLOO": 99,
    "rewardPreviewId": 32601,
    "GCPHLMJBIIJ": 5,
    "OCJAPKBDMLB": [1100811, 201310],
    "openQuestId": 7265801,
    "JDBIEGFDHGH": 6,
    "dailyConfigIdList": [1, 2, 3, 4, 5, 6]
  }
]
