[
  {
    "ID": 1,
    "scheduleId": 5019001,
    "arenaChallengeId": 1,
    "arenaChallengeLevel": 1,
    "watcherId": 1501901,
    "challengeTargetTextMapHash": 2413519153,
    "challengeTarget1TextMapHash": 3387150085,
    "challengeTarget2TextMapHash": 1828722248,
    "JFJPCAJEKOI": "",
    "DDBJGNOGMJA": "",
    "JIEMGKFEJCE": ""
  },
  {
    "ID": 2,
    "scheduleId": 5019001,
    "arenaChallengeId": 1,
    "arenaChallengeLevel": 2,
    "watcherId": 1501902,
    "challengeTargetTextMapHash": 393051817,
    "challengeTarget1TextMapHash": 961568485,
    "challengeTarget2TextMapHash": 2519371560,
    "JFJPCAJEKOI": "",
    "DDBJGNOGMJA": "",
    "JIEMGKFEJCE": ""
  },
  {
    "ID": 3,
    "scheduleId": 5019001,
    "arenaChallengeId": 1,
    "arenaChallengeLevel": 3,
    "watcherId": 1501903,
    "challengeTargetTextMapHash": 3291236265,
    "challengeTarget1TextMapHash": 2939584597,
    "challengeTarget2TextMapHash": 3440113512,
    "JFJPCAJEKOI": "",
    "DDBJGNOGMJA": "",
    "JIEMGKFEJCE": ""
  },
  {
    "ID": 4,
    "scheduleId": 5019001,
    "arenaChallengeId": 2,
    "arenaChallengeLevel": 1,
    "watcherId": 1501904,
    "challengeTargetTextMapHash": 2075435145,
    "challengeTarget1TextMapHash": 2975320301,
    "challengeTarget2TextMapHash": 1000909896,
    "JFJPCAJEKOI": "",
    "DDBJGNOGMJA": "",
    "JIEMGKFEJCE": ""
  },
  {
    "ID": 5,
    "scheduleId": 5019001,
    "arenaChallengeId": 2,
    "arenaChallengeLevel": 2,
    "watcherId": 1501905,
    "challengeTargetTextMapHash": 2313836041,
    "challengeTarget1TextMapHash": 4186396373,
    "challengeTarget2TextMapHash": 1956659648,
    "JFJPCAJEKOI": "",
    "DDBJGNOGMJA": "",
    "JIEMGKFEJCE": ""
  },
  {
    "ID": 6,
    "scheduleId": 5019001,
    "arenaChallengeId": 2,
    "arenaChallengeLevel": 3,
    "watcherId": 1501906,
    "challengeTargetTextMapHash": 1153779913,
    "challengeTarget1TextMapHash": 2531410685,
    "challengeTarget2TextMapHash": 871693176,
    "JFJPCAJEKOI": "",
    "DDBJGNOGMJA": "",
    "JIEMGKFEJCE": ""
  },
  {
    "ID": 7,
    "scheduleId": 5019001,
    "arenaChallengeId": 3,
    "arenaChallengeLevel": 1,
    "watcherId": 1501907,
    "challengeTargetTextMapHash": 3727748241,
    "challengeTarget1TextMapHash": 1878066669,
    "challengeTarget2TextMapHash": 3739369496,
    "JFJPCAJEKOI": "",
    "DDBJGNOGMJA": "",
    "JIEMGKFEJCE": ""
  },
  {
    "ID": 8,
    "scheduleId": 5019001,
    "arenaChallengeId": 3,
    "arenaChallengeLevel": 2,
    "watcherId": 1501908,
    "challengeTargetTextMapHash": 3930239265,
    "challengeTarget1TextMapHash": 3417026165,
    "challengeTarget2TextMapHash": 4086292328,
    "JFJPCAJEKOI": "",
    "DDBJGNOGMJA": "",
    "JIEMGKFEJCE": ""
  },
  {
    "ID": 9,
    "scheduleId": 5019001,
    "arenaChallengeId": 3,
    "arenaChallengeLevel": 3,
    "watcherId": 1501909,
    "challengeTargetTextMapHash": 4155558185,
    "challengeTarget1TextMapHash": 4204833893,
    "challengeTarget2TextMapHash": 3286969896,
    "JFJPCAJEKOI": "",
    "DDBJGNOGMJA": "",
    "JIEMGKFEJCE": ""
  },
  {
    "ID": 10,
    "scheduleId": 5019001,
    "arenaChallengeId": 4,
    "arenaChallengeLevel": 1,
    "watcherId": 1501910,
    "challengeTargetTextMapHash": 903692585,
    "challengeTarget1TextMapHash": 94823309,
    "challengeTarget2TextMapHash": 4089395128,
    "JFJPCAJEKOI": "",
    "DDBJGNOGMJA": "",
    "JIEMGKFEJCE": ""
  },
  {
    "ID": 11,
    "scheduleId": 5019001,
    "arenaChallengeId": 4,
    "arenaChallengeLevel": 2,
    "watcherId": 1501911,
    "challengeTargetTextMapHash": 1789572993,
    "challengeTarget1TextMapHash": 1925852029,
    "challengeTarget2TextMapHash": 1935186176,
    "JFJPCAJEKOI": "",
    "DDBJGNOGMJA": "",
    "JIEMGKFEJCE": ""
  },
  {
    "ID": 12,
    "scheduleId": 5019001,
    "arenaChallengeId": 4,
    "arenaChallengeLevel": 3,
    "watcherId": 1501912,
    "challengeTargetTextMapHash": 1365490953,
    "challengeTarget1TextMapHash": 4212258541,
    "challengeTarget2TextMapHash": 2149355600,
    "JFJPCAJEKOI": "",
    "DDBJGNOGMJA": "",
    "JIEMGKFEJCE": ""
  },
  {
    "ID": 13,
    "scheduleId": 5019001,
    "arenaChallengeId": 5,
    "arenaChallengeLevel": 1,
    "watcherId": 1501913,
    "challengeTargetTextMapHash": 848499665,
    "challengeTarget1TextMapHash": 2137377909,
    "challengeTarget2TextMapHash": 1985045488,
    "JFJPCAJEKOI": "",
    "DDBJGNOGMJA": "",
    "JIEMGKFEJCE": ""
  },
  {
    "ID": 14,
    "scheduleId": 5019001,
    "arenaChallengeId": 5,
    "arenaChallengeLevel": 2,
    "watcherId": 1501914,
    "challengeTargetTextMapHash": 3452572121,
    "challengeTarget1TextMapHash": 3206066437,
    "challengeTarget2TextMapHash": 2100098008,
    "JFJPCAJEKOI": "",
    "DDBJGNOGMJA": "",
    "JIEMGKFEJCE": ""
  },
  {
    "ID": 15,
    "scheduleId": 5019001,
    "arenaChallengeId": 5,
    "arenaChallengeLevel": 3,
    "watcherId": 1501915,
    "challengeTargetTextMapHash": 765137441,
    "challengeTarget1TextMapHash": 1758654909,
    "challengeTarget2TextMapHash": 4090850984,
    "JFJPCAJEKOI": "",
    "DDBJGNOGMJA": "",
    "JIEMGKFEJCE": ""
  },
  {
    "ID": 16,
    "scheduleId": 5019001,
    "arenaChallengeId": 6,
    "arenaChallengeLevel": 1,
    "watcherId": 1501916,
    "challengeTargetTextMapHash": 767330593,
    "challengeTarget1TextMapHash": 3469185717,
    "challengeTarget2TextMapHash": 3538276272,
    "JFJPCAJEKOI": "",
    "DDBJGNOGMJA": "",
    "JIEMGKFEJCE": ""
  },
  {
    "ID": 17,
    "scheduleId": 5019001,
    "arenaChallengeId": 6,
    "arenaChallengeLevel": 2,
    "watcherId": 1501917,
    "challengeTargetTextMapHash": 4285125921,
    "challengeTarget1TextMapHash": 2828883989,
    "challengeTarget2TextMapHash": 3798532152,
    "JFJPCAJEKOI": "",
    "DDBJGNOGMJA": "",
    "JIEMGKFEJCE": ""
  },
  {
    "ID": 18,
    "scheduleId": 5019001,
    "arenaChallengeId": 6,
    "arenaChallengeLevel": 3,
    "watcherId": 1501918,
    "challengeTargetTextMapHash": 2161715961,
    "challengeTarget1TextMapHash": 2969551157,
    "challengeTarget2TextMapHash": 3476186216,
    "JFJPCAJEKOI": "",
    "DDBJGNOGMJA": "",
    "JIEMGKFEJCE": ""
  },
  {
    "ID": 19,
    "scheduleId": 5019001,
    "arenaChallengeId": 7,
    "arenaChallengeLevel": 1,
    "watcherId": 1501919,
    "challengeTargetTextMapHash": 1259139697,
    "challengeTarget1TextMapHash": 4178934157,
    "challengeTarget2TextMapHash": 508996808,
    "JFJPCAJEKOI": "",
    "DDBJGNOGMJA": "",
    "JIEMGKFEJCE": ""
  },
  {
    "ID": 20,
    "scheduleId": 5019001,
    "arenaChallengeId": 7,
    "arenaChallengeLevel": 2,
    "watcherId": 1501920,
    "challengeTargetTextMapHash": 3429869713,
    "challengeTarget1TextMapHash": 3118003901,
    "challengeTarget2TextMapHash": 3946629728,
    "JFJPCAJEKOI": "",
    "DDBJGNOGMJA": "",
    "JIEMGKFEJCE": ""
  },
  {
    "ID": 21,
    "scheduleId": 5019001,
    "arenaChallengeId": 7,
    "arenaChallengeLevel": 3,
    "watcherId": 1501921,
    "challengeTargetTextMapHash": 999605281,
    "challengeTarget1TextMapHash": 1368593237,
    "challengeTarget2TextMapHash": 448218952,
    "JFJPCAJEKOI": "",
    "DDBJGNOGMJA": "",
    "JIEMGKFEJCE": ""
  },
  {
    "ID": 22,
    "scheduleId": 5034001,
    "arenaChallengeId": 1,
    "arenaChallengeLevel": 1,
    "watcherId": 1503401,
    "challengeTargetTextMapHash": 3617920873,
    "challengeTarget1TextMapHash": 2326950253,
    "challengeTarget2TextMapHash": 887237096,
    "JFJPCAJEKOI": "",
    "DDBJGNOGMJA": "",
    "JIEMGKFEJCE": ""
  },
  {
    "ID": 23,
    "scheduleId": 5034001,
    "arenaChallengeId": 1,
    "arenaChallengeLevel": 2,
    "watcherId": 1503402,
    "challengeTargetTextMapHash": 3419481441,
    "challengeTarget1TextMapHash": 8139197,
    "challengeTarget2TextMapHash": 3682055416,
    "JFJPCAJEKOI": "",
    "DDBJGNOGMJA": "",
    "JIEMGKFEJCE": ""
  },
  {
    "ID": 24,
    "scheduleId": 5034001,
    "arenaChallengeId": 1,
    "arenaChallengeLevel": 3,
    "watcherId": 1503403,
    "challengeTargetTextMapHash": 1319959961,
    "challengeTarget1TextMapHash": 204462077,
    "challengeTarget2TextMapHash": 1725945432,
    "JFJPCAJEKOI": "",
    "DDBJGNOGMJA": "",
    "JIEMGKFEJCE": ""
  },
  {
    "ID": 25,
    "scheduleId": 5034001,
    "arenaChallengeId": 1,
    "arenaChallengeLevel": 4,
    "MNECHMMOLJG": true,
    "watcherId": 1503404,
    "challengeTargetTextMapHash": 668938129,
    "challengeTarget1TextMapHash": 1533550973,
    "challengeTarget2TextMapHash": 1768061928,
    "JFJPCAJEKOI": "",
    "DDBJGNOGMJA": "",
    "JIEMGKFEJCE": ""
  },
  {
    "ID": 26,
    "scheduleId": 5034001,
    "arenaChallengeId": 2,
    "arenaChallengeLevel": 1,
    "watcherId": 1503405,
    "challengeTargetTextMapHash": 921895161,
    "challengeTarget1TextMapHash": 3003420509,
    "challengeTarget2TextMapHash": 4071291632,
    "JFJPCAJEKOI": "",
    "DDBJGNOGMJA": "",
    "JIEMGKFEJCE": ""
  },
  {
    "ID": 27,
    "scheduleId": 5034001,
    "arenaChallengeId": 2,
    "arenaChallengeLevel": 2,
    "watcherId": 1503406,
    "challengeTargetTextMapHash": 3242006625,
    "challengeTarget1TextMapHash": 3103158693,
    "challengeTarget2TextMapHash": 4285341192,
    "JFJPCAJEKOI": "",
    "DDBJGNOGMJA": "",
    "JIEMGKFEJCE": ""
  },
  {
    "ID": 28,
    "scheduleId": 5034001,
    "arenaChallengeId": 2,
    "arenaChallengeLevel": 3,
    "watcherId": 1503407,
    "challengeTargetTextMapHash": 3479190161,
    "challengeTarget1TextMapHash": 180422421,
    "challengeTarget2TextMapHash": 579013216,
    "JFJPCAJEKOI": "",
    "DDBJGNOGMJA": "",
    "JIEMGKFEJCE": ""
  },
  {
    "ID": 29,
    "scheduleId": 5034001,
    "arenaChallengeId": 2,
    "arenaChallengeLevel": 4,
    "MNECHMMOLJG": true,
    "watcherId": 1503408,
    "challengeTargetTextMapHash": 2621252209,
    "challengeTarget1TextMapHash": 1316858709,
    "challengeTarget2TextMapHash": 1262682440,
    "JFJPCAJEKOI": "",
    "DDBJGNOGMJA": "",
    "JIEMGKFEJCE": ""
  },
  {
    "ID": 30,
    "scheduleId": 5034001,
    "arenaChallengeId": 3,
    "arenaChallengeLevel": 1,
    "watcherId": 1503409,
    "challengeTargetTextMapHash": 308971881,
    "challengeTarget1TextMapHash": 3292082701,
    "challengeTarget2TextMapHash": 170323872,
    "JFJPCAJEKOI": "",
    "DDBJGNOGMJA": "",
    "JIEMGKFEJCE": ""
  },
  {
    "ID": 31,
    "scheduleId": 5034001,
    "arenaChallengeId": 3,
    "arenaChallengeLevel": 2,
    "watcherId": 1503410,
    "challengeTargetTextMapHash": 1767104769,
    "challengeTarget1TextMapHash": 2892403349,
    "challengeTarget2TextMapHash": 3071635344,
    "JFJPCAJEKOI": "",
    "DDBJGNOGMJA": "",
    "JIEMGKFEJCE": ""
  },
  {
    "ID": 32,
    "scheduleId": 5034001,
    "arenaChallengeId": 3,
    "arenaChallengeLevel": 3,
    "watcherId": 1503411,
    "challengeTargetTextMapHash": 3494125265,
    "challengeTarget1TextMapHash": 1973402653,
    "challengeTarget2TextMapHash": 2325783072,
    "JFJPCAJEKOI": "",
    "DDBJGNOGMJA": "",
    "JIEMGKFEJCE": ""
  },
  {
    "ID": 33,
    "scheduleId": 5034001,
    "arenaChallengeId": 3,
    "arenaChallengeLevel": 4,
    "MNECHMMOLJG": true,
    "watcherId": 1503412,
    "challengeTargetTextMapHash": 3147223457,
    "challengeTarget1TextMapHash": 2554938229,
    "challengeTarget2TextMapHash": 2460556128,
    "JFJPCAJEKOI": "",
    "DDBJGNOGMJA": "",
    "JIEMGKFEJCE": ""
  },
  {
    "ID": 34,
    "scheduleId": 5034001,
    "arenaChallengeId": 4,
    "arenaChallengeLevel": 1,
    "watcherId": 1503413,
    "challengeTargetTextMapHash": 4175051377,
    "challengeTarget1TextMapHash": 2359573957,
    "challengeTarget2TextMapHash": 3664621104,
    "JFJPCAJEKOI": "",
    "DDBJGNOGMJA": "",
    "JIEMGKFEJCE": ""
  },
  {
    "ID": 35,
    "scheduleId": 5034001,
    "arenaChallengeId": 4,
    "arenaChallengeLevel": 2,
    "watcherId": 1503414,
    "challengeTargetTextMapHash": 2364438257,
    "challengeTarget1TextMapHash": 3789335205,
    "challengeTarget2TextMapHash": 3981326184,
    "JFJPCAJEKOI": "",
    "DDBJGNOGMJA": "",
    "JIEMGKFEJCE": ""
  },
  {
    "ID": 36,
    "scheduleId": 5034001,
    "arenaChallengeId": 4,
    "arenaChallengeLevel": 3,
    "watcherId": 1503415,
    "challengeTargetTextMapHash": 133256777,
    "challengeTarget1TextMapHash": 4243365645,
    "challengeTarget2TextMapHash": 1999606128,
    "JFJPCAJEKOI": "",
    "DDBJGNOGMJA": "",
    "JIEMGKFEJCE": ""
  },
  {
    "ID": 37,
    "scheduleId": 5034001,
    "arenaChallengeId": 4,
    "arenaChallengeLevel": 4,
    "MNECHMMOLJG": true,
    "watcherId": 1503416,
    "challengeTargetTextMapHash": 1299185729,
    "challengeTarget1TextMapHash": 2221684861,
    "challengeTarget2TextMapHash": 3214405656,
    "JFJPCAJEKOI": "",
    "DDBJGNOGMJA": "",
    "JIEMGKFEJCE": ""
  },
  {
    "ID": 38,
    "scheduleId": 5034001,
    "arenaChallengeId": 5,
    "arenaChallengeLevel": 1,
    "watcherId": 1503417,
    "challengeTargetTextMapHash": 1066519649,
    "challengeTarget1TextMapHash": 2887196317,
    "challengeTarget2TextMapHash": 2332313328,
    "JFJPCAJEKOI": "",
    "DDBJGNOGMJA": "",
    "JIEMGKFEJCE": ""
  },
  {
    "ID": 39,
    "scheduleId": 5034001,
    "arenaChallengeId": 5,
    "arenaChallengeLevel": 2,
    "watcherId": 1503418,
    "challengeTargetTextMapHash": 268757169,
    "challengeTarget1TextMapHash": 572402685,
    "challengeTarget2TextMapHash": 1251046544,
    "JFJPCAJEKOI": "",
    "DDBJGNOGMJA": "",
    "JIEMGKFEJCE": ""
  },
  {
    "ID": 40,
    "scheduleId": 5034001,
    "arenaChallengeId": 5,
    "arenaChallengeLevel": 3,
    "watcherId": 1503419,
    "challengeTargetTextMapHash": 2492380969,
    "challengeTarget1TextMapHash": 3257864285,
    "challengeTarget2TextMapHash": 4109555192,
    "JFJPCAJEKOI": "",
    "DDBJGNOGMJA": "",
    "JIEMGKFEJCE": ""
  },
  {
    "ID": 41,
    "scheduleId": 5034001,
    "arenaChallengeId": 5,
    "arenaChallengeLevel": 4,
    "MNECHMMOLJG": true,
    "watcherId": 1503420,
    "challengeTargetTextMapHash": 3831985729,
    "challengeTarget1TextMapHash": 237628085,
    "challengeTarget2TextMapHash": 2853398856,
    "JFJPCAJEKOI": "",
    "DDBJGNOGMJA": "",
    "JIEMGKFEJCE": ""
  },
  {
    "ID": 42,
    "scheduleId": 5034001,
    "arenaChallengeId": 6,
    "arenaChallengeLevel": 1,
    "watcherId": 1503421,
    "challengeTargetTextMapHash": 2857205721,
    "challengeTarget1TextMapHash": 1043591037,
    "challengeTarget2TextMapHash": 919562912,
    "JFJPCAJEKOI": "",
    "DDBJGNOGMJA": "",
    "JIEMGKFEJCE": ""
  },
  {
    "ID": 43,
    "scheduleId": 5034001,
    "arenaChallengeId": 6,
    "arenaChallengeLevel": 2,
    "watcherId": 1503422,
    "challengeTargetTextMapHash": 2203438281,
    "challengeTarget1TextMapHash": 1091598661,
    "challengeTarget2TextMapHash": 1042722080,
    "JFJPCAJEKOI": "",
    "DDBJGNOGMJA": "",
    "JIEMGKFEJCE": ""
  },
  {
    "ID": 44,
    "scheduleId": 5034001,
    "arenaChallengeId": 6,
    "arenaChallengeLevel": 3,
    "watcherId": 1503423,
    "challengeTargetTextMapHash": 2500514705,
    "challengeTarget1TextMapHash": 1176797437,
    "challengeTarget2TextMapHash": 2739142464,
    "JFJPCAJEKOI": "",
    "DDBJGNOGMJA": "",
    "JIEMGKFEJCE": ""
  },
  {
    "ID": 45,
    "scheduleId": 5034001,
    "arenaChallengeId": 6,
    "arenaChallengeLevel": 4,
    "MNECHMMOLJG": true,
    "watcherId": 1503424,
    "challengeTargetTextMapHash": 2321738849,
    "challengeTarget1TextMapHash": 1712407389,
    "challengeTarget2TextMapHash": 455174632,
    "JFJPCAJEKOI": "",
    "DDBJGNOGMJA": "",
    "JIEMGKFEJCE": ""
  },
  {
    "ID": 46,
    "scheduleId": 5034001,
    "arenaChallengeId": 7,
    "arenaChallengeLevel": 1,
    "watcherId": 1503425,
    "challengeTargetTextMapHash": 840130729,
    "challengeTarget1TextMapHash": 1407566165,
    "challengeTarget2TextMapHash": 3750621616,
    "JFJPCAJEKOI": "",
    "DDBJGNOGMJA": "",
    "JIEMGKFEJCE": ""
  },
  {
    "ID": 47,
    "scheduleId": 5034001,
    "arenaChallengeId": 7,
    "arenaChallengeLevel": 2,
    "watcherId": 1503426,
    "challengeTargetTextMapHash": 387506505,
    "challengeTarget1TextMapHash": 2838816253,
    "challengeTarget2TextMapHash": 4075866072,
    "JFJPCAJEKOI": "",
    "DDBJGNOGMJA": "",
    "JIEMGKFEJCE": ""
  },
  {
    "ID": 48,
    "scheduleId": 5034001,
    "arenaChallengeId": 7,
    "arenaChallengeLevel": 3,
    "watcherId": 1503427,
    "challengeTargetTextMapHash": 391967289,
    "challengeTarget1TextMapHash": 3738711773,
    "challengeTarget2TextMapHash": 3015863824,
    "JFJPCAJEKOI": "",
    "DDBJGNOGMJA": "",
    "JIEMGKFEJCE": ""
  },
  {
    "ID": 49,
    "scheduleId": 5034001,
    "arenaChallengeId": 7,
    "arenaChallengeLevel": 4,
    "MNECHMMOLJG": true,
    "watcherId": 1503428,
    "challengeTargetTextMapHash": 3911157009,
    "challengeTarget1TextMapHash": 765078173,
    "challengeTarget2TextMapHash": 2801143408,
    "JFJPCAJEKOI": "",
    "DDBJGNOGMJA": "",
    "JIEMGKFEJCE": ""
  },
  {
    "ID": 50,
    "scheduleId": 5085001,
    "arenaChallengeId": 1,
    "arenaChallengeLevel": 1,
    "watcherId": 1508501,
    "challengeTargetTextMapHash": 3468617113,
    "challengeTarget1TextMapHash": 3578932725,
    "challengeTarget2TextMapHash": 359469936,
    "JFJPCAJEKOI": "2010036;180",
    "DDBJGNOGMJA": "",
    "JIEMGKFEJCE": "2010035;1"
  },
  {
    "ID": 51,
    "scheduleId": 5085001,
    "arenaChallengeId": 1,
    "arenaChallengeLevel": 2,
    "watcherId": 1508502,
    "challengeTargetTextMapHash": 2989407833,
    "challengeTarget1TextMapHash": 3016041277,
    "challengeTarget2TextMapHash": 2054166960,
    "JFJPCAJEKOI": "2010036;180",
    "DDBJGNOGMJA": "2010038;6",
    "JIEMGKFEJCE": "2010035;1"
  },
  {
    "ID": 52,
    "scheduleId": 5085001,
    "arenaChallengeId": 1,
    "arenaChallengeLevel": 3,
    "watcherId": 1508503,
    "challengeTargetTextMapHash": 377899873,
    "challengeTarget1TextMapHash": 2740635309,
    "challengeTarget2TextMapHash": 3721905008,
    "JFJPCAJEKOI": "2010036;180",
    "DDBJGNOGMJA": "2010038;6",
    "JIEMGKFEJCE": "2010035;1"
  },
  {
    "ID": 53,
    "scheduleId": 5085001,
    "arenaChallengeId": 1,
    "arenaChallengeLevel": 4,
    "MNECHMMOLJG": true,
    "watcherId": 1508504,
    "challengeTargetTextMapHash": 4252246489,
    "challengeTarget1TextMapHash": 2591014093,
    "challengeTarget2TextMapHash": 4284102792,
    "JFJPCAJEKOI": "2010069;150",
    "DDBJGNOGMJA": "2010038;6",
    "JIEMGKFEJCE": "2010035;2"
  },
  {
    "ID": 54,
    "scheduleId": 5085001,
    "arenaChallengeId": 2,
    "arenaChallengeLevel": 1,
    "watcherId": 1508505,
    "challengeTargetTextMapHash": 2780590553,
    "challengeTarget1TextMapHash": 3747028997,
    "challengeTarget2TextMapHash": 3657045536,
    "JFJPCAJEKOI": "2010036;180",
    "DDBJGNOGMJA": "",
    "JIEMGKFEJCE": "2010035;3"
  },
  {
    "ID": 55,
    "scheduleId": 5085001,
    "arenaChallengeId": 2,
    "arenaChallengeLevel": 2,
    "watcherId": 1508506,
    "challengeTargetTextMapHash": 3527315185,
    "challengeTarget1TextMapHash": 344261461,
    "challengeTarget2TextMapHash": 3197754264,
    "JFJPCAJEKOI": "2010036;180",
    "DDBJGNOGMJA": "2010039;12",
    "JIEMGKFEJCE": "2010035;3"
  },
  {
    "ID": 56,
    "scheduleId": 5085001,
    "arenaChallengeId": 2,
    "arenaChallengeLevel": 3,
    "watcherId": 1508507,
    "challengeTargetTextMapHash": 1066192057,
    "challengeTarget1TextMapHash": 3181679997,
    "challengeTarget2TextMapHash": 1181912544,
    "JFJPCAJEKOI": "2010036;180",
    "DDBJGNOGMJA": "2010039;12",
    "JIEMGKFEJCE": "2010035;3"
  },
  {
    "ID": 57,
    "scheduleId": 5085001,
    "arenaChallengeId": 2,
    "arenaChallengeLevel": 4,
    "MNECHMMOLJG": true,
    "watcherId": 1508508,
    "challengeTargetTextMapHash": 2061332657,
    "challengeTarget1TextMapHash": 1569548989,
    "challengeTarget2TextMapHash": 645185848,
    "JFJPCAJEKOI": "2010069;150",
    "DDBJGNOGMJA": "2010039;12",
    "JIEMGKFEJCE": "2010035;6"
  },
  {
    "ID": 54,
    "scheduleId": 5085001,
    "arenaChallengeId": 3,
    "arenaChallengeLevel": 1,
    "watcherId": 1508509,
    "challengeTargetTextMapHash": 2780590553,
    "challengeTarget1TextMapHash": 3747028997,
    "challengeTarget2TextMapHash": 3657045536,
    "JFJPCAJEKOI": "2010036;180",
    "DDBJGNOGMJA": "",
    "JIEMGKFEJCE": "2010035;3"
  },
  {
    "ID": 55,
    "scheduleId": 5085001,
    "arenaChallengeId": 3,
    "arenaChallengeLevel": 2,
    "watcherId": 1508510,
    "challengeTargetTextMapHash": 3527315185,
    "challengeTarget1TextMapHash": 344261461,
    "challengeTarget2TextMapHash": 3197754264,
    "JFJPCAJEKOI": "2010036;180",
    "DDBJGNOGMJA": "2010040;20",
    "JIEMGKFEJCE": "2010035;3"
  },
  {
    "ID": 56,
    "scheduleId": 5085001,
    "arenaChallengeId": 3,
    "arenaChallengeLevel": 3,
    "watcherId": 1508511,
    "challengeTargetTextMapHash": 1066192057,
    "challengeTarget1TextMapHash": 3181679997,
    "challengeTarget2TextMapHash": 1181912544,
    "JFJPCAJEKOI": "2010036;180",
    "DDBJGNOGMJA": "2010040;20",
    "JIEMGKFEJCE": "2010035;3"
  },
  {
    "ID": 57,
    "scheduleId": 5085001,
    "arenaChallengeId": 3,
    "arenaChallengeLevel": 4,
    "MNECHMMOLJG": true,
    "watcherId": 1508512,
    "challengeTargetTextMapHash": 2061332657,
    "challengeTarget1TextMapHash": 1569548989,
    "challengeTarget2TextMapHash": 645185848,
    "JFJPCAJEKOI": "2010069;150",
    "DDBJGNOGMJA": "2010040;20",
    "JIEMGKFEJCE": "2010035;12"
  },
  {
    "ID": 54,
    "scheduleId": 5085001,
    "arenaChallengeId": 4,
    "arenaChallengeLevel": 1,
    "watcherId": 1508513,
    "challengeTargetTextMapHash": 2780590553,
    "challengeTarget1TextMapHash": 3747028997,
    "challengeTarget2TextMapHash": 3657045536,
    "JFJPCAJEKOI": "2010036;180",
    "DDBJGNOGMJA": "",
    "JIEMGKFEJCE": "2010035;2"
  },
  {
    "ID": 55,
    "scheduleId": 5085001,
    "arenaChallengeId": 4,
    "arenaChallengeLevel": 2,
    "watcherId": 1508514,
    "challengeTargetTextMapHash": 3527315185,
    "challengeTarget1TextMapHash": 344261461,
    "challengeTarget2TextMapHash": 3197754264,
    "JFJPCAJEKOI": "2010036;180",
    "DDBJGNOGMJA": "2010041;15",
    "JIEMGKFEJCE": "2010035;2"
  },
  {
    "ID": 56,
    "scheduleId": 5085001,
    "arenaChallengeId": 4,
    "arenaChallengeLevel": 3,
    "watcherId": 1508515,
    "challengeTargetTextMapHash": 1066192057,
    "challengeTarget1TextMapHash": 3181679997,
    "challengeTarget2TextMapHash": 1181912544,
    "JFJPCAJEKOI": "2010036;180",
    "DDBJGNOGMJA": "2010041;15",
    "JIEMGKFEJCE": "2010035;2"
  },
  {
    "ID": 57,
    "scheduleId": 5085001,
    "arenaChallengeId": 4,
    "arenaChallengeLevel": 4,
    "MNECHMMOLJG": true,
    "watcherId": 1508516,
    "challengeTargetTextMapHash": 2061332657,
    "challengeTarget1TextMapHash": 1569548989,
    "challengeTarget2TextMapHash": 645185848,
    "JFJPCAJEKOI": "2010069;150",
    "DDBJGNOGMJA": "2010041;15",
    "JIEMGKFEJCE": "2010035;4"
  },
  {
    "ID": 54,
    "scheduleId": 5085001,
    "arenaChallengeId": 5,
    "arenaChallengeLevel": 1,
    "watcherId": 1508517,
    "challengeTargetTextMapHash": 2780590553,
    "challengeTarget1TextMapHash": 3747028997,
    "challengeTarget2TextMapHash": 3657045536,
    "JFJPCAJEKOI": "2010036;180",
    "DDBJGNOGMJA": "",
    "JIEMGKFEJCE": "2010035;3"
  },
  {
    "ID": 55,
    "scheduleId": 5085001,
    "arenaChallengeId": 5,
    "arenaChallengeLevel": 2,
    "watcherId": 1508518,
    "challengeTargetTextMapHash": 3527315185,
    "challengeTarget1TextMapHash": 344261461,
    "challengeTarget2TextMapHash": 3197754264,
    "JFJPCAJEKOI": "2010036;180",
    "DDBJGNOGMJA": "2010042;15",
    "JIEMGKFEJCE": "2010035;3"
  },
  {
    "ID": 56,
    "scheduleId": 5085001,
    "arenaChallengeId": 5,
    "arenaChallengeLevel": 3,
    "watcherId": 1508519,
    "challengeTargetTextMapHash": 1066192057,
    "challengeTarget1TextMapHash": 3181679997,
    "challengeTarget2TextMapHash": 1181912544,
    "JFJPCAJEKOI": "2010036;180",
    "DDBJGNOGMJA": "2010042;15",
    "JIEMGKFEJCE": "2010035;3"
  },
  {
    "ID": 57,
    "scheduleId": 5085001,
    "arenaChallengeId": 5,
    "arenaChallengeLevel": 4,
    "MNECHMMOLJG": true,
    "watcherId": 1508520,
    "challengeTargetTextMapHash": 2061332657,
    "challengeTarget1TextMapHash": 1569548989,
    "challengeTarget2TextMapHash": 645185848,
    "JFJPCAJEKOI": "2010069;150",
    "DDBJGNOGMJA": "2010042;15",
    "JIEMGKFEJCE": "2010035;6"
  },
  {
    "ID": 54,
    "scheduleId": 5085001,
    "arenaChallengeId": 6,
    "arenaChallengeLevel": 1,
    "watcherId": 1508521,
    "challengeTargetTextMapHash": 2780590553,
    "challengeTarget1TextMapHash": 3747028997,
    "challengeTarget2TextMapHash": 3657045536,
    "JFJPCAJEKOI": "2010036;180",
    "DDBJGNOGMJA": "",
    "JIEMGKFEJCE": "2010035;3"
  },
  {
    "ID": 55,
    "scheduleId": 5085001,
    "arenaChallengeId": 6,
    "arenaChallengeLevel": 2,
    "watcherId": 1508522,
    "challengeTargetTextMapHash": 3527315185,
    "challengeTarget1TextMapHash": 344261461,
    "challengeTarget2TextMapHash": 3197754264,
    "JFJPCAJEKOI": "2010036;180",
    "DDBJGNOGMJA": "2010043;20",
    "JIEMGKFEJCE": "2010035;3"
  },
  {
    "ID": 56,
    "scheduleId": 5085001,
    "arenaChallengeId": 6,
    "arenaChallengeLevel": 3,
    "watcherId": 1508523,
    "challengeTargetTextMapHash": 1066192057,
    "challengeTarget1TextMapHash": 3181679997,
    "challengeTarget2TextMapHash": 1181912544,
    "JFJPCAJEKOI": "2010036;180",
    "DDBJGNOGMJA": "2010043;20",
    "JIEMGKFEJCE": "2010035;3"
  },
  {
    "ID": 57,
    "scheduleId": 5085001,
    "arenaChallengeId": 6,
    "arenaChallengeLevel": 4,
    "MNECHMMOLJG": true,
    "watcherId": 1508524,
    "challengeTargetTextMapHash": 2061332657,
    "challengeTarget1TextMapHash": 1569548989,
    "challengeTarget2TextMapHash": 645185848,
    "JFJPCAJEKOI": "2010069;150",
    "DDBJGNOGMJA": "2010043;20",
    "JIEMGKFEJCE": "2010035;6"
  },
  {
    "ID": 54,
    "scheduleId": 5085001,
    "arenaChallengeId": 7,
    "arenaChallengeLevel": 1,
    "watcherId": 1508525,
    "challengeTargetTextMapHash": 2780590553,
    "challengeTarget1TextMapHash": 3747028997,
    "challengeTarget2TextMapHash": 3657045536,
    "JFJPCAJEKOI": "2010036;180",
    "DDBJGNOGMJA": "",
    "JIEMGKFEJCE": "2010035;1"
  },
  {
    "ID": 55,
    "scheduleId": 5085001,
    "arenaChallengeId": 7,
    "arenaChallengeLevel": 2,
    "watcherId": 1508526,
    "challengeTargetTextMapHash": 3527315185,
    "challengeTarget1TextMapHash": 344261461,
    "challengeTarget2TextMapHash": 3197754264,
    "JFJPCAJEKOI": "2010036;180",
    "DDBJGNOGMJA": "2010044;15",
    "JIEMGKFEJCE": "2010035;1"
  },
  {
    "ID": 56,
    "scheduleId": 5085001,
    "arenaChallengeId": 7,
    "arenaChallengeLevel": 3,
    "watcherId": 1508527,
    "challengeTargetTextMapHash": 1066192057,
    "challengeTarget1TextMapHash": 3181679997,
    "challengeTarget2TextMapHash": 1181912544,
    "JFJPCAJEKOI": "2010036;180",
    "DDBJGNOGMJA": "2010044;15",
    "JIEMGKFEJCE": "2010035;1"
  },
  {
    "ID": 57,
    "scheduleId": 5085001,
    "arenaChallengeId": 7,
    "arenaChallengeLevel": 4,
    "MNECHMMOLJG": true,
    "watcherId": 1508528,
    "challengeTargetTextMapHash": 2061332657,
    "challengeTarget1TextMapHash": 1569548989,
    "challengeTarget2TextMapHash": 645185848,
    "JFJPCAJEKOI": "2010069;150",
    "DDBJGNOGMJA": "2010044;15",
    "JIEMGKFEJCE": "2010035;4"
  }
]
