[
  {
    "id": 1,
    "OEOBHHPKIMM": 2.5280001163482666,
    "NBBMDFDEDDO": 3.7909998893737793,
    "GMPNPCDJPFA": -0.3100000023841858
  },
  {
    "id": 101,
    "type": "FORMAL",
    "OEOBHHPKIMM": 5.021999835968018,
    "NBBMDFDEDDO": 6.284999847412109,
    "GMPNPCDJPFA": -0.3100000023841858
  },
  {
    "id": 102,
    "type": "FORMAL",
    "OEOBHHPKIMM": 7.547999858856201,
    "NBBMDFDEDDO": 8.812000274658203,
    "GMPNPCDJPFA": -0.3100000023841858
  },
  {
    "id": 103,
    "type": "FORMAL",
    "OEOBHHPKIMM": 10.074999809265137,
    "NBBMDFDEDDO": 11.338000297546387,
    "GMPNPCDJPFA": -0.3100000023841858
  },
  {
    "id": 104,
    "type": "FORMAL",
    "OEOBHHPKIMM": 12.60099983215332,
    "NBBMDFDEDDO": 13.86400032043457,
    "GMPNPCDJPFA": -0.3100000023841858
  },
  {
    "id": 105,
    "type": "FORMAL",
    "OEOBHHPKIMM": 12.60099983215332,
    "NBBMDFDEDDO": 14.496000289916992,
    "GMPNPCDJPFA": -0.3100000023841858
  },
  {
    "id": 106,
    "type": "FORMAL",
    "OEOBHHPKIMM": 15.126999855041504,
    "NBBMDFDEDDO": 16.391000747680664,
    "GMPNPCDJPFA": -0.3100000023841858
  },
  {
    "id": 107,
    "type": "FORMAL",
    "OEOBHHPKIMM": 17.65399932861328,
    "NBBMDFDEDDO": 18.91699981689453,
    "GMPNPCDJPFA": -0.3100000023841858
  },
  {
    "id": 108,
    "type": "FORMAL",
    "OEOBHHPKIMM": 20.18000030517578,
    "NBBMDFDEDDO": 21.44300079345703,
    "GMPNPCDJPFA": -0.3100000023841858
  },
  {
    "id": 109,
    "type": "FORMAL",
    "OEOBHHPKIMM": 22.70599937438965,
    "NBBMDFDEDDO": 23.33799934387207,
    "GMPNPCDJPFA": -0.3100000023841858
  },
  {
    "id": 110,
    "type": "FORMAL",
    "OEOBHHPKIMM": 22.70599937438965,
    "NBBMDFDEDDO": 23.969999313354492,
    "GMPNPCDJPFA": -0.3100000023841858
  },
  {
    "id": 111,
    "type": "FORMAL",
    "OEOBHHPKIMM": 22.70599937438965,
    "NBBMDFDEDDO": 24.60099983215332,
    "GMPNPCDJPFA": -0.3100000023841858
  },
  {
    "id": 112,
    "type": "FORMAL",
    "OEOBHHPKIMM": 25.232999801635742,
    "NBBMDFDEDDO": 25.86400032043457,
    "GMPNPCDJPFA": -0.3100000023841858
  },
  {
    "id": 113,
    "type": "FORMAL",
    "OEOBHHPKIMM": 27.759000778198242,
    "NBBMDFDEDDO": 28.391000747680664,
    "GMPNPCDJPFA": -0.3100000023841858
  },
  {
    "id": 114,
    "type": "FORMAL",
    "OEOBHHPKIMM": 30.28499984741211,
    "NBBMDFDEDDO": 30.91699981689453,
    "GMPNPCDJPFA": -0.3100000023841858
  },
  {
    "id": 115,
    "type": "FORMAL",
    "OEOBHHPKIMM": 32.8120002746582,
    "NBBMDFDEDDO": 33.44300079345703,
    "GMPNPCDJPFA": -0.3100000023841858
  },
  {
    "id": 116,
    "type": "FORMAL",
    "OEOBHHPKIMM": 32.8120002746582,
    "NBBMDFDEDDO": 34.07500076293945,
    "GMPNPCDJPFA": -0.3100000023841858
  },
  {
    "id": 117,
    "type": "FORMAL",
    "OEOBHHPKIMM": 32.8120002746582,
    "NBBMDFDEDDO": 34.70600128173828,
    "GMPNPCDJPFA": -0.3100000023841858
  },
  {
    "id": 118,
    "type": "FORMAL",
    "OEOBHHPKIMM": 35.3380012512207,
    "NBBMDFDEDDO": 35.970001220703125,
    "GMPNPCDJPFA": -0.3100000023841858
  },
  {
    "id": 119,
    "type": "FORMAL",
    "OEOBHHPKIMM": 36.60100173950195,
    "NBBMDFDEDDO": 37.233001708984375,
    "GMPNPCDJPFA": -0.3100000023841858
  },
  {
    "id": 120,
    "type": "FORMAL",
    "OEOBHHPKIMM": 37.86399841308594,
    "NBBMDFDEDDO": 39.12699890136719,
    "GMPNPCDJPFA": -0.3100000023841858
  },
  {
    "id": 121,
    "type": "FORMAL",
    "OEOBHHPKIMM": 40.39099884033203,
    "NBBMDFDEDDO": 41.02199935913086,
    "GMPNPCDJPFA": -0.3100000023841858
  },
  {
    "id": 122,
    "type": "FORMAL",
    "OEOBHHPKIMM": 40.39099884033203,
    "NBBMDFDEDDO": 41.65399932861328,
    "GMPNPCDJPFA": -0.3100000023841858
  },
  {
    "id": 123,
    "type": "FORMAL",
    "OEOBHHPKIMM": 40.39099884033203,
    "NBBMDFDEDDO": 42.28499984741211,
    "GMPNPCDJPFA": -0.3100000023841858
  },
  {
    "id": 124,
    "type": "FORMAL",
    "OEOBHHPKIMM": 42.91699981689453,
    "NBBMDFDEDDO": 44.18000030517578,
    "GMPNPCDJPFA": -0.3100000023841858
  },
  {
    "id": 125,
    "type": "FORMAL",
    "OEOBHHPKIMM": 45.44300079345703,
    "NBBMDFDEDDO": 45.91699981689453,
    "GMPNPCDJPFA": -0.3100000023841858
  },
  {
    "id": 126,
    "type": "FORMAL",
    "OEOBHHPKIMM": 45.44300079345703,
    "NBBMDFDEDDO": 47.3380012512207,
    "GMPNPCDJPFA": -0.3100000023841858
  },
  {
    "id": 127,
    "type": "FORMAL",
    "OEOBHHPKIMM": 47.970001220703125,
    "NBBMDFDEDDO": 48.44300079345703,
    "GMPNPCDJPFA": -0.3100000023841858
  },
  {
    "id": 128,
    "type": "FORMAL",
    "OEOBHHPKIMM": 47.970001220703125,
    "NBBMDFDEDDO": 49.86399841308594,
    "GMPNPCDJPFA": -0.3100000023841858
  },
  {
    "id": 129,
    "type": "FORMAL",
    "OEOBHHPKIMM": 50.49599838256836,
    "NBBMDFDEDDO": 50.970001220703125,
    "GMPNPCDJPFA": -0.3100000023841858
  },
  {
    "id": 130,
    "type": "FORMAL",
    "OEOBHHPKIMM": 52.07500076293945,
    "NBBMDFDEDDO": 52.39099884033203,
    "GMPNPCDJPFA": -0.3100000023841858
  },
  {
    "id": 131,
    "type": "FORMAL",
    "OEOBHHPKIMM": 53.02199935913086,
    "NBBMDFDEDDO": 53.65399932861328,
    "GMPNPCDJPFA": -0.3100000023841858
  },
  {
    "id": 132,
    "type": "FORMAL",
    "OEOBHHPKIMM": 53.02199935913086,
    "NBBMDFDEDDO": 54.28499984741211,
    "GMPNPCDJPFA": -0.3100000023841858
  },
  {
    "id": 133,
    "type": "FORMAL",
    "OEOBHHPKIMM": 53.02199935913086,
    "NBBMDFDEDDO": 54.91699981689453,
    "GMPNPCDJPFA": -0.3100000023841858
  },
  {
    "id": 134,
    "type": "FORMAL",
    "OEOBHHPKIMM": 55.54800033569336,
    "NBBMDFDEDDO": 56.02199935913086,
    "GMPNPCDJPFA": -0.3100000023841858
  },
  {
    "id": 135,
    "type": "FORMAL",
    "OEOBHHPKIMM": 55.54800033569336,
    "NBBMDFDEDDO": 57.44300079345703,
    "GMPNPCDJPFA": -0.3100000023841858
  },
  {
    "id": 136,
    "type": "FORMAL",
    "OEOBHHPKIMM": 58.07500076293945,
    "NBBMDFDEDDO": 58.54800033569336,
    "GMPNPCDJPFA": -0.3100000023841858
  },
  {
    "id": 137,
    "type": "FORMAL",
    "OEOBHHPKIMM": 58.07500076293945,
    "NBBMDFDEDDO": 59.970001220703125,
    "GMPNPCDJPFA": -0.3100000023841858
  },
  {
    "id": 138,
    "type": "FORMAL",
    "OEOBHHPKIMM": 60.60100173950195,
    "NBBMDFDEDDO": 61.07500076293945,
    "GMPNPCDJPFA": -0.3100000023841858
  },
  {
    "id": 139,
    "type": "FORMAL",
    "OEOBHHPKIMM": 60.60100173950195,
    "NBBMDFDEDDO": 62.49599838256836,
    "GMPNPCDJPFA": -0.3100000023841858
  },
  {
    "id": 140,
    "type": "FORMAL",
    "OEOBHHPKIMM": 63.12699890136719,
    "NBBMDFDEDDO": 63.75899887084961,
    "GMPNPCDJPFA": -0.3100000023841858
  },
  {
    "id": 141,
    "type": "FORMAL",
    "OEOBHHPKIMM": 63.12699890136719,
    "NBBMDFDEDDO": 64.39099884033203,
    "GMPNPCDJPFA": -0.3100000023841858
  },
  {
    "id": 142,
    "type": "FORMAL",
    "OEOBHHPKIMM": 63.12699890136719,
    "NBBMDFDEDDO": 65.02200317382812,
    "GMPNPCDJPFA": -0.3100000023841858
  },
  {
    "id": 143,
    "type": "FORMAL",
    "OEOBHHPKIMM": 65.65399932861328,
    "NBBMDFDEDDO": 66.12699890136719,
    "GMPNPCDJPFA": -0.3100000023841858
  },
  {
    "id": 144,
    "type": "FORMAL",
    "OEOBHHPKIMM": 67.23300170898438,
    "NBBMDFDEDDO": 67.5479965209961,
    "GMPNPCDJPFA": -0.3100000023841858
  },
  {
    "id": 145,
    "type": "FORMAL",
    "OEOBHHPKIMM": 68.18000030517578,
    "NBBMDFDEDDO": 68.65399932861328,
    "GMPNPCDJPFA": -0.3100000023841858
  },
  {
    "id": 146,
    "type": "FORMAL",
    "OEOBHHPKIMM": 69.75900268554688,
    "NBBMDFDEDDO": 70.07499694824219,
    "GMPNPCDJPFA": -0.3100000023841858
  },
  {
    "id": 147,
    "type": "FORMAL",
    "OEOBHHPKIMM": 70.70600128173828,
    "NBBMDFDEDDO": 71.18000030517578,
    "GMPNPCDJPFA": -0.3100000023841858
  },
  {
    "id": 148,
    "type": "FORMAL",
    "OEOBHHPKIMM": 72.28500366210938,
    "NBBMDFDEDDO": 72.60099792480469,
    "GMPNPCDJPFA": -0.3100000023841858
  },
  {
    "id": 149,
    "type": "FORMAL",
    "OEOBHHPKIMM": 73.23300170898438,
    "NBBMDFDEDDO": 73.86399841308594,
    "GMPNPCDJPFA": -0.3100000023841858
  },
  {
    "id": 150,
    "type": "FORMAL",
    "OEOBHHPKIMM": 74.49600219726562,
    "NBBMDFDEDDO": 75.12699890136719,
    "GMPNPCDJPFA": -0.3100000023841858
  },
  {
    "id": 151,
    "type": "FORMAL",
    "OEOBHHPKIMM": 75.75900268554688,
    "NBBMDFDEDDO": 76.23300170898438,
    "GMPNPCDJPFA": -0.3100000023841858
  },
  {
    "id": 152,
    "type": "FORMAL",
    "OEOBHHPKIMM": 77.33799743652344,
    "NBBMDFDEDDO": 77.65399932861328,
    "GMPNPCDJPFA": -0.3100000023841858
  },
  {
    "id": 153,
    "type": "FORMAL",
    "OEOBHHPKIMM": 78.28500366210938,
    "NBBMDFDEDDO": 78.75900268554688,
    "GMPNPCDJPFA": -0.3100000023841858
  },
  {
    "id": 154,
    "type": "FORMAL",
    "OEOBHHPKIMM": 79.5479965209961,
    "NBBMDFDEDDO": 80.18000030517578,
    "GMPNPCDJPFA": -0.3100000023841858
  },
  {
    "id": 155,
    "type": "FORMAL",
    "OEOBHHPKIMM": 80.81199645996094,
    "NBBMDFDEDDO": 81.44300079345703,
    "GMPNPCDJPFA": -0.3100000023841858
  },
  {
    "id": 156,
    "type": "FORMAL",
    "OEOBHHPKIMM": 80.81199645996094,
    "NBBMDFDEDDO": 82.07499694824219,
    "GMPNPCDJPFA": -0.3100000023841858
  },
  {
    "id": 157,
    "type": "FORMAL",
    "OEOBHHPKIMM": 83.02200317382812,
    "NBBMDFDEDDO": 83.33799743652344,
    "GMPNPCDJPFA": -0.3100000023841858
  },
  {
    "id": 158,
    "type": "FORMAL",
    "OEOBHHPKIMM": 83.65399932861328,
    "NBBMDFDEDDO": 83.97000122070312,
    "GMPNPCDJPFA": -0.3100000023841858
  },
  {
    "id": 159,
    "type": "FORMAL",
    "OEOBHHPKIMM": 84.28500366210938,
    "NBBMDFDEDDO": 84.60099792480469,
    "GMPNPCDJPFA": -0.3100000023841858
  },
  {
    "id": 160,
    "type": "FORMAL",
    "OEOBHHPKIMM": 84.91699981689453,
    "NBBMDFDEDDO": 85.23300170898438,
    "GMPNPCDJPFA": -0.3100000023841858
  },
  {
    "id": 161,
    "type": "FORMAL",
    "OEOBHHPKIMM": 85.86399841308594,
    "NBBMDFDEDDO": 87.12699890136719,
    "GMPNPCDJPFA": -0.3100000023841858
  },
  {
    "id": 162,
    "type": "FORMAL",
    "OEOBHHPKIMM": 88.39099884033203,
    "NBBMDFDEDDO": 89.65399932861328,
    "GMPNPCDJPFA": -0.3100000023841858
  },
  {
    "id": 163,
    "type": "FORMAL",
    "OEOBHHPKIMM": 90.91699981689453,
    "NBBMDFDEDDO": 92.18000030517578,
    "GMPNPCDJPFA": -0.3100000023841858
  },
  {
    "id": 164,
    "type": "FORMAL",
    "OEOBHHPKIMM": 93.44300079345703,
    "NBBMDFDEDDO": 94.70600128173828,
    "GMPNPCDJPFA": -0.3100000023841858
  }
]
