[
  {
    "id": 1,
    "PHHOGPAAAPH": "ARANARA_COLLECTION_TYPE_CATALOG_V1"
  },
  {
    "id": 2,
    "PHHOGPAAAPH": "ARANARA_COLLECTION_TYPE_CATALOG_V1"
  },
  {
    "id": 3,
    "PHHOGPAAAPH": "ARANARA_COLLECTION_TYPE_CATALOG_V1"
  },
  {
    "id": 4,
    "PHHOGPAAAPH": "ARANARA_COLLECTION_TYPE_CATALOG_V1"
  },
  {
    "id": 5,
    "PHHOGPAAAPH": "ARANARA_COLLECTION_TYPE_CATALOG_V1"
  },
  {
    "id": 6,
    "PHHOGPAAAPH": "ARANARA_COLLECTION_TYPE_CATALOG_V1"
  },
  {
    "id": 7,
    "PHHOGPAAAPH": "ARANARA_COLLECTION_TYPE_CATALOG_V1"
  },
  {
    "id": 8,
    "PHHOGPAAAPH": "ARANARA_COLLECTION_TYPE_CATALOG_V1"
  },
  {
    "id": 9,
    "PHHOGPAAAPH": "ARANARA_COLLECTION_TYPE_CATALOG_V1"
  },
  {
    "id": 10,
    "PHHOGPAAAPH": "ARANARA_COLLECTION_TYPE_CATALOG_V1"
  },
  {
    "id": 11,
    "PHHOGPAAAPH": "ARANARA_COLLECTION_TYPE_CATALOG_V1"
  },
  {
    "id": 12,
    "PHHOGPAAAPH": "ARANARA_COLLECTION_TYPE_CATALOG_V1"
  },
  {
    "id": 13,
    "PHHOGPAAAPH": "ARANARA_COLLECTION_TYPE_CATALOG_V1"
  },
  {
    "id": 14,
    "PHHOGPAAAPH": "ARANARA_COLLECTION_TYPE_CATALOG_V1"
  },
  {
    "id": 15,
    "PHHOGPAAAPH": "ARANARA_COLLECTION_TYPE_CATALOG_V1"
  }
]
