[
  {
    "id": 1,
    "mailId": 9,
    "rewardId": 240002,
    "effectiveDate": "2020-06-01 03:59:59",
    "LGDKLOMEDMI": 1590955199
  },
  {
    "id": 2,
    "mailId": 35,
    "rewardId": 240005,
    "effectiveDate": "2021-09-28 03:59:59",
    "LGDKLOMEDMI": 1632772799
  },
  {
    "id": 3,
    "mailId": 82,
    "rewardId": 240006,
    "effectiveDate": "2022-09-28 00:00:00",
    "LGDKLOMEDMI": 1664294400
  }
]
