[
  {
    "JKLFKOPINOA": 1,
    "HCDEBIEEKLN": "CAPTURE_CODEX_SHOW_TYPE_CAPTURE_ANIMAL",
    "itemLimitType": "ITEM_LIMIT_CAPTURE_REWARD"
  },
  {
    "JKLFKOPINOA": 2,
    "HCDEBIEEKLN": "CAPTURE_CODEX_SHOW_TYPE_NOT_SHOW",
    "itemLimitType": "ITEM_LIMIT_CAPTURE_REWARD"
  },
  {
    "JKLFKOPINOA": 3,
    "HCDEBIEEKLN": "CAPTURE_CODEX_SHOW_TYPE_NOT_SHOW",
    "itemLimitType": "ITEM_LIMIT_CAPTURE_REWARD"
  },
  {
    "JKLFKOPINOA": 4,
    "HCDEBIEEKLN": "CAPTURE_CODEX_SHOW_TYPE_NOT_SHOW",
    "itemLimitType": "ITEM_LIMIT_CAPTURE_REWARD"
  },
  {
    "JKLFKOPINOA": 5,
    "HCDEBIEEKLN": "CAPTURE_CODEX_SHOW_TYPE_NOT_SHOW",
    "itemLimitType": "ITEM_LIMIT_CAPTURE_REWARD"
  },
  {
    "JKLFKOPINOA": 1001,
    "HCDEBIEEKLN": "CAPTURE_CODEX_SHOW_TYPE_CAPTURE_ANIMAL",
    "itemLimitType": "ITEM_LIMIT_CAPTURE_REWARD"
  },
  {
    "JKLFKOPINOA": 1002,
    "HCDEBIEEKLN": "CAPTURE_CODEX_SHOW_TYPE_NOT_SHOW",
    "itemLimitType": "ITEM_LIMIT_CAPTURE_NONE_DROP"
  },
  {
    "JKLFKOPINOA": 1003,
    "HCDEBIEEKLN": "CAPTURE_CODEX_SHOW_TYPE_NOT_SHOW",
    "itemLimitType": "ITEM_LIMIT_CAPTURE_NONE_DROP"
  }
]
