[
  {
    "cityId": 1,
    "questId": 2003202,
    "MHICGGPGPLA": [10100, 10201, 10500, 10300]
  },
  {
    "cityId": 2,
    "questId": 2211102,
    "MHICGGPGPLA": [15502, 15207, 15401, 16006]
  },
  {
    "cityId": 3,
    "questId": 7280801,
    "MHICGGPGPLA": [31010, 31030, 31040, 31070]
  },
  {
    "cityId": 4,
    "questId": 7380201,
    "MHICGGPGPLA": [32262, 32314, 32302, 32292]
  }
]
