[
  {
    "id": 10140101,
    "chapterId": 101401,
    "type": "POINT_START",
    "acceptQuest": 1900101,
    "postPointList": [10140102, 10140105],
    "pointNameTextMapHash": 3462492119,
    "pointDecTextMapHash": 1324405662,
    "pointPosId": 1
  },
  {
    "id": 10140102,
    "chapterId": 101401,
    "type": "POINT_MIDDLE",
    "acceptQuest": 1900108,
    "postPointList": [10140103, 10140104],
    "pointNameTextMapHash": 856377319,
    "pointDecTextMapHash": 1513725406,
    "pointPosId": 2
  },
  {
    "id": 10140103,
    "chapterId": 101401,
    "type": "POINT_MIDDLE",
    "acceptQuest": 1900202,
    "postPointList": [10140191],
    "pointNameTextMapHash": 3533506359,
    "pointDecTextMapHash": 3222101798,
    "pointPosId": 3
  },
  {
    "id": 10140191,
    "chapterId": 101401,
    "type": "POINT_END",
    "postPointList": [],
    "pointNameTextMapHash": 3856014207,
    "pointDecTextMapHash": 319400174,
    "pointPosId": 4,
    "photoMaleHash": 3861831430686378648,
    "photoFemaleHash": 17341875420200568640
  },
  {
    "id": 10140104,
    "chapterId": 101401,
    "type": "POINT_MIDDLE",
    "acceptQuest": 1900204,
    "postPointList": [10140107],
    "pointNameTextMapHash": 1757634607,
    "pointDecTextMapHash": 4012387150,
    "pointPosId": 5
  },
  {
    "id": 10140105,
    "chapterId": 101401,
    "type": "POINT_MIDDLE",
    "acceptQuest": 1900104,
    "postPointList": [10140106],
    "pointNameTextMapHash": 1146138175,
    "pointDecTextMapHash": 2932634934,
    "pointPosId": 6
  },
  {
    "id": 10140106,
    "chapterId": 101401,
    "type": "POINT_MIDDLE",
    "acceptQuest": 1900106,
    "postPointList": [10140107],
    "pointNameTextMapHash": 1924135047,
    "pointDecTextMapHash": 2813207398,
    "pointPosId": 7
  },
  {
    "id": 10140107,
    "chapterId": 101401,
    "type": "POINT_MIDDLE",
    "acceptQuest": 1900301,
    "postPointList": [10140108],
    "pointNameTextMapHash": 3213799263,
    "pointDecTextMapHash": 2844074070,
    "pointPosId": 8
  },
  {
    "id": 10140108,
    "chapterId": 101401,
    "type": "POINT_MIDDLE",
    "acceptQuest": 1900303,
    "postPointList": [10140109],
    "pointNameTextMapHash": 1271408511,
    "pointDecTextMapHash": 1518217030,
    "pointPosId": 9
  },
  {
    "id": 10140109,
    "chapterId": 101401,
    "type": "POINT_MIDDLE",
    "acceptQuest": 1900305,
    "postPointList": [10140110, 10140115, 10140118],
    "pointNameTextMapHash": 2626546039,
    "pointDecTextMapHash": 1802649702,
    "pointPosId": 10
  },
  {
    "id": 10140110,
    "chapterId": 101401,
    "type": "POINT_MIDDLE",
    "acceptQuest": 1900401,
    "postPointList": [10140111],
    "pointNameTextMapHash": 3171628343,
    "pointDecTextMapHash": 1171084438,
    "pointPosId": 11
  },
  {
    "id": 10140111,
    "chapterId": 101401,
    "type": "POINT_MIDDLE",
    "acceptQuest": 1900404,
    "postPointList": [10140112],
    "pointNameTextMapHash": 2982492559,
    "pointDecTextMapHash": 3628908190,
    "pointPosId": 12
  },
  {
    "id": 10140112,
    "chapterId": 101401,
    "type": "POINT_MIDDLE",
    "acceptQuest": 1900501,
    "postPointList": [10140113, 10140114],
    "pointNameTextMapHash": 1053466359,
    "pointDecTextMapHash": 3512078894,
    "pointPosId": 13
  },
  {
    "id": 10140113,
    "chapterId": 101401,
    "type": "POINT_MIDDLE",
    "acceptQuest": 1900503,
    "postPointList": [10140192],
    "pointNameTextMapHash": 739678495,
    "pointDecTextMapHash": 1523962566,
    "pointPosId": 14
  },
  {
    "id": 10140192,
    "chapterId": 101401,
    "type": "POINT_END",
    "postPointList": [],
    "pointNameTextMapHash": 1070455263,
    "pointDecTextMapHash": 1819670534,
    "pointPosId": 15,
    "photoMaleHash": 6370682942732578017,
    "photoFemaleHash": 6095917163111257159
  },
  {
    "id": 10140114,
    "chapterId": 101401,
    "type": "POINT_MIDDLE",
    "acceptQuest": 1900504,
    "postPointList": [10140193],
    "pointNameTextMapHash": 2834115775,
    "pointDecTextMapHash": 4247492878,
    "pointPosId": 16
  },
  {
    "id": 10140193,
    "chapterId": 101401,
    "type": "POINT_END",
    "postPointList": [],
    "pointNameTextMapHash": 1489799327,
    "pointDecTextMapHash": 3013521934,
    "pointPosId": 17,
    "photoMaleHash": 13828575748464321405,
    "photoFemaleHash": 409421011492812240
  },
  {
    "id": 10140115,
    "chapterId": 101401,
    "type": "POINT_MIDDLE",
    "acceptQuest": 1900601,
    "postPointList": [10140116, 10140117],
    "pointNameTextMapHash": 1907311839,
    "pointDecTextMapHash": 3757557318,
    "pointPosId": 18
  },
  {
    "id": 10140116,
    "chapterId": 101401,
    "type": "POINT_MIDDLE",
    "acceptQuest": 1900701,
    "postPointList": [10140194],
    "pointNameTextMapHash": 1804205383,
    "pointDecTextMapHash": 1564568526,
    "pointPosId": 19
  },
  {
    "id": 10140194,
    "chapterId": 101401,
    "type": "POINT_END",
    "postPointList": [],
    "pointNameTextMapHash": 2092824479,
    "pointDecTextMapHash": 1858929630,
    "pointPosId": 20,
    "photoMaleHash": 18138567643357456229,
    "photoFemaleHash": 16717750726664333947
  },
  {
    "id": 10140117,
    "chapterId": 101401,
    "type": "POINT_MIDDLE",
    "acceptQuest": 1900801,
    "postPointList": [10140114],
    "pointNameTextMapHash": 4009672239,
    "pointDecTextMapHash": 596669382,
    "pointPosId": 21
  },
  {
    "id": 10140118,
    "chapterId": 101401,
    "type": "POINT_MIDDLE",
    "acceptQuest": 1900901,
    "postPointList": [10140119],
    "pointNameTextMapHash": 2660488103,
    "pointDecTextMapHash": 3027704710,
    "pointPosId": 22
  },
  {
    "id": 10140119,
    "chapterId": 101401,
    "type": "POINT_MIDDLE",
    "acceptQuest": 1900906,
    "postPointList": [10140195],
    "pointNameTextMapHash": 3513244423,
    "pointDecTextMapHash": 2343137526,
    "pointPosId": 23
  },
  {
    "id": 10140195,
    "chapterId": 101401,
    "type": "POINT_END",
    "postPointList": [],
    "pointNameTextMapHash": 1428275527,
    "pointDecTextMapHash": 834368462,
    "pointPosId": 24,
    "photoMaleHash": 57175950047174242,
    "photoFemaleHash": 129080958397764784
  },
  {
    "id": 10360101,
    "chapterId": 103601,
    "type": "POINT_START",
    "acceptQuest": 1902101,
    "postPointList": [10360102, 10360110],
    "pointNameTextMapHash": 469946663,
    "pointDecTextMapHash": 2463262230,
    "pointPosId": 1
  },
  {
    "id": 10360102,
    "chapterId": 103601,
    "type": "POINT_MIDDLE",
    "acceptQuest": 1902201,
    "postPointList": [10360103, 10360105],
    "pointNameTextMapHash": 3191535007,
    "pointDecTextMapHash": 4192671270,
    "pointPosId": 2
  },
  {
    "id": 10360103,
    "chapterId": 103601,
    "type": "POINT_MIDDLE",
    "acceptQuest": 1902301,
    "postPointList": [10360104],
    "pointNameTextMapHash": 1041602159,
    "pointDecTextMapHash": 2189918078,
    "pointPosId": 3
  },
  {
    "id": 10360104,
    "chapterId": 103601,
    "type": "POINT_MIDDLE",
    "acceptQuest": 1902302,
    "postPointList": [10360191],
    "pointNameTextMapHash": 1200016615,
    "pointDecTextMapHash": 1720527318,
    "pointPosId": 4
  },
  {
    "id": 10360191,
    "chapterId": 103601,
    "type": "POINT_END",
    "postPointList": [],
    "pointNameTextMapHash": 4105530959,
    "pointDecTextMapHash": 338510390,
    "pointPosId": 5,
    "photoMaleHash": 10617260897089313896,
    "photoFemaleHash": 12172496500143377917
  },
  {
    "id": 10360105,
    "chapterId": 103601,
    "type": "POINT_MIDDLE",
    "acceptQuest": 1902402,
    "postPointList": [10360106, 10360107, 10360109],
    "pointNameTextMapHash": 421122783,
    "pointDecTextMapHash": 1102674262,
    "pointPosId": 6
  },
  {
    "id": 10360106,
    "chapterId": 103601,
    "type": "POINT_MIDDLE",
    "acceptQuest": 1902406,
    "postPointList": [10360108],
    "pointNameTextMapHash": 177793455,
    "pointDecTextMapHash": 1530191814,
    "pointPosId": 7
  },
  {
    "id": 10360107,
    "chapterId": 103601,
    "type": "POINT_MIDDLE",
    "acceptQuest": 1902407,
    "postPointList": [10360108],
    "pointNameTextMapHash": 3856551663,
    "pointDecTextMapHash": 1863049638,
    "pointPosId": 8
  },
  {
    "id": 10360108,
    "chapterId": 103601,
    "type": "POINT_MIDDLE",
    "acceptQuest": 1902501,
    "postPointList": [10360192],
    "pointNameTextMapHash": 405990343,
    "pointDecTextMapHash": 835169078,
    "pointPosId": 9
  },
  {
    "id": 10360192,
    "chapterId": 103601,
    "type": "POINT_END",
    "postPointList": [],
    "pointNameTextMapHash": 2966094479,
    "pointDecTextMapHash": 1371769286,
    "pointPosId": 10,
    "photoMaleHash": 5420327286012917915,
    "photoFemaleHash": 1871479030873099174
  },
  {
    "id": 10360109,
    "chapterId": 103601,
    "type": "POINT_MIDDLE",
    "acceptQuest": 1902408,
    "postPointList": [10360195],
    "pointNameTextMapHash": 56773751,
    "pointDecTextMapHash": 23046422,
    "pointPosId": 11
  },
  {
    "id": 10360195,
    "chapterId": 103601,
    "type": "POINT_END",
    "postPointList": [],
    "pointNameTextMapHash": 1823095719,
    "pointDecTextMapHash": 398830886,
    "pointPosId": 12,
    "photoMaleHash": 441844862011340688,
    "photoFemaleHash": 13436750814634426653
  },
  {
    "id": 10360110,
    "chapterId": 103601,
    "type": "POINT_MIDDLE",
    "acceptQuest": 1903001,
    "postPointList": [10360111, 10360116],
    "pointNameTextMapHash": 4170083343,
    "pointDecTextMapHash": 3950190566,
    "pointPosId": 13
  },
  {
    "id": 10360111,
    "chapterId": 103601,
    "type": "POINT_MIDDLE",
    "acceptQuest": 1903007,
    "postPointList": [10360112, 10360114, 10360115],
    "pointNameTextMapHash": 1113070535,
    "pointDecTextMapHash": 196438974,
    "pointPosId": 14
  },
  {
    "id": 10360112,
    "chapterId": 103601,
    "type": "POINT_MIDDLE",
    "acceptQuest": 1903401,
    "postPointList": [10360113],
    "pointNameTextMapHash": 729727671,
    "pointDecTextMapHash": 191157134,
    "pointPosId": 15
  },
  {
    "id": 10360113,
    "chapterId": 103601,
    "type": "POINT_MIDDLE",
    "acceptQuest": 1903402,
    "postPointList": [10360196],
    "pointNameTextMapHash": 3562960231,
    "pointDecTextMapHash": 2474739070,
    "pointPosId": 16
  },
  {
    "id": 10360196,
    "chapterId": 103601,
    "type": "POINT_END",
    "postPointList": [],
    "pointNameTextMapHash": 754149055,
    "pointDecTextMapHash": 1066629150,
    "pointPosId": 17,
    "photoMaleHash": 911967533059716095,
    "photoFemaleHash": 8475658693198838575
  },
  {
    "id": 10360114,
    "chapterId": 103601,
    "type": "POINT_MIDDLE",
    "acceptQuest": 1903102,
    "postPointList": [10360118],
    "pointNameTextMapHash": 3988608799,
    "pointDecTextMapHash": 3888203590,
    "pointPosId": 18
  },
  {
    "id": 10360115,
    "chapterId": 103601,
    "type": "POINT_MIDDLE",
    "acceptQuest": 1903103,
    "postPointList": [10360118],
    "pointNameTextMapHash": 1773523079,
    "pointDecTextMapHash": 3215121126,
    "pointPosId": 19
  },
  {
    "id": 10360116,
    "chapterId": 103601,
    "type": "POINT_MIDDLE",
    "acceptQuest": 1903002,
    "postPointList": [10360117],
    "pointNameTextMapHash": 2985389919,
    "pointDecTextMapHash": 4124888950,
    "pointPosId": 20
  },
  {
    "id": 10360117,
    "chapterId": 103601,
    "type": "POINT_MIDDLE",
    "acceptQuest": 1903301,
    "postPointList": [10360118],
    "pointNameTextMapHash": 4263280887,
    "pointDecTextMapHash": 1183425438,
    "pointPosId": 21
  },
  {
    "id": 10360118,
    "chapterId": 103601,
    "type": "POINT_MIDDLE",
    "acceptQuest": 1903501,
    "postPointList": [10360119, 10360197],
    "pointNameTextMapHash": 4003272671,
    "pointDecTextMapHash": 1942042694,
    "pointPosId": 22
  },
  {
    "id": 10360119,
    "chapterId": 103601,
    "type": "POINT_MIDDLE",
    "acceptQuest": 1903203,
    "postPointList": [10360193],
    "pointNameTextMapHash": 4036489063,
    "pointDecTextMapHash": 4273494022,
    "pointPosId": 23
  },
  {
    "id": 10360193,
    "chapterId": 103601,
    "type": "POINT_END",
    "postPointList": [],
    "pointNameTextMapHash": 3454893711,
    "pointDecTextMapHash": 1313778694,
    "pointPosId": 24,
    "photoMaleHash": 7915265564615973171,
    "photoFemaleHash": 7163751502172366163
  },
  {
    "id": 10360197,
    "chapterId": 103601,
    "type": "POINT_END",
    "postPointList": [],
    "pointNameTextMapHash": 3959812495,
    "pointDecTextMapHash": 2426706166,
    "pointPosId": 25,
    "photoMaleHash": 13956763228305633991,
    "photoFemaleHash": 6000908247970392798
  },
  {
    "id": 10340101,
    "chapterId": 103401,
    "type": "POINT_START",
    "acceptQuest": 1906102,
    "postPointList": [10340102, 10340105, 10340108],
    "pointNameTextMapHash": 3993383663,
    "pointDecTextMapHash": 3783045374,
    "pointPosId": 1
  },
  {
    "id": 10340102,
    "chapterId": 103401,
    "type": "POINT_MIDDLE",
    "acceptQuest": 1906105,
    "postPointList": [10340103],
    "pointNameTextMapHash": 2586709871,
    "pointDecTextMapHash": 2735592398,
    "pointPosId": 2
  },
  {
    "id": 10340103,
    "chapterId": 103401,
    "type": "POINT_MIDDLE",
    "acceptQuest": 1906201,
    "postPointList": [10340191, 10340104],
    "pointNameTextMapHash": 1287793927,
    "pointDecTextMapHash": 635403846,
    "pointPosId": 3
  },
  {
    "id": 10340191,
    "chapterId": 103401,
    "type": "POINT_END",
    "postPointList": [],
    "pointNameTextMapHash": 1220601159,
    "pointDecTextMapHash": 4288285102,
    "pointPosId": 4,
    "photoMaleHash": 12866347121949819299,
    "photoFemaleHash": 17148482261965301376
  },
  {
    "id": 10340104,
    "chapterId": 103401,
    "type": "POINT_MIDDLE",
    "acceptQuest": 1906211,
    "postPointList": [10340192],
    "pointNameTextMapHash": 2690143015,
    "pointDecTextMapHash": 2654019102,
    "pointPosId": 5
  },
  {
    "id": 10340192,
    "chapterId": 103401,
    "type": "POINT_END",
    "postPointList": [],
    "pointNameTextMapHash": 950796135,
    "pointDecTextMapHash": 1597603886,
    "pointPosId": 6,
    "photoMaleHash": 16554200588733584606,
    "photoFemaleHash": 4981085563471501310
  },
  {
    "id": 10340105,
    "chapterId": 103401,
    "type": "POINT_MIDDLE",
    "acceptQuest": 1906401,
    "postPointList": [10340106, 10340107],
    "pointNameTextMapHash": 1274143711,
    "pointDecTextMapHash": 1028768070,
    "pointPosId": 7
  },
  {
    "id": 10340106,
    "chapterId": 103401,
    "type": "POINT_MIDDLE",
    "acceptQuest": 1906510,
    "postPointList": [10340193],
    "pointNameTextMapHash": 1431583863,
    "pointDecTextMapHash": 319209558,
    "pointPosId": 8
  },
  {
    "id": 10340193,
    "chapterId": 103401,
    "type": "POINT_END",
    "postPointList": [],
    "pointNameTextMapHash": 1385461503,
    "pointDecTextMapHash": 3264270750,
    "pointPosId": 9,
    "photoMaleHash": 8563588330359519902,
    "photoFemaleHash": 10257092828904329924
  },
  {
    "id": 10340107,
    "chapterId": 103401,
    "type": "POINT_MIDDLE",
    "acceptQuest": 1906601,
    "postPointList": [10340194],
    "pointNameTextMapHash": 1673622407,
    "pointDecTextMapHash": 641622126,
    "pointPosId": 10
  },
  {
    "id": 10340194,
    "chapterId": 103401,
    "type": "POINT_END",
    "postPointList": [],
    "pointNameTextMapHash": 3258434031,
    "pointDecTextMapHash": 4233399622,
    "pointPosId": 11,
    "photoMaleHash": 9053810196507270491,
    "photoFemaleHash": 4639384172006209266
  },
  {
    "id": 10340108,
    "chapterId": 103401,
    "type": "POINT_MIDDLE",
    "acceptQuest": 1906701,
    "postPointList": [10340109, 10340111],
    "pointNameTextMapHash": 522721007,
    "pointDecTextMapHash": 1475562710,
    "pointPosId": 12
  },
  {
    "id": 10340109,
    "chapterId": 103401,
    "type": "POINT_MIDDLE",
    "acceptQuest": 1906801,
    "postPointList": [10340110],
    "pointNameTextMapHash": 412020079,
    "pointDecTextMapHash": 2254200622,
    "pointPosId": 13
  },
  {
    "id": 10340110,
    "chapterId": 103401,
    "type": "POINT_MIDDLE",
    "acceptQuest": 1906811,
    "postPointList": [10340195],
    "pointNameTextMapHash": 2298239903,
    "pointDecTextMapHash": 2422316030,
    "pointPosId": 14
  },
  {
    "id": 10340195,
    "chapterId": 103401,
    "type": "POINT_END",
    "postPointList": [],
    "pointNameTextMapHash": 3490700711,
    "pointDecTextMapHash": 1234489014,
    "pointPosId": 15,
    "photoMaleHash": 16520609384375775960,
    "photoFemaleHash": 1788437754140066038
  },
  {
    "id": 10340111,
    "chapterId": 103401,
    "type": "POINT_MIDDLE",
    "acceptQuest": 1906901,
    "postPointList": [10340112],
    "pointNameTextMapHash": 3871201703,
    "pointDecTextMapHash": 2707501710,
    "pointPosId": 16
  },
  {
    "id": 10340112,
    "chapterId": 103401,
    "type": "POINT_MIDDLE",
    "acceptQuest": 1906910,
    "postPointList": [10340196],
    "pointNameTextMapHash": 1825672551,
    "pointDecTextMapHash": 3404136918,
    "pointPosId": 17
  },
  {
    "id": 10340196,
    "chapterId": 103401,
    "type": "POINT_END",
    "postPointList": [],
    "pointNameTextMapHash": 168578351,
    "pointDecTextMapHash": 3063614622,
    "pointPosId": 18,
    "photoMaleHash": 14344679412560881062,
    "photoFemaleHash": 13463599076502790002
  },
  {
    "id": 10320101,
    "chapterId": 103201,
    "type": "POINT_START",
    "acceptQuest": 1904101,
    "postPointList": [10320102, 10320105, 10320108, 10320110],
    "pointNameTextMapHash": 1900747711,
    "pointDecTextMapHash": 307776358,
    "pointPosId": 1
  },
  {
    "id": 10320102,
    "chapterId": 103201,
    "type": "POINT_MIDDLE",
    "acceptQuest": 1904201,
    "postPointList": [10320103],
    "pointNameTextMapHash": 1737715295,
    "pointDecTextMapHash": 1004835566,
    "pointPosId": 2
  },
  {
    "id": 10320103,
    "chapterId": 103201,
    "type": "POINT_MIDDLE",
    "acceptQuest": 1904203,
    "postPointList": [10320104],
    "pointNameTextMapHash": 1307063871,
    "pointDecTextMapHash": 3586288006,
    "pointPosId": 3
  },
  {
    "id": 10320104,
    "chapterId": 103201,
    "type": "POINT_MIDDLE",
    "acceptQuest": 1904205,
    "postPointList": [10320191],
    "pointNameTextMapHash": 2481736415,
    "pointDecTextMapHash": 699857646,
    "pointPosId": 4
  },
  {
    "id": 10320191,
    "chapterId": 103201,
    "type": "POINT_END",
    "postPointList": [],
    "pointNameTextMapHash": 533280319,
    "pointDecTextMapHash": 896458734,
    "pointPosId": 5,
    "photoMaleHash": 17145239351277529532,
    "photoFemaleHash": 17667248186701337959
  },
  {
    "id": 10320105,
    "chapterId": 103201,
    "type": "POINT_MIDDLE",
    "acceptQuest": 1904301,
    "postPointList": [10320106],
    "pointNameTextMapHash": 2144552463,
    "pointDecTextMapHash": 1372838110,
    "pointPosId": 6
  },
  {
    "id": 10320106,
    "chapterId": 103201,
    "type": "POINT_MIDDLE",
    "acceptQuest": 1904303,
    "postPointList": [10320107],
    "pointNameTextMapHash": 3909202503,
    "pointDecTextMapHash": 126975230,
    "pointPosId": 7
  },
  {
    "id": 10320107,
    "chapterId": 103201,
    "type": "POINT_MIDDLE",
    "acceptQuest": 1904307,
    "postPointList": [10320192],
    "pointNameTextMapHash": 2933059199,
    "pointDecTextMapHash": 234082670,
    "pointPosId": 8
  },
  {
    "id": 10320192,
    "chapterId": 103201,
    "type": "POINT_END",
    "postPointList": [],
    "pointNameTextMapHash": 3282459503,
    "pointDecTextMapHash": 4281402054,
    "pointPosId": 9,
    "photoMaleHash": 739725338921586001,
    "photoFemaleHash": 11137188822430806138
  },
  {
    "id": 10320108,
    "chapterId": 103201,
    "type": "POINT_MIDDLE",
    "acceptQuest": 1904401,
    "postPointList": [10320109],
    "pointNameTextMapHash": 2818221599,
    "pointDecTextMapHash": 2394801118,
    "pointPosId": 10
  },
  {
    "id": 10320109,
    "chapterId": 103201,
    "type": "POINT_MIDDLE",
    "acceptQuest": 1904403,
    "postPointList": [10320193, 10320194],
    "pointNameTextMapHash": 3807725631,
    "pointDecTextMapHash": 3324818958,
    "pointPosId": 11
  },
  {
    "id": 10320193,
    "chapterId": 103201,
    "type": "POINT_END",
    "postPointList": [],
    "pointNameTextMapHash": 627821207,
    "pointDecTextMapHash": 272502,
    "pointPosId": 12,
    "photoMaleHash": 7494458782033003047,
    "photoFemaleHash": 15293424296084381107
  },
  {
    "id": 10320194,
    "chapterId": 103201,
    "type": "POINT_END",
    "postPointList": [],
    "pointNameTextMapHash": 3172162503,
    "pointDecTextMapHash": 3642805094,
    "pointPosId": 13,
    "photoMaleHash": 16337322207570149073,
    "photoFemaleHash": 12747295376177392163
  },
  {
    "id": 10320110,
    "chapterId": 103201,
    "type": "POINT_MIDDLE",
    "acceptQuest": 1904501,
    "postPointList": [10320195, 10320196],
    "pointNameTextMapHash": 84873263,
    "pointDecTextMapHash": 1897005774,
    "pointPosId": 14
  },
  {
    "id": 10320195,
    "chapterId": 103201,
    "type": "POINT_END",
    "postPointList": [],
    "pointNameTextMapHash": 486882799,
    "pointDecTextMapHash": 3979870758,
    "pointPosId": 15,
    "photoMaleHash": 1622592550848535064,
    "photoFemaleHash": 14839176264473833096
  },
  {
    "id": 10320196,
    "chapterId": 103201,
    "type": "POINT_END",
    "postPointList": [],
    "pointNameTextMapHash": 3487039911,
    "pointDecTextMapHash": 3362436518,
    "pointPosId": 16,
    "photoMaleHash": 12622556656583664793,
    "photoFemaleHash": 11881480663638147526
  },
  {
    "id": 10340201,
    "chapterId": 103402,
    "type": "POINT_START",
    "acceptQuest": 1908101,
    "postPointList": [10340202, 10340206, 10340210],
    "pointNameTextMapHash": 1226614287,
    "pointDecTextMapHash": 80917926,
    "pointPosId": 1
  },
  {
    "id": 10340202,
    "chapterId": 103402,
    "type": "POINT_MIDDLE",
    "acceptQuest": 1908201,
    "postPointList": [10340203],
    "pointNameTextMapHash": 1195585799,
    "pointDecTextMapHash": 3059809886,
    "pointPosId": 2
  },
  {
    "id": 10340203,
    "chapterId": 103402,
    "type": "POINT_MIDDLE",
    "acceptQuest": 1908204,
    "postPointList": [10340204, 10340205],
    "pointNameTextMapHash": 2616925127,
    "pointDecTextMapHash": 745973726,
    "pointPosId": 3
  },
  {
    "id": 10340204,
    "chapterId": 103402,
    "type": "POINT_MIDDLE",
    "acceptQuest": 1908301,
    "postPointList": [10340291],
    "pointNameTextMapHash": 4126389239,
    "pointDecTextMapHash": 487333358,
    "pointPosId": 4
  },
  {
    "id": 10340291,
    "chapterId": 103402,
    "type": "POINT_END",
    "postPointList": [],
    "pointNameTextMapHash": 1030526335,
    "pointDecTextMapHash": 2025532926,
    "pointPosId": 5,
    "photoMaleHash": 14732476777013864842,
    "photoFemaleHash": 9527755924678493238
  },
  {
    "id": 10340205,
    "chapterId": 103402,
    "type": "POINT_MIDDLE",
    "acceptQuest": 1908408,
    "postPointList": [10340292],
    "pointNameTextMapHash": 3651408271,
    "pointDecTextMapHash": 1956536950,
    "pointPosId": 6
  },
  {
    "id": 10340292,
    "chapterId": 103402,
    "type": "POINT_END",
    "postPointList": [],
    "pointNameTextMapHash": 1834701807,
    "pointDecTextMapHash": 2742342950,
    "pointPosId": 7,
    "photoMaleHash": 3865026164026975648,
    "photoFemaleHash": 2488913112369201686
  },
  {
    "id": 10340206,
    "chapterId": 103402,
    "type": "POINT_MIDDLE",
    "acceptQuest": 1908501,
    "postPointList": [10340207],
    "pointNameTextMapHash": 896575631,
    "pointDecTextMapHash": 4248649838,
    "pointPosId": 8
  },
  {
    "id": 10340207,
    "chapterId": 103402,
    "type": "POINT_MIDDLE",
    "acceptQuest": 1908502,
    "postPointList": [10340208, 10340209],
    "pointNameTextMapHash": 2493692815,
    "pointDecTextMapHash": 1549260374,
    "pointPosId": 9
  },
  {
    "id": 10340208,
    "chapterId": 103402,
    "type": "POINT_MIDDLE",
    "acceptQuest": 1908702,
    "postPointList": [10340293],
    "pointNameTextMapHash": 3306815671,
    "pointDecTextMapHash": 3718197958,
    "pointPosId": 10
  },
  {
    "id": 10340293,
    "chapterId": 103402,
    "type": "POINT_END",
    "postPointList": [],
    "pointNameTextMapHash": 1091437343,
    "pointDecTextMapHash": 2004822150,
    "pointPosId": 11,
    "photoMaleHash": 1854907889947440143,
    "photoFemaleHash": 15463550743717895440
  },
  {
    "id": 10340209,
    "chapterId": 103402,
    "type": "POINT_MIDDLE",
    "acceptQuest": 1908712,
    "postPointList": [10340294],
    "pointNameTextMapHash": 1417734207,
    "pointDecTextMapHash": 3603249142,
    "pointPosId": 12
  },
  {
    "id": 10340294,
    "chapterId": 103402,
    "type": "POINT_END",
    "postPointList": [],
    "pointNameTextMapHash": 110980415,
    "pointDecTextMapHash": 2956405102,
    "pointPosId": 13,
    "photoMaleHash": 8275623530682071880,
    "photoFemaleHash": 17875262360555918738
  },
  {
    "id": 10340210,
    "chapterId": 103402,
    "type": "POINT_MIDDLE",
    "acceptQuest": 1909002,
    "postPointList": [10340211, 10340212],
    "pointNameTextMapHash": 3890566559,
    "pointDecTextMapHash": 325520414,
    "pointPosId": 14
  },
  {
    "id": 10340211,
    "chapterId": 103402,
    "type": "POINT_MIDDLE",
    "acceptQuest": 1909106,
    "postPointList": [10340295],
    "pointNameTextMapHash": 1096061055,
    "pointDecTextMapHash": 391702950,
    "pointPosId": 15
  },
  {
    "id": 10340295,
    "chapterId": 103402,
    "type": "POINT_END",
    "postPointList": [],
    "pointNameTextMapHash": 3372296991,
    "pointDecTextMapHash": 2227139534,
    "pointPosId": 16,
    "photoMaleHash": 11897639232380036326,
    "photoFemaleHash": 8540920196091512704
  },
  {
    "id": 10340212,
    "chapterId": 103402,
    "type": "POINT_MIDDLE",
    "acceptQuest": 1909209,
    "postPointList": [10340296],
    "pointNameTextMapHash": 3124260071,
    "pointDecTextMapHash": 3947127678,
    "pointPosId": 17
  },
  {
    "id": 10340296,
    "chapterId": 103402,
    "type": "POINT_END",
    "postPointList": [],
    "pointNameTextMapHash": 1335976895,
    "pointDecTextMapHash": 807337006,
    "pointPosId": 18,
    "photoMaleHash": 8784735099858859046,
    "photoFemaleHash": 7110952349368416206
  },
  {
    "id": 10390101,
    "chapterId": 103901,
    "type": "POINT_START",
    "acceptQuest": 1910101,
    "postPointList": [10390102, 10390105, 10390111],
    "pointNameTextMapHash": 3587137679,
    "pointDecTextMapHash": 1218824430,
    "pointPosId": 1
  },
  {
    "id": 10390102,
    "chapterId": 103901,
    "type": "POINT_MIDDLE",
    "acceptQuest": 1910201,
    "postPointList": [10390103],
    "pointNameTextMapHash": 3881921903,
    "pointDecTextMapHash": 4152278454,
    "pointPosId": 2
  },
  {
    "id": 10390103,
    "chapterId": 103901,
    "type": "POINT_MIDDLE",
    "acceptQuest": 1910206,
    "postPointList": [10390104, 10390192],
    "pointNameTextMapHash": 4024849807,
    "pointDecTextMapHash": 2123430726,
    "pointPosId": 3
  },
  {
    "id": 10390192,
    "chapterId": 103901,
    "type": "POINT_END",
    "postPointList": [],
    "pointNameTextMapHash": 506282359,
    "pointDecTextMapHash": 1376120942,
    "pointPosId": 4,
    "photoMaleHash": 13913302480299513560,
    "photoFemaleHash": 15255440399439078354
  },
  {
    "id": 10390104,
    "chapterId": 103901,
    "type": "POINT_MIDDLE",
    "acceptQuest": 1910212,
    "postPointList": [10390191],
    "pointNameTextMapHash": 3630085191,
    "pointDecTextMapHash": 4112739398,
    "pointPosId": 5
  },
  {
    "id": 10390191,
    "chapterId": 103901,
    "type": "POINT_END",
    "postPointList": [],
    "pointNameTextMapHash": 3444234519,
    "pointDecTextMapHash": 421083614,
    "pointPosId": 6,
    "photoMaleHash": 7004236692586788817,
    "photoFemaleHash": 9425861418880816844
  },
  {
    "id": 10390105,
    "chapterId": 103901,
    "type": "POINT_MIDDLE",
    "acceptQuest": 1910301,
    "postPointList": [10390106, 10390107],
    "pointNameTextMapHash": 2323132479,
    "pointDecTextMapHash": 3475796862,
    "pointPosId": 7
  },
  {
    "id": 10390106,
    "chapterId": 103901,
    "type": "POINT_MIDDLE",
    "acceptQuest": 1910401,
    "postPointList": [10390107],
    "pointNameTextMapHash": 3200130711,
    "pointDecTextMapHash": 2730464390,
    "pointPosId": 8
  },
  {
    "id": 10390107,
    "chapterId": 103901,
    "type": "POINT_MIDDLE",
    "acceptQuest": 1910407,
    "postPointList": [10390108, 10390109],
    "pointNameTextMapHash": 1763221551,
    "pointDecTextMapHash": 1716729438,
    "pointPosId": 9
  },
  {
    "id": 10390108,
    "chapterId": 103901,
    "type": "POINT_MIDDLE",
    "acceptQuest": 1910409,
    "postPointList": [10390193],
    "pointNameTextMapHash": 1069041183,
    "pointDecTextMapHash": 957406286,
    "pointPosId": 10
  },
  {
    "id": 10390193,
    "chapterId": 103901,
    "type": "POINT_END",
    "postPointList": [],
    "pointNameTextMapHash": 2541023759,
    "pointDecTextMapHash": 2288003478,
    "pointPosId": 11,
    "photoMaleHash": 3640487642042659100,
    "photoFemaleHash": 1786447586700439723
  },
  {
    "id": 10390109,
    "chapterId": 103901,
    "type": "POINT_MIDDLE",
    "acceptQuest": 1910411,
    "postPointList": [10390110],
    "pointNameTextMapHash": 1793369599,
    "pointDecTextMapHash": 398038662,
    "pointPosId": 12
  },
  {
    "id": 10390110,
    "chapterId": 103901,
    "type": "POINT_MIDDLE",
    "acceptQuest": 1910501,
    "postPointList": [10390194],
    "pointNameTextMapHash": 2870335535,
    "pointDecTextMapHash": 2947890990,
    "pointPosId": 13
  },
  {
    "id": 10390194,
    "chapterId": 103901,
    "type": "POINT_END",
    "postPointList": [],
    "pointNameTextMapHash": 3084466967,
    "pointDecTextMapHash": 1321642054,
    "pointPosId": 14,
    "photoMaleHash": 17299327252972653685,
    "photoFemaleHash": 5636543256094034664
  },
  {
    "id": 10390111,
    "chapterId": 103901,
    "type": "POINT_MIDDLE",
    "acceptQuest": 1910601,
    "postPointList": [10390112],
    "pointNameTextMapHash": 1263156839,
    "pointDecTextMapHash": 3496747998,
    "pointPosId": 15
  },
  {
    "id": 10390112,
    "chapterId": 103901,
    "type": "POINT_MIDDLE",
    "acceptQuest": 1910605,
    "postPointList": [10390113],
    "pointNameTextMapHash": 2668515199,
    "pointDecTextMapHash": 38933158,
    "pointPosId": 16
  },
  {
    "id": 10390113,
    "chapterId": 103901,
    "type": "POINT_MIDDLE",
    "acceptQuest": 1910701,
    "postPointList": [10390195],
    "pointNameTextMapHash": 1505818463,
    "pointDecTextMapHash": 2766940862,
    "pointPosId": 17
  },
  {
    "id": 10390195,
    "chapterId": 103901,
    "type": "POINT_END",
    "postPointList": [],
    "pointNameTextMapHash": 2731640103,
    "pointDecTextMapHash": 4170902894,
    "pointPosId": 18,
    "photoMaleHash": 1037840587006317636,
    "photoFemaleHash": 16328890013792456948
  },
  {
    "id": 10500101,
    "chapterId": 105001,
    "type": "POINT_START",
    "acceptQuest": 1911101,
    "postPointList": [10500102, 10500113],
    "pointNameTextMapHash": 1978174431,
    "pointDecTextMapHash": 2064091846,
    "pointPosId": 1
  },
  {
    "id": 10500102,
    "chapterId": 105001,
    "type": "POINT_MIDDLE",
    "acceptQuest": 1911201,
    "postPointList": [10500103, 10500107, 10500112],
    "pointNameTextMapHash": 1582045567,
    "pointDecTextMapHash": 3866364470,
    "pointPosId": 2
  },
  {
    "id": 10500103,
    "chapterId": 105001,
    "type": "POINT_MIDDLE",
    "acceptQuest": 1911301,
    "postPointList": [10500104, 10500106],
    "pointNameTextMapHash": 1679741551,
    "pointDecTextMapHash": 2359147982,
    "pointPosId": 3
  },
  {
    "id": 10500104,
    "chapterId": 105001,
    "type": "POINT_MIDDLE",
    "acceptQuest": 1911401,
    "postPointList": [10500105],
    "pointNameTextMapHash": 2880863015,
    "pointDecTextMapHash": 522198238,
    "pointPosId": 4
  },
  {
    "id": 10500105,
    "chapterId": 105001,
    "type": "POINT_MIDDLE",
    "acceptQuest": 1911406,
    "postPointList": [10500191],
    "pointNameTextMapHash": 3624587039,
    "pointDecTextMapHash": 1421375686,
    "pointPosId": 5
  },
  {
    "id": 10500191,
    "chapterId": 105001,
    "type": "POINT_END",
    "postPointList": [],
    "pointNameTextMapHash": 3398781367,
    "pointDecTextMapHash": 245663030,
    "pointPosId": 6,
    "photoMaleHash": 6955045297584251571,
    "photoFemaleHash": 17073252861918973721
  },
  {
    "id": 10500106,
    "chapterId": 105001,
    "type": "POINT_MIDDLE",
    "acceptQuest": 1911506,
    "postPointList": [10500192],
    "pointNameTextMapHash": 3957695127,
    "pointDecTextMapHash": 3171464342,
    "pointPosId": 7
  },
  {
    "id": 10500192,
    "chapterId": 105001,
    "type": "POINT_END",
    "postPointList": [],
    "pointNameTextMapHash": 3529768503,
    "pointDecTextMapHash": 1015368638,
    "pointPosId": 8,
    "photoMaleHash": 13583937121851058791,
    "photoFemaleHash": 3885709082256801723
  },
  {
    "id": 10500107,
    "chapterId": 105001,
    "type": "POINT_MIDDLE",
    "acceptQuest": 1911601,
    "postPointList": [10500108],
    "pointNameTextMapHash": 2501276319,
    "pointDecTextMapHash": 225367662,
    "pointPosId": 9
  },
  {
    "id": 10500108,
    "chapterId": 105001,
    "type": "POINT_MIDDLE",
    "acceptQuest": 1911603,
    "postPointList": [10500109, 10500111],
    "pointNameTextMapHash": 1125025879,
    "pointDecTextMapHash": 2327925006,
    "pointPosId": 10
  },
  {
    "id": 10500109,
    "chapterId": 105001,
    "type": "POINT_MIDDLE",
    "acceptQuest": 1911701,
    "postPointList": [10500110],
    "pointNameTextMapHash": 2581292519,
    "pointDecTextMapHash": 615405686,
    "pointPosId": 11
  },
  {
    "id": 10500110,
    "chapterId": 105001,
    "type": "POINT_MIDDLE",
    "acceptQuest": 1911704,
    "postPointList": [10500193],
    "pointNameTextMapHash": 2180298447,
    "pointDecTextMapHash": 386243918,
    "pointPosId": 12
  },
  {
    "id": 10500193,
    "chapterId": 105001,
    "type": "POINT_END",
    "postPointList": [],
    "pointNameTextMapHash": 3083329055,
    "pointDecTextMapHash": 1370254686,
    "pointPosId": 13,
    "photoMaleHash": 7533094120888033366,
    "photoFemaleHash": 15015626687806265380
  },
  {
    "id": 10500111,
    "chapterId": 105001,
    "type": "POINT_MIDDLE",
    "acceptQuest": 1911801,
    "postPointList": [10500194],
    "pointNameTextMapHash": 967469527,
    "pointDecTextMapHash": 1841014718,
    "pointPosId": 14
  },
  {
    "id": 10500194,
    "chapterId": 105001,
    "type": "POINT_END",
    "postPointList": [],
    "pointNameTextMapHash": 4273800711,
    "pointDecTextMapHash": 787251134,
    "pointPosId": 15,
    "photoMaleHash": 9578165085186108644,
    "photoFemaleHash": 572319857500673460
  },
  {
    "id": 10500112,
    "chapterId": 105001,
    "type": "POINT_MIDDLE",
    "acceptQuest": 1911901,
    "postPointList": [10500195],
    "pointNameTextMapHash": 1874498007,
    "pointDecTextMapHash": 3060997654,
    "pointPosId": 16
  },
  {
    "id": 10500195,
    "chapterId": 105001,
    "type": "POINT_END",
    "postPointList": [],
    "pointNameTextMapHash": 647084375,
    "pointDecTextMapHash": 2620940126,
    "pointPosId": 17,
    "photoMaleHash": 17926796693524591635,
    "photoFemaleHash": 1149189223947966232
  },
  {
    "id": 10500113,
    "chapterId": 105001,
    "type": "POINT_MIDDLE",
    "acceptQuest": 1912101,
    "postPointList": [10500114],
    "pointNameTextMapHash": 3436631183,
    "pointDecTextMapHash": 690227734,
    "pointPosId": 18
  },
  {
    "id": 10500114,
    "chapterId": 105001,
    "type": "POINT_MIDDLE",
    "acceptQuest": 1912103,
    "postPointList": [10500115],
    "pointNameTextMapHash": 543418055,
    "pointDecTextMapHash": 1848069398,
    "pointPosId": 19
  },
  {
    "id": 10500115,
    "chapterId": 105001,
    "type": "POINT_MIDDLE",
    "acceptQuest": 1912114,
    "postPointList": [10500196],
    "pointNameTextMapHash": 3785639775,
    "pointDecTextMapHash": 403875166,
    "pointPosId": 20
  },
  {
    "id": 10500196,
    "chapterId": 105001,
    "type": "POINT_END",
    "postPointList": [],
    "pointNameTextMapHash": 1942621287,
    "pointDecTextMapHash": 253514438,
    "pointPosId": 21,
    "photoMaleHash": 10302619249891557631,
    "photoFemaleHash": 7293141625987404778
  },
  {
    "id": 10530101,
    "chapterId": 105301,
    "type": "POINT_START",
    "acceptQuest": 1901201,
    "postPointList": [10530102],
    "pointNameTextMapHash": 985313639,
    "pointDecTextMapHash": 1944788294,
    "pointPosId": 1
  },
  {
    "id": 10530102,
    "chapterId": 105301,
    "type": "POINT_MIDDLE",
    "acceptQuest": 1901205,
    "postPointList": [10530103, 10530104],
    "pointNameTextMapHash": 1835821343,
    "pointDecTextMapHash": 3159103998,
    "pointPosId": 2
  },
  {
    "id": 10530103,
    "chapterId": 105301,
    "type": "POINT_MIDDLE",
    "acceptQuest": 1901001,
    "postPointList": [10530105, 10530106, 10530107],
    "pointNameTextMapHash": 1392824439,
    "pointDecTextMapHash": 998436758,
    "pointPosId": 3
  },
  {
    "id": 10530105,
    "chapterId": 105301,
    "type": "POINT_MIDDLE",
    "acceptQuest": 1901301,
    "postPointList": [10530110, 10530111],
    "pointNameTextMapHash": 3484683439,
    "pointDecTextMapHash": 2623390486,
    "pointPosId": 4
  },
  {
    "id": 10530110,
    "chapterId": 105301,
    "type": "POINT_MIDDLE",
    "acceptQuest": 1901307,
    "postPointList": [10530191],
    "pointNameTextMapHash": 3679638623,
    "pointDecTextMapHash": 12946910,
    "pointPosId": 5
  },
  {
    "id": 10530191,
    "chapterId": 105301,
    "type": "POINT_END",
    "postPointList": [],
    "pointNameTextMapHash": 8150079,
    "pointDecTextMapHash": 1069794526,
    "pointPosId": 6,
    "photoMaleHash": 3104689815706996115,
    "photoFemaleHash": 1878827820871104654
  },
  {
    "id": 10530111,
    "chapterId": 105301,
    "type": "POINT_MIDDLE",
    "acceptQuest": 1901309,
    "postPointList": [10530114],
    "pointNameTextMapHash": 2817290543,
    "pointDecTextMapHash": 1630769286,
    "pointPosId": 7
  },
  {
    "id": 10530114,
    "chapterId": 105301,
    "type": "POINT_MIDDLE",
    "acceptQuest": 1901306,
    "postPointList": [10530192],
    "pointNameTextMapHash": 1404235847,
    "pointDecTextMapHash": 3377612598,
    "pointPosId": 8
  },
  {
    "id": 10530192,
    "chapterId": 105301,
    "type": "POINT_END",
    "postPointList": [],
    "pointNameTextMapHash": 1030891447,
    "pointDecTextMapHash": 1237426158,
    "pointPosId": 9,
    "photoMaleHash": 12693083062169349067,
    "photoFemaleHash": 18072801174387447949
  },
  {
    "id": 10530106,
    "chapterId": 105301,
    "type": "POINT_MIDDLE",
    "acceptQuest": 1901401,
    "postPointList": [10530112],
    "pointNameTextMapHash": 1880929919,
    "pointDecTextMapHash": 302631702,
    "pointPosId": 10
  },
  {
    "id": 10530112,
    "chapterId": 105301,
    "type": "POINT_MIDDLE",
    "acceptQuest": 1901402,
    "postPointList": [10530115],
    "pointNameTextMapHash": 2618895415,
    "pointDecTextMapHash": 1693840886,
    "pointPosId": 11
  },
  {
    "id": 10530115,
    "chapterId": 105301,
    "type": "POINT_MIDDLE",
    "acceptQuest": 1901405,
    "postPointList": [10530193],
    "pointNameTextMapHash": 3430605511,
    "pointDecTextMapHash": 1299888038,
    "pointPosId": 12
  },
  {
    "id": 10530193,
    "chapterId": 105301,
    "type": "POINT_END",
    "postPointList": [],
    "pointNameTextMapHash": 3068424871,
    "pointDecTextMapHash": 3310275806,
    "pointPosId": 13,
    "photoMaleHash": 7346707127798157734,
    "photoFemaleHash": 949069341353930813
  },
  {
    "id": 10530107,
    "chapterId": 105301,
    "type": "POINT_MIDDLE",
    "acceptQuest": 1901501,
    "postPointList": [10530113],
    "pointNameTextMapHash": 4280332751,
    "pointDecTextMapHash": 2081782806,
    "pointPosId": 14
  },
  {
    "id": 10530113,
    "chapterId": 105301,
    "type": "POINT_MIDDLE",
    "acceptQuest": 1901504,
    "postPointList": [10530116],
    "pointNameTextMapHash": 4121002951,
    "pointDecTextMapHash": 3309359022,
    "pointPosId": 15
  },
  {
    "id": 10530116,
    "chapterId": 105301,
    "type": "POINT_MIDDLE",
    "acceptQuest": 1901507,
    "postPointList": [10530194],
    "pointNameTextMapHash": 1333320903,
    "pointDecTextMapHash": 1675470782,
    "pointPosId": 16
  },
  {
    "id": 10530194,
    "chapterId": 105301,
    "type": "POINT_END",
    "postPointList": [],
    "pointNameTextMapHash": 2776956119,
    "pointDecTextMapHash": 1509346510,
    "pointPosId": 17,
    "photoMaleHash": 16020095415849255659,
    "photoFemaleHash": 918600255580041121
  },
  {
    "id": 10530104,
    "chapterId": 105301,
    "type": "POINT_MIDDLE",
    "acceptQuest": 1901601,
    "postPointList": [10530108, 10530109],
    "pointNameTextMapHash": 1915399999,
    "pointDecTextMapHash": 2837434526,
    "pointPosId": 18
  },
  {
    "id": 10530108,
    "chapterId": 105301,
    "type": "POINT_MIDDLE",
    "acceptQuest": 1901602,
    "postPointList": [10530195],
    "pointNameTextMapHash": 2428510727,
    "pointDecTextMapHash": 4199610310,
    "pointPosId": 19
  },
  {
    "id": 10530195,
    "chapterId": 105301,
    "type": "POINT_END",
    "postPointList": [],
    "pointNameTextMapHash": 3273333935,
    "pointDecTextMapHash": 2914133382,
    "pointPosId": 20,
    "photoMaleHash": 10390539237059728860,
    "photoFemaleHash": 596825768862637709
  },
  {
    "id": 10530109,
    "chapterId": 105301,
    "type": "POINT_MIDDLE",
    "acceptQuest": 1901605,
    "postPointList": [10530196],
    "pointNameTextMapHash": 1343198455,
    "pointDecTextMapHash": 2999091110,
    "pointPosId": 21
  },
  {
    "id": 10530196,
    "chapterId": 105301,
    "type": "POINT_END",
    "postPointList": [],
    "pointNameTextMapHash": 2708616071,
    "pointDecTextMapHash": 2137950110,
    "pointPosId": 22,
    "photoMaleHash": 12948704767769200699,
    "photoFemaleHash": 1900541093774184287
  },
  {
    "id": 10240101,
    "chapterId": 102401,
    "type": "POINT_START",
    "acceptQuest": 1905001,
    "postPointList": [10240102, 10240112],
    "pointNameTextMapHash": 984781879,
    "pointDecTextMapHash": 1081489694,
    "pointPosId": 1
  },
  {
    "id": 10240102,
    "chapterId": 102401,
    "type": "POINT_MIDDLE",
    "acceptQuest": 1905003,
    "postPointList": [10240103, 10240108],
    "pointNameTextMapHash": 415036183,
    "pointDecTextMapHash": 1069957486,
    "pointPosId": 2
  },
  {
    "id": 10240103,
    "chapterId": 102401,
    "type": "POINT_MIDDLE",
    "acceptQuest": 1905101,
    "postPointList": [10240120],
    "pointNameTextMapHash": 4166048775,
    "pointDecTextMapHash": 2257511894,
    "pointPosId": 3
  },
  {
    "id": 10240120,
    "chapterId": 102401,
    "type": "POINT_MIDDLE",
    "acceptQuest": 1905104,
    "postPointList": [10240104, 10240109],
    "pointNameTextMapHash": 1544607951,
    "pointDecTextMapHash": 2797437958,
    "pointPosId": 23
  },
  {
    "id": 10240104,
    "chapterId": 102401,
    "type": "POINT_MIDDLE",
    "acceptQuest": 1905105,
    "postPointList": [10240105],
    "pointNameTextMapHash": 1517414255,
    "pointDecTextMapHash": 2869248134,
    "pointPosId": 4
  },
  {
    "id": 10240105,
    "chapterId": 102401,
    "type": "POINT_MIDDLE",
    "acceptQuest": 1905106,
    "postPointList": [10240106],
    "pointNameTextMapHash": 1069372607,
    "pointDecTextMapHash": 2442501222,
    "pointPosId": 5
  },
  {
    "id": 10240106,
    "chapterId": 102401,
    "type": "POINT_MIDDLE",
    "acceptQuest": 1905115,
    "postPointList": [10240119],
    "pointNameTextMapHash": 3015069383,
    "pointDecTextMapHash": 3963200174,
    "pointPosId": 6
  },
  {
    "id": 10240119,
    "chapterId": 102401,
    "type": "POINT_MIDDLE",
    "acceptQuest": 1905108,
    "postPointList": [10240107, 10240192],
    "pointNameTextMapHash": 2565487679,
    "pointDecTextMapHash": 1155587830,
    "pointPosId": 24
  },
  {
    "id": 10240107,
    "chapterId": 102401,
    "type": "POINT_MIDDLE",
    "acceptQuest": 1905109,
    "postPointList": [10240191],
    "pointNameTextMapHash": 1504806063,
    "pointDecTextMapHash": 2641286598,
    "pointPosId": 7
  },
  {
    "id": 10240191,
    "chapterId": 102401,
    "type": "POINT_END",
    "postPointList": [],
    "pointNameTextMapHash": 1623426223,
    "pointDecTextMapHash": 905279798,
    "pointPosId": 8,
    "photoMaleHash": 9875609665142311081,
    "photoFemaleHash": 10877868263936016682
  },
  {
    "id": 10240192,
    "chapterId": 102401,
    "type": "POINT_END",
    "postPointList": [],
    "pointNameTextMapHash": 1812859151,
    "pointDecTextMapHash": 1176681470,
    "pointPosId": 9,
    "photoMaleHash": 3986718012297066836,
    "photoFemaleHash": 17786081401248908511
  },
  {
    "id": 10240108,
    "chapterId": 102401,
    "type": "POINT_MIDDLE",
    "acceptQuest": 1905201,
    "postPointList": [10240109],
    "pointNameTextMapHash": 2958060279,
    "pointDecTextMapHash": 2011044486,
    "pointPosId": 10
  },
  {
    "id": 10240109,
    "chapterId": 102401,
    "type": "POINT_MIDDLE",
    "acceptQuest": 1905205,
    "postPointList": [10240110],
    "pointNameTextMapHash": 3081008695,
    "pointDecTextMapHash": 465117406,
    "pointPosId": 11
  },
  {
    "id": 10240110,
    "chapterId": 102401,
    "type": "POINT_MIDDLE",
    "acceptQuest": 1905208,
    "postPointList": [10240193],
    "pointNameTextMapHash": 188945935,
    "pointDecTextMapHash": 2583755374,
    "pointPosId": 12
  },
  {
    "id": 10240193,
    "chapterId": 102401,
    "type": "POINT_END",
    "postPointList": [],
    "pointNameTextMapHash": 644237719,
    "pointDecTextMapHash": 1045157518,
    "pointPosId": 13,
    "photoMaleHash": 17021361952789380621,
    "photoFemaleHash": 8011372668762963490
  },
  {
    "id": 10240112,
    "chapterId": 102401,
    "type": "POINT_MIDDLE",
    "acceptQuest": 1905004,
    "postPointList": [10240113, 10240117],
    "pointNameTextMapHash": 3136601319,
    "pointDecTextMapHash": 871262166,
    "pointPosId": 14
  },
  {
    "id": 10240113,
    "chapterId": 102401,
    "type": "POINT_MIDDLE",
    "acceptQuest": 1905301,
    "postPointList": [10240114],
    "pointNameTextMapHash": 2765183607,
    "pointDecTextMapHash": 953898958,
    "pointPosId": 15
  },
  {
    "id": 10240114,
    "chapterId": 102401,
    "type": "POINT_MIDDLE",
    "acceptQuest": 1905303,
    "postPointList": [10240115],
    "pointNameTextMapHash": 978025351,
    "pointDecTextMapHash": 641675078,
    "pointPosId": 16
  },
  {
    "id": 10240115,
    "chapterId": 102401,
    "type": "POINT_MIDDLE",
    "acceptQuest": 1905310,
    "postPointList": [10240116],
    "pointNameTextMapHash": 746677583,
    "pointDecTextMapHash": 3009288270,
    "pointPosId": 17
  },
  {
    "id": 10240116,
    "chapterId": 102401,
    "type": "POINT_MIDDLE",
    "acceptQuest": 1905308,
    "postPointList": [10240194],
    "pointNameTextMapHash": 3103883567,
    "pointDecTextMapHash": 4064585398,
    "pointPosId": 18
  },
  {
    "id": 10240194,
    "chapterId": 102401,
    "type": "POINT_END",
    "postPointList": [],
    "pointNameTextMapHash": 2653576263,
    "pointDecTextMapHash": 318765174,
    "pointPosId": 19,
    "photoMaleHash": 12844845994542028294,
    "photoFemaleHash": 11497680049553753870
  },
  {
    "id": 10240117,
    "chapterId": 102401,
    "type": "POINT_MIDDLE",
    "acceptQuest": 1905401,
    "postPointList": [10240118],
    "pointNameTextMapHash": 966988407,
    "pointDecTextMapHash": 1925711158,
    "pointPosId": 20
  },
  {
    "id": 10240118,
    "chapterId": 102401,
    "type": "POINT_MIDDLE",
    "acceptQuest": 1905408,
    "postPointList": [10240195],
    "pointNameTextMapHash": 3077755759,
    "pointDecTextMapHash": 3330745710,
    "pointPosId": 21
  },
  {
    "id": 10240195,
    "chapterId": 102401,
    "type": "POINT_END",
    "postPointList": [],
    "pointNameTextMapHash": 3158628583,
    "pointDecTextMapHash": 1783616710,
    "pointPosId": 22,
    "photoMaleHash": 16250598925735662624,
    "photoFemaleHash": 17754585555962639608
  },
  {
    "id": 10550101,
    "chapterId": 105501,
    "type": "POINT_START",
    "acceptQuest": 1901801,
    "postPointList": [10550102],
    "pointNameTextMapHash": 2057607607,
    "pointDecTextMapHash": 62988894,
    "pointPosId": 1
  },
  {
    "id": 10550102,
    "chapterId": 105501,
    "type": "POINT_MIDDLE",
    "acceptQuest": 1901805,
    "postPointList": [10550103, 10550106, 10550108, 10550113],
    "pointNameTextMapHash": 3775843935,
    "pointDecTextMapHash": 1885588038,
    "pointPosId": 2
  },
  {
    "id": 10550103,
    "chapterId": 105501,
    "type": "POINT_MIDDLE",
    "acceptQuest": 1901901,
    "postPointList": [10550104],
    "pointNameTextMapHash": 2152079199,
    "pointDecTextMapHash": 3503756070,
    "pointPosId": 3
  },
  {
    "id": 10550104,
    "chapterId": 105501,
    "type": "POINT_MIDDLE",
    "acceptQuest": 1901909,
    "postPointList": [10550105],
    "pointNameTextMapHash": 614041439,
    "pointDecTextMapHash": 4082380830,
    "pointPosId": 4
  },
  {
    "id": 10550105,
    "chapterId": 105501,
    "type": "POINT_MIDDLE",
    "acceptQuest": 1901913,
    "postPointList": [10550191],
    "pointNameTextMapHash": 3582740631,
    "pointDecTextMapHash": 3364060870,
    "pointPosId": 5
  },
  {
    "id": 10550191,
    "chapterId": 105501,
    "type": "POINT_END",
    "postPointList": [],
    "pointNameTextMapHash": 967422927,
    "pointDecTextMapHash": 2603730406,
    "pointPosId": 6,
    "photoMaleHash": 4577931807468713248,
    "photoFemaleHash": 7841188943436679585
  },
  {
    "id": 10550106,
    "chapterId": 105501,
    "type": "POINT_MIDDLE",
    "acceptQuest": 1902001,
    "postPointList": [10550107],
    "pointNameTextMapHash": 3167317607,
    "pointDecTextMapHash": 233227774,
    "pointPosId": 7
  },
  {
    "id": 10550107,
    "chapterId": 105501,
    "type": "POINT_MIDDLE",
    "acceptQuest": 1902007,
    "postPointList": [10550192],
    "pointNameTextMapHash": 7049159,
    "pointDecTextMapHash": 335212094,
    "pointPosId": 8
  },
  {
    "id": 10550192,
    "chapterId": 105501,
    "type": "POINT_END",
    "postPointList": [],
    "pointNameTextMapHash": 4007822383,
    "pointDecTextMapHash": 3946443030,
    "pointPosId": 9,
    "photoMaleHash": 16998857589090795740,
    "photoFemaleHash": 11883916447133645846
  },
  {
    "id": 10550108,
    "chapterId": 105501,
    "type": "POINT_MIDDLE",
    "acceptQuest": 1901803,
    "postPointList": [10550109, 10550111],
    "pointNameTextMapHash": 2913807415,
    "pointDecTextMapHash": 2849169342,
    "pointPosId": 10
  },
  {
    "id": 10550109,
    "chapterId": 105501,
    "type": "POINT_MIDDLE",
    "acceptQuest": 1902601,
    "postPointList": [10550110],
    "pointNameTextMapHash": 3226499327,
    "pointDecTextMapHash": 3606979390,
    "pointPosId": 11
  },
  {
    "id": 10550110,
    "chapterId": 105501,
    "type": "POINT_MIDDLE",
    "acceptQuest": 1902605,
    "postPointList": [10550193],
    "pointNameTextMapHash": 2747655943,
    "pointDecTextMapHash": 2530080774,
    "pointPosId": 12
  },
  {
    "id": 10550193,
    "chapterId": 105501,
    "type": "POINT_END",
    "postPointList": [],
    "pointNameTextMapHash": 608795927,
    "pointDecTextMapHash": 1367462566,
    "pointPosId": 13,
    "photoMaleHash": 12172335808086789682,
    "photoFemaleHash": 13854284364941182065
  },
  {
    "id": 10550111,
    "chapterId": 105501,
    "type": "POINT_MIDDLE",
    "acceptQuest": 1902702,
    "postPointList": [10550112],
    "pointNameTextMapHash": 3344269983,
    "pointDecTextMapHash": 1042888558,
    "pointPosId": 14
  },
  {
    "id": 10550112,
    "chapterId": 105501,
    "type": "POINT_MIDDLE",
    "acceptQuest": 1902706,
    "postPointList": [10550194],
    "pointNameTextMapHash": 2370707535,
    "pointDecTextMapHash": 2726492782,
    "pointPosId": 15
  },
  {
    "id": 10550194,
    "chapterId": 105501,
    "type": "POINT_END",
    "postPointList": [],
    "pointNameTextMapHash": 2514920967,
    "pointDecTextMapHash": 4249219190,
    "pointPosId": 16,
    "photoMaleHash": 15475886395719687687,
    "photoFemaleHash": 13894531687424922877
  },
  {
    "id": 10550113,
    "chapterId": 105501,
    "type": "POINT_MIDDLE",
    "acceptQuest": 1902801,
    "postPointList": [10550114],
    "pointNameTextMapHash": 698109215,
    "pointDecTextMapHash": 3321735446,
    "pointPosId": 17
  },
  {
    "id": 10550114,
    "chapterId": 105501,
    "type": "POINT_MIDDLE",
    "acceptQuest": 1902810,
    "postPointList": [10550115],
    "pointNameTextMapHash": 2682652655,
    "pointDecTextMapHash": 700970854,
    "pointPosId": 18
  },
  {
    "id": 10550115,
    "chapterId": 105501,
    "type": "POINT_MIDDLE",
    "acceptQuest": 1902813,
    "postPointList": [10550195],
    "pointNameTextMapHash": 245298463,
    "pointDecTextMapHash": 4264817974,
    "pointPosId": 19
  },
  {
    "id": 10550195,
    "chapterId": 105501,
    "type": "POINT_END",
    "postPointList": [],
    "pointNameTextMapHash": 1329218095,
    "pointDecTextMapHash": 3625952086,
    "pointPosId": 20,
    "photoMaleHash": 12507132766533488838,
    "photoFemaleHash": 12823605515800005051
  },
  {
    "id": 10640101,
    "chapterId": 106401,
    "type": "POINT_START",
    "acceptQuest": 1901701,
    "postPointList": [10640102],
    "pointNameTextMapHash": 2109109631,
    "pointDecTextMapHash": 3397997014,
    "pointPosId": 1
  },
  {
    "id": 10640102,
    "chapterId": 106401,
    "type": "POINT_MIDDLE",
    "acceptQuest": 1901706,
    "postPointList": [10640103, 10640112],
    "pointNameTextMapHash": 1738964175,
    "pointDecTextMapHash": 1290199030,
    "pointPosId": 2
  },
  {
    "id": 10640103,
    "chapterId": 106401,
    "type": "POINT_MIDDLE",
    "acceptQuest": 1903701,
    "postPointList": [10640104],
    "pointNameTextMapHash": 3267829111,
    "pointDecTextMapHash": 892817598,
    "pointPosId": 3
  },
  {
    "id": 10640104,
    "chapterId": 106401,
    "type": "POINT_MIDDLE",
    "acceptQuest": 1903703,
    "postPointList": [10640105, 10640109],
    "pointNameTextMapHash": 4078530863,
    "pointDecTextMapHash": 2972437198,
    "pointPosId": 4
  },
  {
    "id": 10640105,
    "chapterId": 106401,
    "type": "POINT_MIDDLE",
    "acceptQuest": 1903801,
    "postPointList": [10640191, 10640106],
    "pointNameTextMapHash": 857580999,
    "pointDecTextMapHash": 1806776902,
    "pointPosId": 5
  },
  {
    "id": 10640106,
    "chapterId": 106401,
    "type": "POINT_MIDDLE",
    "acceptQuest": 1903806,
    "postPointList": [10640107, 10640108],
    "pointNameTextMapHash": 785681023,
    "pointDecTextMapHash": 3883179238,
    "pointPosId": 6
  },
  {
    "id": 10640107,
    "chapterId": 106401,
    "type": "POINT_MIDDLE",
    "acceptQuest": 1903812,
    "postPointList": [10640191],
    "pointNameTextMapHash": 2178529703,
    "pointDecTextMapHash": 3280397598,
    "pointPosId": 7
  },
  {
    "id": 10640108,
    "chapterId": 106401,
    "type": "POINT_MIDDLE",
    "acceptQuest": 1903808,
    "postPointList": [10640192],
    "pointNameTextMapHash": 594535871,
    "pointDecTextMapHash": 1575852902,
    "pointPosId": 8
  },
  {
    "id": 10640191,
    "chapterId": 106401,
    "type": "POINT_END",
    "postPointList": [],
    "pointNameTextMapHash": 76227143,
    "pointDecTextMapHash": 857939454,
    "pointPosId": 9,
    "photoMaleHash": 9530912144247510972,
    "photoFemaleHash": 9692724367290811603
  },
  {
    "id": 10640192,
    "chapterId": 106401,
    "type": "POINT_END",
    "postPointList": [],
    "pointNameTextMapHash": 1180896079,
    "pointDecTextMapHash": 2701841902,
    "pointPosId": 10,
    "photoMaleHash": 16238705426039101471,
    "photoFemaleHash": 2404769797472829022
  },
  {
    "id": 10640109,
    "chapterId": 106401,
    "type": "POINT_MIDDLE",
    "acceptQuest": 1904001,
    "postPointList": [10640110],
    "pointNameTextMapHash": 1657965327,
    "pointDecTextMapHash": 1544538086,
    "pointPosId": 11
  },
  {
    "id": 10640110,
    "chapterId": 106401,
    "type": "POINT_MIDDLE",
    "acceptQuest": 1904004,
    "postPointList": [10640111, 10640194],
    "pointNameTextMapHash": 2708955543,
    "pointDecTextMapHash": 1303834966,
    "pointPosId": 12
  },
  {
    "id": 10640111,
    "chapterId": 106401,
    "type": "POINT_MIDDLE",
    "acceptQuest": 1904008,
    "postPointList": [10640193],
    "pointNameTextMapHash": 4109629287,
    "pointDecTextMapHash": 328075110,
    "pointPosId": 13
  },
  {
    "id": 10640193,
    "chapterId": 106401,
    "type": "POINT_END",
    "postPointList": [],
    "pointNameTextMapHash": 1522974687,
    "pointDecTextMapHash": 4241353798,
    "pointPosId": 14,
    "photoMaleHash": 17010973497657109492,
    "photoFemaleHash": 5710049491918961898
  },
  {
    "id": 10640194,
    "chapterId": 106401,
    "type": "POINT_END",
    "postPointList": [],
    "pointNameTextMapHash": 3262571199,
    "pointDecTextMapHash": 41557382,
    "pointPosId": 15,
    "photoMaleHash": 8884011854446496145,
    "photoFemaleHash": 329099637219846185
  },
  {
    "id": 10640112,
    "chapterId": 106401,
    "type": "POINT_MIDDLE",
    "acceptQuest": 1904712,
    "postPointList": [10640113],
    "pointNameTextMapHash": 3618356631,
    "pointDecTextMapHash": 2014040606,
    "pointPosId": 16
  },
  {
    "id": 10640113,
    "chapterId": 106401,
    "type": "POINT_MIDDLE",
    "acceptQuest": 1904703,
    "postPointList": [10640114],
    "pointNameTextMapHash": 131906999,
    "pointDecTextMapHash": 604274038,
    "pointPosId": 17
  },
  {
    "id": 10640114,
    "chapterId": 106401,
    "type": "POINT_MIDDLE",
    "acceptQuest": 1904707,
    "postPointList": [10640195],
    "pointNameTextMapHash": 1675645847,
    "pointDecTextMapHash": 2504149238,
    "pointPosId": 18
  },
  {
    "id": 10640195,
    "chapterId": 106401,
    "type": "POINT_END",
    "postPointList": [],
    "pointNameTextMapHash": 141071967,
    "pointDecTextMapHash": 4294118270,
    "pointPosId": 19,
    "photoMaleHash": 16758460101428350040,
    "photoFemaleHash": 1350575958043423841
  },
  {
    "id": 10270101,
    "chapterId": 102701,
    "type": "POINT_START",
    "acceptQuest": 1913101,
    "postPointList": [10270102],
    "pointNameTextMapHash": 3613671943,
    "pointDecTextMapHash": 848825566,
    "pointPosId": 1
  },
  {
    "id": 10270102,
    "chapterId": 102701,
    "type": "POINT_MIDDLE",
    "acceptQuest": 1913102,
    "postPointList": [10270103, 10270111],
    "pointNameTextMapHash": 1642435623,
    "pointDecTextMapHash": 1609951862,
    "pointPosId": 2
  },
  {
    "id": 10270103,
    "chapterId": 102701,
    "type": "POINT_MIDDLE",
    "acceptQuest": 1913207,
    "postPointList": [10270104],
    "pointNameTextMapHash": 1678495551,
    "pointDecTextMapHash": 2427518238,
    "pointPosId": 3
  },
  {
    "id": 10270104,
    "chapterId": 102701,
    "type": "POINT_MIDDLE",
    "acceptQuest": 1913206,
    "postPointList": [10270105, 10270108],
    "pointNameTextMapHash": 4294928231,
    "pointDecTextMapHash": 3099411782,
    "pointPosId": 4
  },
  {
    "id": 10270105,
    "chapterId": 102701,
    "type": "POINT_MIDDLE",
    "acceptQuest": 1913301,
    "postPointList": [10270106],
    "pointNameTextMapHash": 454306919,
    "pointDecTextMapHash": 163381238,
    "pointPosId": 5
  },
  {
    "id": 10270106,
    "chapterId": 102701,
    "type": "POINT_MIDDLE",
    "acceptQuest": 1913302,
    "postPointList": [10270107],
    "pointNameTextMapHash": 2335234159,
    "pointDecTextMapHash": 1564120566,
    "pointPosId": 6
  },
  {
    "id": 10270107,
    "chapterId": 102701,
    "type": "POINT_MIDDLE",
    "acceptQuest": 1913304,
    "postPointList": [10270191],
    "pointNameTextMapHash": 3697284447,
    "pointDecTextMapHash": 3671222214,
    "pointPosId": 7
  },
  {
    "id": 10270191,
    "chapterId": 102701,
    "type": "POINT_END",
    "postPointList": [],
    "pointNameTextMapHash": 4046157551,
    "pointDecTextMapHash": 3663840558,
    "pointPosId": 8,
    "photoMaleHash": 10654539370894637991,
    "photoFemaleHash": 9158585006977327185
  },
  {
    "id": 10270108,
    "chapterId": 102701,
    "type": "POINT_MIDDLE",
    "acceptQuest": 1913401,
    "postPointList": [10270109],
    "pointNameTextMapHash": 1168538991,
    "pointDecTextMapHash": 351164286,
    "pointPosId": 9
  },
  {
    "id": 10270109,
    "chapterId": 102701,
    "type": "POINT_MIDDLE",
    "acceptQuest": 1913407,
    "postPointList": [10270110],
    "pointNameTextMapHash": 340708079,
    "pointDecTextMapHash": 3476766942,
    "pointPosId": 10
  },
  {
    "id": 10270110,
    "chapterId": 102701,
    "type": "POINT_MIDDLE",
    "acceptQuest": 1913413,
    "postPointList": [10270192],
    "pointNameTextMapHash": 3327068119,
    "pointDecTextMapHash": 1748067230,
    "pointPosId": 11
  },
  {
    "id": 10270192,
    "chapterId": 102701,
    "type": "POINT_END",
    "postPointList": [],
    "pointNameTextMapHash": 1475042383,
    "pointDecTextMapHash": 1495597990,
    "pointPosId": 12,
    "photoMaleHash": 1442876279406338628,
    "photoFemaleHash": 14920852678189811455
  },
  {
    "id": 10270111,
    "chapterId": 102701,
    "type": "POINT_MIDDLE",
    "acceptQuest": 1913802,
    "postPointList": [10270112, 10270114, 10270117],
    "pointNameTextMapHash": 3556937959,
    "pointDecTextMapHash": 1740232710,
    "pointPosId": 13
  },
  {
    "id": 10270112,
    "chapterId": 102701,
    "type": "POINT_MIDDLE",
    "acceptQuest": 1913501,
    "postPointList": [10270113],
    "pointNameTextMapHash": 324773215,
    "pointDecTextMapHash": 3524768686,
    "pointPosId": 14
  },
  {
    "id": 10270113,
    "chapterId": 102701,
    "type": "POINT_MIDDLE",
    "acceptQuest": 1913503,
    "postPointList": [10270193],
    "pointNameTextMapHash": 123076415,
    "pointDecTextMapHash": 3872055222,
    "pointPosId": 15
  },
  {
    "id": 10270193,
    "chapterId": 102701,
    "type": "POINT_END",
    "postPointList": [],
    "pointNameTextMapHash": 2375780135,
    "pointDecTextMapHash": 2642697334,
    "pointPosId": 16,
    "photoMaleHash": 5626328630498736615,
    "photoFemaleHash": 8976327565204998512
  },
  {
    "id": 10270114,
    "chapterId": 102701,
    "type": "POINT_MIDDLE",
    "acceptQuest": 1913601,
    "postPointList": [10270115],
    "pointNameTextMapHash": 1213248751,
    "pointDecTextMapHash": 1747348422,
    "pointPosId": 17
  },
  {
    "id": 10270115,
    "chapterId": 102701,
    "type": "POINT_MIDDLE",
    "acceptQuest": 1913603,
    "postPointList": [10270116],
    "pointNameTextMapHash": 335442679,
    "pointDecTextMapHash": 2999845694,
    "pointPosId": 18
  },
  {
    "id": 10270116,
    "chapterId": 102701,
    "type": "POINT_MIDDLE",
    "acceptQuest": 1913611,
    "postPointList": [10270194],
    "pointNameTextMapHash": 2117398535,
    "pointDecTextMapHash": 3398802910,
    "pointPosId": 19
  },
  {
    "id": 10270194,
    "chapterId": 102701,
    "type": "POINT_END",
    "postPointList": [],
    "pointNameTextMapHash": 127133415,
    "pointDecTextMapHash": 2517369902,
    "pointPosId": 20,
    "photoMaleHash": 3922196323656958544,
    "photoFemaleHash": 5625135602351800241
  },
  {
    "id": 10270117,
    "chapterId": 102701,
    "type": "POINT_MIDDLE",
    "acceptQuest": 1913701,
    "postPointList": [10270118],
    "pointNameTextMapHash": 811368079,
    "pointDecTextMapHash": 3326581254,
    "pointPosId": 21
  },
  {
    "id": 10270118,
    "chapterId": 102701,
    "type": "POINT_MIDDLE",
    "acceptQuest": 1913702,
    "postPointList": [10270119],
    "pointNameTextMapHash": 3826363431,
    "pointDecTextMapHash": 279206878,
    "pointPosId": 22
  },
  {
    "id": 10270119,
    "chapterId": 102701,
    "type": "POINT_MIDDLE",
    "acceptQuest": 1913709,
    "postPointList": [10270120],
    "pointNameTextMapHash": 3054231015,
    "pointDecTextMapHash": 2002446174,
    "pointPosId": 23
  },
  {
    "id": 10270120,
    "chapterId": 102701,
    "type": "POINT_MIDDLE",
    "acceptQuest": 1913710,
    "postPointList": [10270195],
    "pointNameTextMapHash": 1351547983,
    "pointDecTextMapHash": 401128966,
    "pointPosId": 24
  },
  {
    "id": 10270195,
    "chapterId": 102701,
    "type": "POINT_END",
    "postPointList": [],
    "pointNameTextMapHash": 3098331767,
    "pointDecTextMapHash": 3295929438,
    "pointPosId": 25,
    "photoMaleHash": 6793178580906531464,
    "photoFemaleHash": 7768258144312171170
  },
  {
    "id": 10650101,
    "chapterId": 106501,
    "type": "POINT_START",
    "acceptQuest": 1914101,
    "postPointList": [10650102],
    "pointNameTextMapHash": 415026447,
    "pointDecTextMapHash": 1286802718,
    "pointPosId": 1
  },
  {
    "id": 10650102,
    "chapterId": 106501,
    "type": "POINT_MIDDLE",
    "acceptQuest": 1914102,
    "postPointList": [10650103, 10650110, 10650117],
    "pointNameTextMapHash": 1122525335,
    "pointDecTextMapHash": 1468515726,
    "pointPosId": 2
  },
  {
    "id": 10650103,
    "chapterId": 106501,
    "type": "POINT_MIDDLE",
    "acceptQuest": 1914201,
    "postPointList": [10650104, 10650107],
    "pointNameTextMapHash": 3494694215,
    "pointDecTextMapHash": 237428998,
    "pointPosId": 3
  },
  {
    "id": 10650104,
    "chapterId": 106501,
    "type": "POINT_MIDDLE",
    "acceptQuest": 1914501,
    "postPointList": [10650105],
    "pointNameTextMapHash": 3099401711,
    "pointDecTextMapHash": 2507971030,
    "pointPosId": 4
  },
  {
    "id": 10650105,
    "chapterId": 106501,
    "type": "POINT_MIDDLE",
    "acceptQuest": 1914503,
    "postPointList": [10650106],
    "pointNameTextMapHash": 2046487,
    "pointDecTextMapHash": 2595391342,
    "pointPosId": 5
  },
  {
    "id": 10650106,
    "chapterId": 106501,
    "type": "POINT_MIDDLE",
    "acceptQuest": 1914511,
    "postPointList": [10650191],
    "pointNameTextMapHash": 1545633839,
    "pointDecTextMapHash": 3514566046,
    "pointPosId": 6
  },
  {
    "id": 10650191,
    "chapterId": 106501,
    "type": "POINT_END",
    "postPointList": [],
    "pointNameTextMapHash": 3773928623,
    "pointDecTextMapHash": 1335104190,
    "pointPosId": 7,
    "photoMaleHash": 6290972030597992987,
    "photoFemaleHash": 14945495104582083067
  },
  {
    "id": 10650107,
    "chapterId": 106501,
    "type": "POINT_MIDDLE",
    "acceptQuest": 1914601,
    "postPointList": [10650108],
    "pointNameTextMapHash": 3244912887,
    "pointDecTextMapHash": 1015369422,
    "pointPosId": 8
  },
  {
    "id": 10650108,
    "chapterId": 106501,
    "type": "POINT_MIDDLE",
    "acceptQuest": 1914608,
    "postPointList": [10650109],
    "pointNameTextMapHash": 2969041919,
    "pointDecTextMapHash": 2074138166,
    "pointPosId": 9
  },
  {
    "id": 10650109,
    "chapterId": 106501,
    "type": "POINT_MIDDLE",
    "acceptQuest": 1914609,
    "postPointList": [10650192],
    "pointNameTextMapHash": 464439903,
    "pointDecTextMapHash": 1813877894,
    "pointPosId": 10
  },
  {
    "id": 10650192,
    "chapterId": 106501,
    "type": "POINT_END",
    "postPointList": [],
    "pointNameTextMapHash": 29214959,
    "pointDecTextMapHash": 2141886190,
    "pointPosId": 11,
    "photoMaleHash": 13224183115149115641,
    "photoFemaleHash": 5327023553962211044
  },
  {
    "id": 10650110,
    "chapterId": 106501,
    "type": "POINT_MIDDLE",
    "acceptQuest": 1914303,
    "postPointList": [10650111],
    "pointNameTextMapHash": 503081359,
    "pointDecTextMapHash": 1984819670,
    "pointPosId": 12
  },
  {
    "id": 10650111,
    "chapterId": 106501,
    "type": "POINT_MIDDLE",
    "acceptQuest": 1914309,
    "postPointList": [10650112, 10650113],
    "pointNameTextMapHash": 112867927,
    "pointDecTextMapHash": 136744326,
    "pointPosId": 13
  },
  {
    "id": 10650112,
    "chapterId": 106501,
    "type": "POINT_MIDDLE",
    "acceptQuest": 1914701,
    "postPointList": [10650193],
    "pointNameTextMapHash": 2825674487,
    "pointDecTextMapHash": 3348897806,
    "pointPosId": 14
  },
  {
    "id": 10650193,
    "chapterId": 106501,
    "type": "POINT_END",
    "postPointList": [],
    "pointNameTextMapHash": 2861200671,
    "pointDecTextMapHash": 2926545894,
    "pointPosId": 15,
    "photoMaleHash": 1358182587659925864,
    "photoFemaleHash": 17178720359756613179
  },
  {
    "id": 10650113,
    "chapterId": 106501,
    "type": "POINT_MIDDLE",
    "acceptQuest": 1914801,
    "postPointList": [10650114],
    "pointNameTextMapHash": 310710767,
    "pointDecTextMapHash": 1773434238,
    "pointPosId": 16
  },
  {
    "id": 10650114,
    "chapterId": 106501,
    "type": "POINT_MIDDLE",
    "acceptQuest": 1914802,
    "postPointList": [10650115],
    "pointNameTextMapHash": 2656815407,
    "pointDecTextMapHash": 40819678,
    "pointPosId": 17
  },
  {
    "id": 10650115,
    "chapterId": 106501,
    "type": "POINT_MIDDLE",
    "acceptQuest": 1914805,
    "postPointList": [10650116],
    "pointNameTextMapHash": 930324839,
    "pointDecTextMapHash": 697306118,
    "pointPosId": 18
  },
  {
    "id": 10650116,
    "chapterId": 106501,
    "type": "POINT_MIDDLE",
    "acceptQuest": 1914807,
    "postPointList": [10650194],
    "pointNameTextMapHash": 4056723559,
    "pointDecTextMapHash": 71825414,
    "pointPosId": 19
  },
  {
    "id": 10650194,
    "chapterId": 106501,
    "type": "POINT_END",
    "postPointList": [],
    "pointNameTextMapHash": 853318095,
    "pointDecTextMapHash": 890625310,
    "pointPosId": 20,
    "photoMaleHash": 6017913635122304702,
    "photoFemaleHash": 15172095088599355560
  },
  {
    "id": 10650117,
    "chapterId": 106501,
    "type": "POINT_MIDDLE",
    "acceptQuest": 1914401,
    "postPointList": [10650118],
    "pointNameTextMapHash": 753923415,
    "pointDecTextMapHash": 3341346702,
    "pointPosId": 21
  },
  {
    "id": 10650118,
    "chapterId": 106501,
    "type": "POINT_MIDDLE",
    "acceptQuest": 1914402,
    "postPointList": [10650119],
    "pointNameTextMapHash": 850113399,
    "pointDecTextMapHash": 204244110,
    "pointPosId": 22
  },
  {
    "id": 10650119,
    "chapterId": 106501,
    "type": "POINT_MIDDLE",
    "acceptQuest": 1914404,
    "postPointList": [10650120],
    "pointNameTextMapHash": 731448815,
    "pointDecTextMapHash": 1710914238,
    "pointPosId": 23
  },
  {
    "id": 10650120,
    "chapterId": 106501,
    "type": "POINT_MIDDLE",
    "acceptQuest": 1914408,
    "postPointList": [10650195],
    "pointNameTextMapHash": 3440622575,
    "pointDecTextMapHash": 1531600982,
    "pointPosId": 24
  },
  {
    "id": 10650195,
    "chapterId": 106501,
    "type": "POINT_END",
    "postPointList": [],
    "pointNameTextMapHash": 1818481111,
    "pointDecTextMapHash": 3116196774,
    "pointPosId": 25,
    "photoMaleHash": 13049965191567122399,
    "photoFemaleHash": 2357263955238117265
  },
  {
    "id": 10590101,
    "chapterId": 105901,
    "type": "POINT_START",
    "acceptQuest": 1903601,
    "postPointList": [10590102],
    "pointNameTextMapHash": 3396024991,
    "pointDecTextMapHash": 2990244638,
    "pointPosId": 1
  },
  {
    "id": 10590102,
    "chapterId": 105901,
    "type": "POINT_MIDDLE",
    "acceptQuest": 1903605,
    "postPointList": [10590103, 10590108],
    "pointNameTextMapHash": 1216279327,
    "pointDecTextMapHash": 3073715638,
    "pointPosId": 2
  },
  {
    "id": 10590103,
    "chapterId": 105901,
    "type": "POINT_MIDDLE",
    "acceptQuest": 1903909,
    "postPointList": [10590104],
    "pointNameTextMapHash": 1398208991,
    "pointDecTextMapHash": 2928974606,
    "pointPosId": 3
  },
  {
    "id": 10590104,
    "chapterId": 105901,
    "type": "POINT_MIDDLE",
    "acceptQuest": 1903908,
    "postPointList": [10590105],
    "pointNameTextMapHash": 3646459655,
    "pointDecTextMapHash": 3998174406,
    "pointPosId": 4
  },
  {
    "id": 10590105,
    "chapterId": 105901,
    "type": "POINT_MIDDLE",
    "acceptQuest": 1905516,
    "postPointList": [10590106],
    "pointNameTextMapHash": 2451371687,
    "pointDecTextMapHash": 4292655222,
    "pointPosId": 5
  },
  {
    "id": 10590106,
    "chapterId": 105901,
    "type": "POINT_MIDDLE",
    "acceptQuest": 1905506,
    "postPointList": [10590107],
    "pointNameTextMapHash": 4026522759,
    "pointDecTextMapHash": 2790652254,
    "pointPosId": 6
  },
  {
    "id": 10590107,
    "chapterId": 105901,
    "type": "POINT_MIDDLE",
    "acceptQuest": 1905509,
    "postPointList": [10590191],
    "pointNameTextMapHash": 1694761359,
    "pointDecTextMapHash": 1550618862,
    "pointPosId": 7
  },
  {
    "id": 10590191,
    "chapterId": 105901,
    "type": "POINT_END",
    "postPointList": [],
    "pointNameTextMapHash": 3009357071,
    "pointDecTextMapHash": 3308444174,
    "pointPosId": 8,
    "photoMaleHash": 18215043378560030101,
    "photoFemaleHash": 13019623475586986207
  },
  {
    "id": 10590108,
    "chapterId": 105901,
    "type": "POINT_MIDDLE",
    "acceptQuest": 1905601,
    "postPointList": [10590109],
    "pointNameTextMapHash": 919704279,
    "pointDecTextMapHash": 520899950,
    "pointPosId": 9
  },
  {
    "id": 10590109,
    "chapterId": 105901,
    "type": "POINT_MIDDLE",
    "acceptQuest": 1905608,
    "postPointList": [10590110, 10590114],
    "pointNameTextMapHash": 2415398247,
    "pointDecTextMapHash": 3208385742,
    "pointPosId": 10
  },
  {
    "id": 10590110,
    "chapterId": 105901,
    "type": "POINT_MIDDLE",
    "acceptQuest": 1905701,
    "postPointList": [10590111],
    "pointNameTextMapHash": 3520324879,
    "pointDecTextMapHash": 2802834566,
    "pointPosId": 11
  },
  {
    "id": 10590111,
    "chapterId": 105901,
    "type": "POINT_MIDDLE",
    "acceptQuest": 1905702,
    "postPointList": [10590112],
    "pointNameTextMapHash": 349963479,
    "pointDecTextMapHash": 2305767670,
    "pointPosId": 12
  },
  {
    "id": 10590112,
    "chapterId": 105901,
    "type": "POINT_MIDDLE",
    "acceptQuest": 1905708,
    "postPointList": [10590113],
    "pointNameTextMapHash": 2241456543,
    "pointDecTextMapHash": 203323910,
    "pointPosId": 13
  },
  {
    "id": 10590113,
    "chapterId": 105901,
    "type": "POINT_MIDDLE",
    "acceptQuest": 1905704,
    "postPointList": [10590192, 10590193],
    "pointNameTextMapHash": 2165517591,
    "pointDecTextMapHash": 280993230,
    "pointPosId": 14
  },
  {
    "id": 10590192,
    "chapterId": 105901,
    "type": "POINT_END",
    "postPointList": [],
    "pointNameTextMapHash": 1423574839,
    "pointDecTextMapHash": 270463238,
    "pointPosId": 15,
    "photoMaleHash": 15537522470418282657,
    "photoFemaleHash": 17263271248713129186
  },
  {
    "id": 10590193,
    "chapterId": 105901,
    "type": "POINT_END",
    "postPointList": [],
    "pointNameTextMapHash": 1790760287,
    "pointDecTextMapHash": 2548876502,
    "pointPosId": 16,
    "photoMaleHash": 381239639357908037,
    "photoFemaleHash": 5655174294259952787
  },
  {
    "id": 10590114,
    "chapterId": 105901,
    "type": "POINT_MIDDLE",
    "acceptQuest": 1906001,
    "postPointList": [10590115],
    "pointNameTextMapHash": 2860363839,
    "pointDecTextMapHash": 2052750398,
    "pointPosId": 17
  },
  {
    "id": 10590115,
    "chapterId": 105901,
    "type": "POINT_MIDDLE",
    "acceptQuest": 1906002,
    "postPointList": [10590116],
    "pointNameTextMapHash": 223408039,
    "pointDecTextMapHash": 1536438062,
    "pointPosId": 18
  },
  {
    "id": 10590116,
    "chapterId": 105901,
    "type": "POINT_MIDDLE",
    "acceptQuest": 1906004,
    "postPointList": [10590117],
    "pointNameTextMapHash": 3004757719,
    "pointDecTextMapHash": 1353083558,
    "pointPosId": 19
  },
  {
    "id": 10590117,
    "chapterId": 105901,
    "type": "POINT_MIDDLE",
    "acceptQuest": 1906005,
    "postPointList": [10590118],
    "pointNameTextMapHash": 1257342679,
    "pointDecTextMapHash": 343107214,
    "pointPosId": 20
  },
  {
    "id": 10590118,
    "chapterId": 105901,
    "type": "POINT_MIDDLE",
    "acceptQuest": 1906006,
    "postPointList": [10590119],
    "pointNameTextMapHash": 1471005479,
    "pointDecTextMapHash": 374055022,
    "pointPosId": 21
  },
  {
    "id": 10590119,
    "chapterId": 105901,
    "type": "POINT_MIDDLE",
    "acceptQuest": 1906007,
    "postPointList": [10590120],
    "pointNameTextMapHash": 2904532543,
    "pointDecTextMapHash": 3875307758,
    "pointPosId": 22
  },
  {
    "id": 10590120,
    "chapterId": 105901,
    "type": "POINT_MIDDLE",
    "acceptQuest": 1906008,
    "postPointList": [10590194, 10590121],
    "pointNameTextMapHash": 1248691287,
    "pointDecTextMapHash": 1962802086,
    "pointPosId": 23
  },
  {
    "id": 10590194,
    "chapterId": 105901,
    "type": "POINT_END",
    "postPointList": [],
    "pointNameTextMapHash": 3758068543,
    "pointDecTextMapHash": 3662708830,
    "pointPosId": 24,
    "photoMaleHash": 13282808820223589020,
    "photoFemaleHash": 11278041955781529394
  },
  {
    "id": 10590121,
    "chapterId": 105901,
    "type": "POINT_MIDDLE",
    "acceptQuest": 1906021,
    "postPointList": [10590195],
    "pointNameTextMapHash": 365014807,
    "pointDecTextMapHash": 775023150,
    "pointPosId": 25
  },
  {
    "id": 10590195,
    "chapterId": 105901,
    "type": "POINT_END",
    "postPointList": [],
    "pointNameTextMapHash": 2188587143,
    "pointDecTextMapHash": 2287284238,
    "pointPosId": 26,
    "photoMaleHash": 17901126320017268007,
    "photoFemaleHash": 3963998252908457294
  },
  {
    "id": 10760101,
    "chapterId": 107601,
    "type": "POINT_START",
    "acceptQuest": 1917001,
    "postPointList": [10760102],
    "pointNameTextMapHash": 850885447,
    "pointDecTextMapHash": 2820640294,
    "pointPosId": 1
  },
  {
    "id": 10760102,
    "chapterId": 107601,
    "type": "POINT_MIDDLE",
    "acceptQuest": 1917005,
    "postPointList": [10760103, 10760106, 10760110],
    "pointNameTextMapHash": 2093501663,
    "pointDecTextMapHash": 1318433046,
    "pointPosId": 2
  },
  {
    "id": 10760103,
    "chapterId": 107601,
    "type": "POINT_MIDDLE",
    "acceptQuest": 1917101,
    "postPointList": [10760104],
    "pointNameTextMapHash": 87424391,
    "pointDecTextMapHash": 3368867294,
    "pointPosId": 3
  },
  {
    "id": 10760104,
    "chapterId": 107601,
    "type": "POINT_MIDDLE",
    "acceptQuest": 1917103,
    "postPointList": [10760105],
    "pointNameTextMapHash": 3335551551,
    "pointDecTextMapHash": 488521590,
    "pointPosId": 4
  },
  {
    "id": 10760105,
    "chapterId": 107601,
    "type": "POINT_MIDDLE",
    "acceptQuest": 1917105,
    "postPointList": [10760191],
    "pointNameTextMapHash": 4030145735,
    "pointDecTextMapHash": 2464718110,
    "pointPosId": 5
  },
  {
    "id": 10760191,
    "chapterId": 107601,
    "type": "POINT_END",
    "postPointList": [],
    "pointNameTextMapHash": 1571025079,
    "pointDecTextMapHash": 623631270,
    "pointPosId": 6,
    "photoMaleHash": 6072699099393180994,
    "photoFemaleHash": 15533989964083689803
  },
  {
    "id": 10760106,
    "chapterId": 107601,
    "type": "POINT_MIDDLE",
    "acceptQuest": 1917201,
    "postPointList": [10760107],
    "pointNameTextMapHash": 2198017119,
    "pointDecTextMapHash": 213104958,
    "pointPosId": 7
  },
  {
    "id": 10760107,
    "chapterId": 107601,
    "type": "POINT_MIDDLE",
    "acceptQuest": 1917204,
    "postPointList": [10760108, 10760109],
    "pointNameTextMapHash": 4239393119,
    "pointDecTextMapHash": 3113901294,
    "pointPosId": 8
  },
  {
    "id": 10760108,
    "chapterId": 107601,
    "type": "POINT_MIDDLE",
    "acceptQuest": 1917205,
    "postPointList": [10760192],
    "pointNameTextMapHash": 1076123711,
    "pointDecTextMapHash": 797810590,
    "pointPosId": 9
  },
  {
    "id": 10760192,
    "chapterId": 107601,
    "type": "POINT_END",
    "postPointList": [],
    "pointNameTextMapHash": 1135344655,
    "pointDecTextMapHash": 171234566,
    "pointPosId": 10,
    "photoMaleHash": 8559206349346623069,
    "photoFemaleHash": 6622898523227914496
  },
  {
    "id": 10760109,
    "chapterId": 107601,
    "type": "POINT_MIDDLE",
    "acceptQuest": 1917207,
    "postPointList": [10760193],
    "pointNameTextMapHash": 3897242655,
    "pointDecTextMapHash": 1903505630,
    "pointPosId": 11
  },
  {
    "id": 10760193,
    "chapterId": 107601,
    "type": "POINT_END",
    "postPointList": [],
    "pointNameTextMapHash": 1732533279,
    "pointDecTextMapHash": 2919593118,
    "pointPosId": 12,
    "photoMaleHash": 6885618538975999760,
    "photoFemaleHash": 5444856825578500690
  },
  {
    "id": 10760110,
    "chapterId": 107601,
    "type": "POINT_MIDDLE",
    "acceptQuest": 1917301,
    "postPointList": [10760111],
    "pointNameTextMapHash": 2513097799,
    "pointDecTextMapHash": 2739673326,
    "pointPosId": 13
  },
  {
    "id": 10760111,
    "chapterId": 107601,
    "type": "POINT_MIDDLE",
    "acceptQuest": 1917306,
    "postPointList": [10760112],
    "pointNameTextMapHash": 3378106591,
    "pointDecTextMapHash": 65703294,
    "pointPosId": 14
  },
  {
    "id": 10760112,
    "chapterId": 107601,
    "type": "POINT_MIDDLE",
    "acceptQuest": 1917314,
    "postPointList": [10760113],
    "pointNameTextMapHash": 2919861751,
    "pointDecTextMapHash": 23788798,
    "pointPosId": 15
  },
  {
    "id": 10760113,
    "chapterId": 107601,
    "type": "POINT_MIDDLE",
    "acceptQuest": 1917316,
    "postPointList": [10760114],
    "pointNameTextMapHash": 3894001623,
    "pointDecTextMapHash": 3068037878,
    "pointPosId": 16
  },
  {
    "id": 10760114,
    "chapterId": 107601,
    "type": "POINT_MIDDLE",
    "acceptQuest": 1917319,
    "postPointList": [10760115, 10760116],
    "pointNameTextMapHash": 1794974135,
    "pointDecTextMapHash": 844423502,
    "pointPosId": 17
  },
  {
    "id": 10760115,
    "chapterId": 107601,
    "type": "POINT_MIDDLE",
    "acceptQuest": 1917321,
    "postPointList": [10760194],
    "pointNameTextMapHash": 2633149375,
    "pointDecTextMapHash": 3766858766,
    "pointPosId": 18
  },
  {
    "id": 10760194,
    "chapterId": 107601,
    "type": "POINT_END",
    "postPointList": [],
    "pointNameTextMapHash": 228200751,
    "pointDecTextMapHash": 3843645942,
    "pointPosId": 19,
    "photoMaleHash": 6900173161835870589,
    "photoFemaleHash": 4158116214052583265
  },
  {
    "id": 10760116,
    "chapterId": 107601,
    "type": "POINT_MIDDLE",
    "acceptQuest": 1917323,
    "postPointList": [10760195],
    "pointNameTextMapHash": 1827130503,
    "pointDecTextMapHash": 2595201854,
    "pointPosId": 20
  },
  {
    "id": 10760195,
    "chapterId": 107601,
    "type": "POINT_END",
    "postPointList": [],
    "pointNameTextMapHash": 3454960463,
    "pointDecTextMapHash": 3094172926,
    "pointPosId": 21,
    "photoMaleHash": 14355336828159751760,
    "photoFemaleHash": 2658407828497438090
  },
  {
    "id": 10740101,
    "chapterId": 107401,
    "type": "POINT_START",
    "acceptQuest": 1915002,
    "postPointList": [10740102, 10740115],
    "pointNameTextMapHash": 3765588239,
    "pointDecTextMapHash": 2652459694,
    "pointPosId": 1
  },
  {
    "id": 10740102,
    "chapterId": 107401,
    "type": "POINT_MIDDLE",
    "acceptQuest": 1915101,
    "postPointList": [10740103],
    "pointNameTextMapHash": 3525253375,
    "pointDecTextMapHash": 1512227686,
    "pointPosId": 2
  },
  {
    "id": 10740103,
    "chapterId": 107401,
    "type": "POINT_MIDDLE",
    "acceptQuest": 1915104,
    "postPointList": [10740104, 10740108],
    "pointNameTextMapHash": 1638340623,
    "pointDecTextMapHash": 4255021542,
    "pointPosId": 3
  },
  {
    "id": 10740104,
    "chapterId": 107401,
    "type": "POINT_MIDDLE",
    "acceptQuest": 1915201,
    "postPointList": [10740105],
    "pointNameTextMapHash": 1084363943,
    "pointDecTextMapHash": 1828604166,
    "pointPosId": 4
  },
  {
    "id": 10740105,
    "chapterId": 107401,
    "type": "POINT_MIDDLE",
    "acceptQuest": 1915302,
    "postPointList": [10740106],
    "pointNameTextMapHash": 1348437087,
    "pointDecTextMapHash": 4219276574,
    "pointPosId": 5
  },
  {
    "id": 10740106,
    "chapterId": 107401,
    "type": "POINT_MIDDLE",
    "acceptQuest": 1915306,
    "postPointList": [10740191],
    "pointNameTextMapHash": 4208975703,
    "pointDecTextMapHash": 2630161742,
    "pointPosId": 6
  },
  {
    "id": 10740191,
    "chapterId": 107401,
    "type": "POINT_END",
    "postPointList": [],
    "pointNameTextMapHash": 1176141711,
    "pointDecTextMapHash": 1694089198,
    "pointPosId": 7,
    "photoMaleHash": 15275793487047792900,
    "photoFemaleHash": 14698477467685356753
  },
  {
    "id": 10740108,
    "chapterId": 107401,
    "type": "POINT_MIDDLE",
    "acceptQuest": 1915402,
    "postPointList": [10740109],
    "pointNameTextMapHash": 850772999,
    "pointDecTextMapHash": 3489886662,
    "pointPosId": 8
  },
  {
    "id": 10740109,
    "chapterId": 107401,
    "type": "POINT_MIDDLE",
    "acceptQuest": 1915404,
    "postPointList": [10740110],
    "pointNameTextMapHash": 1878579287,
    "pointDecTextMapHash": 1244621534,
    "pointPosId": 9
  },
  {
    "id": 10740110,
    "chapterId": 107401,
    "type": "POINT_MIDDLE",
    "acceptQuest": 1915406,
    "postPointList": [10740111, 10740113],
    "pointNameTextMapHash": 3339368583,
    "pointDecTextMapHash": 2854939110,
    "pointPosId": 10
  },
  {
    "id": 10740111,
    "chapterId": 107401,
    "type": "POINT_MIDDLE",
    "acceptQuest": 1915502,
    "postPointList": [10740192],
    "pointNameTextMapHash": 1688440343,
    "pointDecTextMapHash": 4042310574,
    "pointPosId": 11
  },
  {
    "id": 10740192,
    "chapterId": 107401,
    "type": "POINT_END",
    "postPointList": [],
    "pointNameTextMapHash": 789615367,
    "pointDecTextMapHash": 2480203982,
    "pointPosId": 12,
    "photoMaleHash": 590387778686856442,
    "photoFemaleHash": 6731302495338082075
  },
  {
    "id": 10740113,
    "chapterId": 107401,
    "type": "POINT_MIDDLE",
    "acceptQuest": 1915601,
    "postPointList": [10740193],
    "pointNameTextMapHash": 4051721647,
    "pointDecTextMapHash": 587252350,
    "pointPosId": 13
  },
  {
    "id": 10740193,
    "chapterId": 107401,
    "type": "POINT_END",
    "postPointList": [],
    "pointNameTextMapHash": 4100368199,
    "pointDecTextMapHash": 72784894,
    "pointPosId": 14,
    "photoMaleHash": 11188946473876155808,
    "photoFemaleHash": 11182370053728805173
  },
  {
    "id": 10740115,
    "chapterId": 107401,
    "type": "POINT_MIDDLE",
    "acceptQuest": 1915701,
    "postPointList": [10740116, 10740122],
    "pointNameTextMapHash": 448100711,
    "pointDecTextMapHash": 3751199198,
    "pointPosId": 15
  },
  {
    "id": 10740116,
    "chapterId": 107401,
    "type": "POINT_MIDDLE",
    "acceptQuest": 1915801,
    "postPointList": [10740117],
    "pointNameTextMapHash": 645983727,
    "pointDecTextMapHash": 705911742,
    "pointPosId": 16
  },
  {
    "id": 10740117,
    "chapterId": 107401,
    "type": "POINT_MIDDLE",
    "acceptQuest": 1915802,
    "postPointList": [10740118, 10740120],
    "pointNameTextMapHash": 3862270495,
    "pointDecTextMapHash": 1352250494,
    "pointPosId": 17
  },
  {
    "id": 10740118,
    "chapterId": 107401,
    "type": "POINT_MIDDLE",
    "acceptQuest": 1915901,
    "postPointList": [10740194, 10740195],
    "pointNameTextMapHash": 1877300087,
    "pointDecTextMapHash": 3006579798,
    "pointPosId": 18
  },
  {
    "id": 10740194,
    "chapterId": 107401,
    "type": "POINT_END",
    "postPointList": [],
    "pointNameTextMapHash": 2706914471,
    "pointDecTextMapHash": 1780342406,
    "pointPosId": 19,
    "photoMaleHash": 1618566922677248376,
    "photoFemaleHash": 7282761741428969311
  },
  {
    "id": 10740120,
    "chapterId": 107401,
    "type": "POINT_MIDDLE",
    "acceptQuest": 1916001,
    "postPointList": [10740195],
    "pointNameTextMapHash": 3828329031,
    "pointDecTextMapHash": 1210562654,
    "pointPosId": 20
  },
  {
    "id": 10740195,
    "chapterId": 107401,
    "type": "POINT_END",
    "postPointList": [],
    "pointNameTextMapHash": 1512141535,
    "pointDecTextMapHash": 1708344518,
    "pointPosId": 21,
    "photoMaleHash": 16249107156971838414,
    "photoFemaleHash": 11401900559316197937
  },
  {
    "id": 10740122,
    "chapterId": 107401,
    "type": "POINT_MIDDLE",
    "acceptQuest": 1916101,
    "postPointList": [10740123],
    "pointNameTextMapHash": 2674479143,
    "pointDecTextMapHash": 2489417150,
    "pointPosId": 22
  },
  {
    "id": 10740123,
    "chapterId": 107401,
    "type": "POINT_MIDDLE",
    "acceptQuest": 1916107,
    "postPointList": [10740124],
    "pointNameTextMapHash": 1415316167,
    "pointDecTextMapHash": 2493569358,
    "pointPosId": 23
  },
  {
    "id": 10740124,
    "chapterId": 107401,
    "type": "POINT_MIDDLE",
    "acceptQuest": 1916201,
    "postPointList": [10740125],
    "pointNameTextMapHash": 3810357391,
    "pointDecTextMapHash": 1519941574,
    "pointPosId": 24
  },
  {
    "id": 10740125,
    "chapterId": 107401,
    "type": "POINT_MIDDLE",
    "acceptQuest": 1916207,
    "postPointList": [10740196],
    "pointNameTextMapHash": 449604647,
    "pointDecTextMapHash": 2720459558,
    "pointPosId": 25
  },
  {
    "id": 10740196,
    "chapterId": 107401,
    "type": "POINT_END",
    "postPointList": [],
    "pointNameTextMapHash": 2685070567,
    "pointDecTextMapHash": 4160391270,
    "pointPosId": 26,
    "photoMaleHash": 7606089323038540886,
    "photoFemaleHash": 1127301531716835706
  }
]
