[
  {
    "dungeonID": 2115,
    "order": 1,
    "jsonPath": "dungeon2115_customLevel_config.json",
    "FEGPPCCLDOB": "CustomLevelMap_4",
    "LDAPLPBNCDP": 14829454126744586252,
    "JMHNNCNPJBD": 3144206367536021791,
    "EMEBACCIPKC": 2,
    "DMPNNMGDGIC": 2765057581,
    "MFLMNOPMCDD": "1,2",
    "EMBBCGFHMIF": [
      1001, 1002, 3001, 3002, 3003, 3004, 3005, 3006, 3007, 4009, 4010, 4011,
      4012, 4013, 4014, 4015, 5001, 5002, 5003
    ]
  },
  {
    "dungeonID": 2113,
    "order": 2,
    "jsonPath": "dungeon2113_customLevel_config.json",
    "FEGPPCCLDOB": "CustomLevelMap_2",
    "LDAPLPBNCDP": 3708003683116044961,
    "JMHNNCNPJBD": 15170138095823264224,
    "EMEBACCIPKC": 3,
    "DMPNNMGDGIC": 950065637,
    "MFLMNOPMCDD": "1,2;2,3",
    "EMBBCGFHMIF": [
      1001, 1002, 3001, 3002, 3003, 3004, 3005, 3006, 3007, 4009, 4010, 4011,
      4012, 4013, 4014, 4015, 5001, 5002, 5003
    ]
  },
  {
    "dungeonID": 2114,
    "order": 3,
    "jsonPath": "dungeon2114_customLevel_config.json",
    "FEGPPCCLDOB": "CustomLevelMap_3",
    "LDAPLPBNCDP": 7940292303446814895,
    "JMHNNCNPJBD": 6593234258256075057,
    "EMEBACCIPKC": 4,
    "DMPNNMGDGIC": 278277669,
    "MFLMNOPMCDD": "1,2;2,3;3,4",
    "EMBBCGFHMIF": [
      1001, 1002, 3001, 3002, 3003, 3004, 3005, 3006, 3007, 4009, 4010, 4011,
      4012, 4013, 4014, 4015, 5001, 5002, 5003
    ]
  },
  {
    "dungeonID": 2112,
    "order": 4,
    "jsonPath": "dungeon2112_customLevel_config.json",
    "FEGPPCCLDOB": "CustomLevelMap_1",
    "LDAPLPBNCDP": 9437271082575461204,
    "JMHNNCNPJBD": 17391498424606288405,
    "EMEBACCIPKC": 3,
    "DMPNNMGDGIC": 3996221253,
    "MFLMNOPMCDD": "1,2;1,2;2,3",
    "EMBBCGFHMIF": [
      1001, 1002, 3001, 3002, 3003, 3004, 3005, 3006, 3007, 4009, 4010, 4011,
      4012, 4013, 4014, 4015, 5001, 5002, 5003
    ]
  },
  {
    "dungeonID": 2116,
    "order": 5,
    "jsonPath": "dungeon2116_customLevel_config.json",
    "FEGPPCCLDOB": "CustomLevelMap_5",
    "LDAPLPBNCDP": 15108419644507695603,
    "JMHNNCNPJBD": 6393206569803178352,
    "EMEBACCIPKC": 1,
    "DMPNNMGDGIC": 220453045,
    "MFLMNOPMCDD": "",
    "EMBBCGFHMIF": [
      1001, 1002, 3001, 3002, 3003, 3004, 3005, 3006, 3007, 4009, 4010, 4011,
      4012, 4013, 4014, 4015, 5001, 5002, 5003
    ]
  },
  {
    "dungeonID": 9000,
    "order": 1,
    "jsonPath": "dungeon9000_customLevel_config.json",
    "FEGPPCCLDOB": "",
    "EMEBACCIPKC": 1,
    "DMPNNMGDGIC": 2618855837,
    "MFLMNOPMCDD": "",
    "EMBBCGFHMIF": [6007, 6009, 6015, 6017]
  },
  {
    "dungeonID": 9001,
    "order": 2,
    "jsonPath": "dungeon9001_customLevel_config.json",
    "FEGPPCCLDOB": "",
    "EMEBACCIPKC": 1,
    "DMPNNMGDGIC": 3577796629,
    "MFLMNOPMCDD": "",
    "EMBBCGFHMIF": [6001, 6012, 6018, 6020]
  },
  {
    "dungeonID": 9002,
    "order": 3,
    "jsonPath": "dungeon9002_customLevel_config.json",
    "FEGPPCCLDOB": "",
    "EMEBACCIPKC": 1,
    "DMPNNMGDGIC": 1220765941,
    "MFLMNOPMCDD": "",
    "EMBBCGFHMIF": [6002, 6016, 6019, 6021]
  },
  {
    "dungeonID": 2122,
    "order": 1,
    "jsonPath": "dungeon2122_customLevel_config.json",
    "FEGPPCCLDOB": "CustomLevelMap_4",
    "LDAPLPBNCDP": 14829454126744586252,
    "JMHNNCNPJBD": 3144206367536021791,
    "EMEBACCIPKC": 2,
    "DMPNNMGDGIC": 713126533,
    "MFLMNOPMCDD": "1,2",
    "EMBBCGFHMIF": [
      1002, 3001, 3002, 3003, 3004, 3005, 3006, 4001, 4002, 4003, 4004, 4005,
      5001, 5002, 5003
    ]
  },
  {
    "dungeonID": 2120,
    "order": 2,
    "jsonPath": "dungeon2120_customLevel_config.json",
    "FEGPPCCLDOB": "CustomLevelMap_2",
    "LDAPLPBNCDP": 3708003683116044961,
    "JMHNNCNPJBD": 15170138095823264224,
    "EMEBACCIPKC": 3,
    "DMPNNMGDGIC": 3657011621,
    "MFLMNOPMCDD": "1,2;2,3",
    "EMBBCGFHMIF": [
      1002, 3001, 3002, 3003, 3004, 3005, 3006, 4001, 4002, 4003, 4004, 4005,
      5001, 5002, 5003
    ]
  },
  {
    "dungeonID": 2121,
    "order": 3,
    "jsonPath": "dungeon2121_customLevel_config.json",
    "FEGPPCCLDOB": "CustomLevelMap_3",
    "LDAPLPBNCDP": 7940292303446814895,
    "JMHNNCNPJBD": 6593234258256075057,
    "EMEBACCIPKC": 4,
    "DMPNNMGDGIC": 2814177093,
    "MFLMNOPMCDD": "1,2;2,3;3,4",
    "EMBBCGFHMIF": [
      1002, 3001, 3002, 3003, 3004, 3005, 3006, 4001, 4002, 4003, 4004, 4005,
      5001, 5002, 5003
    ]
  },
  {
    "dungeonID": 2119,
    "order": 4,
    "jsonPath": "dungeon2119_customLevel_config.json",
    "FEGPPCCLDOB": "CustomLevelMap_1",
    "LDAPLPBNCDP": 9437271082575461204,
    "JMHNNCNPJBD": 17391498424606288405,
    "EMEBACCIPKC": 3,
    "DMPNNMGDGIC": 3923062253,
    "MFLMNOPMCDD": "1,2;1,2;2,3",
    "EMBBCGFHMIF": [
      1002, 3001, 3002, 3003, 3004, 3005, 3006, 4001, 4002, 4003, 4004, 4005,
      5001, 5002, 5003
    ]
  },
  {
    "dungeonID": 2123,
    "order": 5,
    "jsonPath": "dungeon2123_customLevel_config.json",
    "FEGPPCCLDOB": "CustomLevelMap_5",
    "LDAPLPBNCDP": 15108419644507695603,
    "JMHNNCNPJBD": 6393206569803178352,
    "EMEBACCIPKC": 1,
    "DMPNNMGDGIC": 230762157,
    "MFLMNOPMCDD": "",
    "EMBBCGFHMIF": [
      1001, 1002, 3001, 3002, 3003, 3004, 3005, 3006, 3007, 4009, 4010, 4011,
      4012, 4013, 4014, 4015, 5001, 5002, 5003
    ]
  }
]
