[
  {
    "JNJBINDCLGC": 1000,
    "DHICLEHIGGE": "TOPCOUNTDOWN",
    "KFBKBKDALND": 3198805806
  },
  {
    "JNJBINDCLGC": 1001,
    "DHICLEHIGGE": "SIDE",
    "JECFFPLPENB": "INTERRUPT",
    "sortLevel": 99999,
    "KFBKBKDALND": 4057556350
  },
  {
    "JNJBINDCLGC": 30601000,
    "DHICLEHIGGE": "SIDE",
    "JECFFPLPENB": "MAIN",
    "KFBKBKDALND": 1963569982
  },
  {
    "JNJBINDCLGC": 30601001,
    "DHICLEHIGGE": "SIDE",
    "JECFFPLPENB": "SUB",
    "sortLevel": 2001,
    "KFBKBKDALND": 1753482254
  },
  {
    "JNJBINDCLGC": 30601002,
    "DHICLEHIGGE": "SIDE",
    "JECFFPLPENB": "SUB",
    "sortLevel": 2002,
    "KFBKBKDALND": 3087540038
  },
  {
    "JNJBINDCLGC": 30601003,
    "DHICLEHIGGE": "SIDE",
    "JECFFPLPENB": "SUB",
    "sortLevel": 2003,
    "KFBKBKDALND": 2133505238
  },
  {
    "JNJBINDCLGC": 30601004,
    "DHICLEHIGGE": "SIDE",
    "JECFFPLPENB": "SUB",
    "sortLevel": 2004,
    "KFBKBKDALND": 3857309862
  },
  {
    "JNJBINDCLGC": 30601005,
    "DHICLEHIGGE": "SIDE",
    "JECFFPLPENB": "SUB",
    "sortLevel": 2005,
    "KFBKBKDALND": 2641443678
  },
  {
    "JNJBINDCLGC": 30601006,
    "DHICLEHIGGE": "SIDE",
    "JECFFPLPENB": "SUB",
    "sortLevel": 2006,
    "KFBKBKDALND": 1907735286
  },
  {
    "JNJBINDCLGC": 30601007,
    "DHICLEHIGGE": "SIDE",
    "JECFFPLPENB": "SUB",
    "sortLevel": 2007,
    "KFBKBKDALND": 2753461046
  },
  {
    "JNJBINDCLGC": 30601008,
    "DHICLEHIGGE": "SIDE",
    "JECFFPLPENB": "SUB",
    "sortLevel": 2008,
    "KFBKBKDALND": 1068640382
  },
  {
    "JNJBINDCLGC": 30601009,
    "DHICLEHIGGE": "SIDE",
    "JECFFPLPENB": "SUB",
    "sortLevel": 2009,
    "KFBKBKDALND": 1693098342
  },
  {
    "JNJBINDCLGC": 30601010,
    "DHICLEHIGGE": "SIDE",
    "JECFFPLPENB": "SUB",
    "sortLevel": 2010,
    "KFBKBKDALND": 312250526
  },
  {
    "JNJBINDCLGC": 30601011,
    "DHICLEHIGGE": "SIDE",
    "JECFFPLPENB": "MAIN",
    "KFBKBKDALND": 878812694
  },
  {
    "JNJBINDCLGC": 30601012,
    "DHICLEHIGGE": "SIDE",
    "JECFFPLPENB": "MAIN",
    "KFBKBKDALND": 4079539638
  },
  {
    "JNJBINDCLGC": 30601013,
    "DHICLEHIGGE": "SIDE",
    "JECFFPLPENB": "SUB",
    "sortLevel": 2001,
    "KFBKBKDALND": 2936997350
  },
  {
    "JNJBINDCLGC": 30601014,
    "DHICLEHIGGE": "SIDE",
    "JECFFPLPENB": "SUB",
    "sortLevel": 2002,
    "KFBKBKDALND": 2134287230
  },
  {
    "JNJBINDCLGC": 30601015,
    "DHICLEHIGGE": "SIDE",
    "JECFFPLPENB": "SUB",
    "sortLevel": 2004,
    "KFBKBKDALND": 2918459902
  },
  {
    "JNJBINDCLGC": 30601016,
    "DHICLEHIGGE": "SIDE",
    "JECFFPLPENB": "SUB",
    "sortLevel": 2008,
    "KFBKBKDALND": 2065026718
  },
  {
    "JNJBINDCLGC": 30601017,
    "DHICLEHIGGE": "SIDE",
    "JECFFPLPENB": "SUB",
    "sortLevel": 2006,
    "KFBKBKDALND": 1556084054
  },
  {
    "JNJBINDCLGC": 30601018,
    "DHICLEHIGGE": "SIDE",
    "JECFFPLPENB": "SUB",
    "sortLevel": 2005,
    "KFBKBKDALND": 2361715238
  },
  {
    "JNJBINDCLGC": 30601019,
    "DHICLEHIGGE": "SIDE",
    "JECFFPLPENB": "SUB",
    "sortLevel": 2007,
    "KFBKBKDALND": 1420864438
  },
  {
    "JNJBINDCLGC": 30602000,
    "DHICLEHIGGE": "SIDE",
    "JECFFPLPENB": "MAIN",
    "KFBKBKDALND": 1510694990
  },
  {
    "JNJBINDCLGC": 30602001,
    "DHICLEHIGGE": "SIDE",
    "JECFFPLPENB": "SUB",
    "sortLevel": 2001,
    "KFBKBKDALND": 3700695486
  },
  {
    "JNJBINDCLGC": 30602002,
    "DHICLEHIGGE": "SIDE",
    "JECFFPLPENB": "SUB",
    "sortLevel": 2002,
    "KFBKBKDALND": 4086486662
  },
  {
    "JNJBINDCLGC": 30603000,
    "DHICLEHIGGE": "SIDE",
    "JECFFPLPENB": "MAIN",
    "KFBKBKDALND": 461640454
  },
  {
    "JNJBINDCLGC": 30603001,
    "DHICLEHIGGE": "SIDE",
    "JECFFPLPENB": "MAIN",
    "KFBKBKDALND": 3944261526
  },
  {
    "JNJBINDCLGC": 30604000,
    "DHICLEHIGGE": "SIDE",
    "JECFFPLPENB": "MAIN",
    "KFBKBKDALND": 2248729550
  },
  {
    "JNJBINDCLGC": 30604001,
    "DHICLEHIGGE": "SIDE",
    "JECFFPLPENB": "SUB",
    "sortLevel": 2001,
    "KFBKBKDALND": 3899908966
  },
  {
    "JNJBINDCLGC": 30604002,
    "DHICLEHIGGE": "SIDE",
    "JECFFPLPENB": "SUB",
    "sortLevel": 2002,
    "KFBKBKDALND": 1169382862
  },
  {
    "JNJBINDCLGC": 30604003,
    "DHICLEHIGGE": "SIDE",
    "JECFFPLPENB": "SUB",
    "sortLevel": 2003,
    "KFBKBKDALND": 371504894
  },
  {
    "JNJBINDCLGC": 30604004,
    "DHICLEHIGGE": "SIDE",
    "JECFFPLPENB": "MAIN",
    "KFBKBKDALND": 3290032630
  },
  {
    "JNJBINDCLGC": 30604005,
    "DHICLEHIGGE": "SIDE",
    "JECFFPLPENB": "SUB",
    "sortLevel": 2001,
    "KFBKBKDALND": 3703953966
  },
  {
    "JNJBINDCLGC": 30604006,
    "DHICLEHIGGE": "SIDE",
    "JECFFPLPENB": "MAIN",
    "KFBKBKDALND": 353147318
  },
  {
    "JNJBINDCLGC": 30604007,
    "DHICLEHIGGE": "SIDE",
    "JECFFPLPENB": "SUB",
    "sortLevel": 2001,
    "KFBKBKDALND": 301261078
  },
  {
    "JNJBINDCLGC": 30604008,
    "DHICLEHIGGE": "SIDE",
    "JECFFPLPENB": "SUB",
    "sortLevel": 2001,
    "KFBKBKDALND": 3158605366
  },
  {
    "JNJBINDCLGC": 30604009,
    "DHICLEHIGGE": "SIDE",
    "JECFFPLPENB": "SUB",
    "sortLevel": 2002,
    "KFBKBKDALND": 2663841662
  },
  {
    "JNJBINDCLGC": 30605001,
    "DHICLEHIGGE": "SIDE",
    "JECFFPLPENB": "MAIN",
    "KFBKBKDALND": 324657022
  },
  {
    "JNJBINDCLGC": 30605002,
    "DHICLEHIGGE": "SIDE",
    "JECFFPLPENB": "SUB",
    "sortLevel": 2001,
    "KFBKBKDALND": 2424272950
  }
]
