[
  {
    "id": 1001,
    "MFJLOKLOBAC": 3774456411,
    "FFIBCHLOKIJ": 1375562431,
    "GOEKDBEHBAM": "UI_Icon_Intee_Mechanism",
    "DBGGKNLEBOE": 1750877531,
    "BBIDNBGFIDI": "",
    "BBJGMKGOCBP": true
  },
  {
    "id": 1002,
    "MFJLOKLOBAC": 4021807587,
    "FFIBCHLOKIJ": 2013927447,
    "GOEKDBEHBAM": "UI_Icon_Intee_Mechanism",
    "DBGGKNLEBOE": 397334155,
    "BBIDNBGFIDI": "",
    "BBJGMKGOCBP": true
  }
]
