[
  {
    "dungeonId": 1146,
    "GDLGGMDMIOO": 9
  },
  {
    "dungeonId": 1138,
    "GDLGGMDMIOO": 6
  },
  {
    "dungeonId": 1144,
    "GDLGGMDMIOO": 9,
    "NNDJLCLCJPD": 1
  },
  {
    "dungeonId": 1137,
    "GDLGGMDMIOO": 18,
    "NNDJLCLCJPD": 1
  },
  {
    "dungeonId": 1141,
    "GDLGGMDMIOO": 3
  },
  {
    "dungeonId": 1142,
    "GDLGGMDMIOO": 3,
    "NNDJLCLCJPD": 1
  },
  {
    "dungeonId": 1143,
    "GDLGGMDMIOO": 4
  },
  {
    "dungeonId": 1139,
    "GDLGGMDMIOO": 22,
    "NNDJLCLCJPD": 1
  }
]
