[
  {
    "id": 1,
    "storyId": 1,
    "MNLNDBPJMPM": 2276398331,
    "GPNIEJEKICJ": 540160387,
    "EPBFNHBKDAL": [680020101, 680020102, 680020103],
    "IJNLPPLOAEL": [],
    "JDDENLGBBGA": "",
    "FFIBEFOHCJK": [],
    "JGLLMIPILIF": 635541311,
    "BBCNEFIKEFK": 1713449171,
    "KHCOBNKNKJB": [],
    "EKEHFHNPCKH": 314777798,
    "DIPFKLBDCPA": 1,
    "JIHEDFADIHD": []
  },
  {
    "id": 2,
    "storyId": 1,
    "MNLNDBPJMPM": 1180440611,
    "GPNIEJEKICJ": 515618483,
    "EPBFNHBKDAL": [680020201, 680020202, 680020203],
    "IJNLPPLOAEL": [],
    "JDDENLGBBGA": "",
    "FFIBEFOHCJK": [],
    "JGLLMIPILIF": 2234880583,
    "BBCNEFIKEFK": 3545314123,
    "KHCOBNKNKJB": [],
    "EKEHFHNPCKH": 391328686,
    "DIPFKLBDCPA": 2,
    "JIHEDFADIHD": []
  },
  {
    "id": 3,
    "storyId": 1,
    "MNLNDBPJMPM": 1878535851,
    "GPNIEJEKICJ": 3052076963,
    "EPBFNHBKDAL": [680020301, 680020302, 680020303],
    "IJNLPPLOAEL": [],
    "JDDENLGBBGA": "",
    "FFIBEFOHCJK": [],
    "JGLLMIPILIF": 2089226111,
    "BBCNEFIKEFK": 2815110187,
    "KHCOBNKNKJB": [],
    "EKEHFHNPCKH": 157127638,
    "DIPFKLBDCPA": 3,
    "JIHEDFADIHD": []
  },
  {
    "id": 4,
    "storyId": 1,
    "MNLNDBPJMPM": 926550811,
    "GPNIEJEKICJ": 3818422051,
    "EPBFNHBKDAL": [680020401, 680020402, 680020403],
    "IJNLPPLOAEL": [],
    "JDDENLGBBGA": "",
    "FFIBEFOHCJK": [],
    "JGLLMIPILIF": 1038587487,
    "BBCNEFIKEFK": 595253251,
    "KHCOBNKNKJB": [],
    "EKEHFHNPCKH": 2662053406,
    "DIPFKLBDCPA": 4,
    "JIHEDFADIHD": []
  },
  {
    "id": 5,
    "storyId": 1,
    "MNLNDBPJMPM": 2473121739,
    "GPNIEJEKICJ": 3187812331,
    "EPBFNHBKDAL": [
      680020501, 680020502, 680020503, 680020504, 680020505, 680020506
    ],
    "IJNLPPLOAEL": [],
    "JDDENLGBBGA": "",
    "FFIBEFOHCJK": [],
    "JGLLMIPILIF": 3636210743,
    "BBCNEFIKEFK": 671082099,
    "KHCOBNKNKJB": [],
    "EKEHFHNPCKH": 772067790,
    "DIPFKLBDCPA": 5,
    "JIHEDFADIHD": []
  },
  {
    "id": 6,
    "storyId": 2,
    "MNLNDBPJMPM": 1911410235,
    "GPNIEJEKICJ": 307932691,
    "EPBFNHBKDAL": [680020601, 680020602],
    "IJNLPPLOAEL": [],
    "JDDENLGBBGA": "",
    "FFIBEFOHCJK": [],
    "JGLLMIPILIF": 3853319815,
    "BBCNEFIKEFK": 2606388835,
    "KHCOBNKNKJB": [],
    "EKEHFHNPCKH": 3699543254,
    "DIPFKLBDCPA": 6,
    "JIHEDFADIHD": []
  },
  {
    "id": 7,
    "storyId": 2,
    "MNLNDBPJMPM": 2673575459,
    "GPNIEJEKICJ": 672189235,
    "EPBFNHBKDAL": [680020701, 680020702],
    "IJNLPPLOAEL": [],
    "JDDENLGBBGA": "",
    "FFIBEFOHCJK": [],
    "JGLLMIPILIF": 158414823,
    "BBCNEFIKEFK": 2508318723,
    "KHCOBNKNKJB": [],
    "EKEHFHNPCKH": 4163317702,
    "DIPFKLBDCPA": 7,
    "JIHEDFADIHD": []
  },
  {
    "id": 8,
    "storyId": 3,
    "MNLNDBPJMPM": 366986587,
    "GPNIEJEKICJ": 75120643,
    "EPBFNHBKDAL": [680020801],
    "IJNLPPLOAEL": [],
    "JDDENLGBBGA": "",
    "FFIBEFOHCJK": [],
    "JGLLMIPILIF": 2674456079,
    "BBCNEFIKEFK": 849019283,
    "KHCOBNKNKJB": [],
    "EKEHFHNPCKH": 1933020654,
    "DIPFKLBDCPA": 8,
    "JIHEDFADIHD": []
  },
  {
    "id": 9,
    "storyId": 3,
    "MNLNDBPJMPM": 1144773803,
    "GPNIEJEKICJ": 713974843,
    "EPBFNHBKDAL": [680020901],
    "IJNLPPLOAEL": [],
    "JDDENLGBBGA": "",
    "FFIBEFOHCJK": [],
    "JGLLMIPILIF": 1079606735,
    "BBCNEFIKEFK": 2561759475,
    "KHCOBNKNKJB": [],
    "EKEHFHNPCKH": 4147648310,
    "DIPFKLBDCPA": 9,
    "JIHEDFADIHD": []
  },
  {
    "id": 10,
    "storyId": 3,
    "MNLNDBPJMPM": 77805499,
    "GPNIEJEKICJ": 3360643939,
    "EPBFNHBKDAL": [680021001],
    "IJNLPPLOAEL": [],
    "JDDENLGBBGA": "",
    "FFIBEFOHCJK": [],
    "JGLLMIPILIF": 1162660135,
    "BBCNEFIKEFK": 1438433963,
    "KHCOBNKNKJB": [],
    "EKEHFHNPCKH": 3872641614,
    "DIPFKLBDCPA": 10,
    "JIHEDFADIHD": []
  },
  {
    "id": 11,
    "storyId": 4,
    "MNLNDBPJMPM": 1998150107,
    "GPNIEJEKICJ": 2556180587,
    "EPBFNHBKDAL": [680021101, 680021102],
    "IJNLPPLOAEL": [],
    "JDDENLGBBGA": "",
    "FFIBEFOHCJK": [],
    "JGLLMIPILIF": 2809458543,
    "BBCNEFIKEFK": 2438534835,
    "KHCOBNKNKJB": [],
    "EKEHFHNPCKH": 271275470,
    "DIPFKLBDCPA": 11,
    "JIHEDFADIHD": []
  },
  {
    "id": 12,
    "storyId": 4,
    "MNLNDBPJMPM": 1592453779,
    "GPNIEJEKICJ": 3037298683,
    "EPBFNHBKDAL": [680021201],
    "IJNLPPLOAEL": [],
    "JDDENLGBBGA": "",
    "FFIBEFOHCJK": [],
    "JGLLMIPILIF": 3676450695,
    "BBCNEFIKEFK": 3401208595,
    "KHCOBNKNKJB": [],
    "EKEHFHNPCKH": 1677744174,
    "DIPFKLBDCPA": 12,
    "JIHEDFADIHD": []
  },
  {
    "id": 13,
    "storyId": 4,
    "MNLNDBPJMPM": 2590509875,
    "GPNIEJEKICJ": 2282060619,
    "EPBFNHBKDAL": [680021301, 680021302],
    "IJNLPPLOAEL": [],
    "JDDENLGBBGA": "",
    "FFIBEFOHCJK": [],
    "JGLLMIPILIF": 3248371839,
    "BBCNEFIKEFK": 1144943499,
    "KHCOBNKNKJB": [],
    "EKEHFHNPCKH": 1136589878,
    "DIPFKLBDCPA": 13,
    "JIHEDFADIHD": []
  },
  {
    "id": 14,
    "storyId": 5,
    "MNLNDBPJMPM": 782569747,
    "GPNIEJEKICJ": 1350475139,
    "EPBFNHBKDAL": [680021401, 680021402, 680021403, 680021404, 680021405],
    "IJNLPPLOAEL": [],
    "JDDENLGBBGA": "",
    "FFIBEFOHCJK": [],
    "JGLLMIPILIF": 2619790927,
    "BBCNEFIKEFK": 2814755123,
    "KHCOBNKNKJB": [],
    "EKEHFHNPCKH": 4255160966,
    "DIPFKLBDCPA": 14,
    "JIHEDFADIHD": []
  },
  {
    "id": 15,
    "storyId": 5,
    "MNLNDBPJMPM": 3327882243,
    "GPNIEJEKICJ": 4186030659,
    "EPBFNHBKDAL": [680021501, 680021502],
    "IJNLPPLOAEL": [],
    "JDDENLGBBGA": "",
    "FFIBEFOHCJK": [],
    "JGLLMIPILIF": 1882289663,
    "BBCNEFIKEFK": 2670219035,
    "KHCOBNKNKJB": [],
    "EKEHFHNPCKH": 208135598,
    "DIPFKLBDCPA": 15,
    "JIHEDFADIHD": []
  },
  {
    "id": 16,
    "storyId": 5,
    "MNLNDBPJMPM": 1200026963,
    "GPNIEJEKICJ": 1720310091,
    "EPBFNHBKDAL": [680021601, 680021602, 680021603, 680021604],
    "IJNLPPLOAEL": [],
    "JDDENLGBBGA": "",
    "FFIBEFOHCJK": [],
    "JGLLMIPILIF": 2570741303,
    "BBCNEFIKEFK": 3899765563,
    "KHCOBNKNKJB": [],
    "EKEHFHNPCKH": 3404762542,
    "DIPFKLBDCPA": 16,
    "JIHEDFADIHD": []
  },
  {
    "id": 17,
    "storyId": 5,
    "MNLNDBPJMPM": 2316112699,
    "GPNIEJEKICJ": 413632235,
    "EPBFNHBKDAL": [680021701, 680021702, 680021703, 680021704],
    "IJNLPPLOAEL": [],
    "JDDENLGBBGA": "",
    "FFIBEFOHCJK": [],
    "JGLLMIPILIF": 847036367,
    "BBCNEFIKEFK": 4244744955,
    "KHCOBNKNKJB": [],
    "EKEHFHNPCKH": 379253222,
    "DIPFKLBDCPA": 17,
    "JIHEDFADIHD": []
  },
  {
    "id": 18,
    "storyId": 5,
    "MNLNDBPJMPM": 2953510251,
    "GPNIEJEKICJ": 2236146251,
    "EPBFNHBKDAL": [680021801, 680021802],
    "IJNLPPLOAEL": [],
    "JDDENLGBBGA": "",
    "FFIBEFOHCJK": [],
    "JGLLMIPILIF": 2163034631,
    "BBCNEFIKEFK": 1971694531,
    "KHCOBNKNKJB": [],
    "EKEHFHNPCKH": 2677954182,
    "DIPFKLBDCPA": 18,
    "JIHEDFADIHD": []
  },
  {
    "id": 19,
    "storyId": 6,
    "MNLNDBPJMPM": 2904668835,
    "GPNIEJEKICJ": 389059123,
    "EPBFNHBKDAL": [680021901, 680021902],
    "IJNLPPLOAEL": [],
    "JDDENLGBBGA": "",
    "FFIBEFOHCJK": [],
    "JGLLMIPILIF": 107826807,
    "BBCNEFIKEFK": 2895619467,
    "KHCOBNKNKJB": [],
    "EKEHFHNPCKH": 541332374,
    "DIPFKLBDCPA": 19,
    "JIHEDFADIHD": []
  },
  {
    "id": 20,
    "storyId": 6,
    "MNLNDBPJMPM": 2088129307,
    "GPNIEJEKICJ": 444245475,
    "EPBFNHBKDAL": [680022001, 680022002, 680022003, 680022004],
    "IJNLPPLOAEL": [],
    "JDDENLGBBGA": "",
    "FFIBEFOHCJK": [],
    "JGLLMIPILIF": 3661197583,
    "BBCNEFIKEFK": 746332763,
    "KHCOBNKNKJB": [],
    "EKEHFHNPCKH": 1761143366,
    "DIPFKLBDCPA": 20,
    "JIHEDFADIHD": []
  },
  {
    "id": 21,
    "storyId": 6,
    "MNLNDBPJMPM": 1253164363,
    "GPNIEJEKICJ": 412983331,
    "EPBFNHBKDAL": [680022101, 680022102, 680022103, 680022104],
    "IJNLPPLOAEL": [],
    "JDDENLGBBGA": "",
    "FFIBEFOHCJK": [],
    "JGLLMIPILIF": 2925625215,
    "BBCNEFIKEFK": 4198145563,
    "KHCOBNKNKJB": [],
    "EKEHFHNPCKH": 3396517142,
    "DIPFKLBDCPA": 21,
    "JIHEDFADIHD": []
  },
  {
    "id": 22,
    "storyId": 6,
    "MNLNDBPJMPM": 298977907,
    "GPNIEJEKICJ": 3127332267,
    "EPBFNHBKDAL": [680022201, 680022202, 680022203],
    "IJNLPPLOAEL": [],
    "JDDENLGBBGA": "",
    "FFIBEFOHCJK": [],
    "JGLLMIPILIF": 1043227655,
    "BBCNEFIKEFK": 1464478283,
    "KHCOBNKNKJB": [],
    "EKEHFHNPCKH": 399865870,
    "DIPFKLBDCPA": 22,
    "JIHEDFADIHD": []
  },
  {
    "id": 23,
    "storyId": 7,
    "MNLNDBPJMPM": 2935013867,
    "GPNIEJEKICJ": 1162589643,
    "EPBFNHBKDAL": [680022301, 680022302, 680022303],
    "IJNLPPLOAEL": [],
    "JDDENLGBBGA": "",
    "FFIBEFOHCJK": [],
    "JGLLMIPILIF": 332712287,
    "BBCNEFIKEFK": 2319856195,
    "KHCOBNKNKJB": [],
    "EKEHFHNPCKH": 2163308598,
    "DIPFKLBDCPA": 23,
    "JIHEDFADIHD": []
  },
  {
    "id": 24,
    "storyId": 7,
    "MNLNDBPJMPM": 347143955,
    "GPNIEJEKICJ": 666537475,
    "EPBFNHBKDAL": [680022401],
    "IJNLPPLOAEL": [],
    "JDDENLGBBGA": "",
    "FFIBEFOHCJK": [],
    "JGLLMIPILIF": 3521567135,
    "BBCNEFIKEFK": 3898552259,
    "KHCOBNKNKJB": [],
    "EKEHFHNPCKH": 4075364542,
    "DIPFKLBDCPA": 24,
    "JIHEDFADIHD": []
  },
  {
    "id": 25,
    "storyId": 7,
    "MNLNDBPJMPM": 215180587,
    "GPNIEJEKICJ": 1218317923,
    "EPBFNHBKDAL": [680022501, 680022502, 680022503],
    "IJNLPPLOAEL": [],
    "JDDENLGBBGA": "",
    "FFIBEFOHCJK": [],
    "JGLLMIPILIF": 2768690359,
    "BBCNEFIKEFK": 1897303659,
    "KHCOBNKNKJB": [],
    "EKEHFHNPCKH": 1960810174,
    "DIPFKLBDCPA": 25,
    "JIHEDFADIHD": []
  },
  {
    "id": 26,
    "storyId": 7,
    "MNLNDBPJMPM": 2920205195,
    "GPNIEJEKICJ": 1578680075,
    "EPBFNHBKDAL": [680022601, 680022602, 680022603],
    "IJNLPPLOAEL": [],
    "JDDENLGBBGA": "",
    "FFIBEFOHCJK": [],
    "JGLLMIPILIF": 3269645303,
    "BBCNEFIKEFK": 4229304771,
    "KHCOBNKNKJB": [],
    "EKEHFHNPCKH": 331708558,
    "DIPFKLBDCPA": 26,
    "JIHEDFADIHD": []
  },
  {
    "id": 27,
    "storyId": 7,
    "MNLNDBPJMPM": 2048330027,
    "GPNIEJEKICJ": 3592203291,
    "EPBFNHBKDAL": [680022701, 680022702],
    "IJNLPPLOAEL": [],
    "JDDENLGBBGA": "",
    "FFIBEFOHCJK": [],
    "JGLLMIPILIF": 2399123727,
    "BBCNEFIKEFK": 2377428275,
    "KHCOBNKNKJB": [],
    "EKEHFHNPCKH": 1980476854,
    "DIPFKLBDCPA": 27,
    "JIHEDFADIHD": []
  },
  {
    "id": 28,
    "storyId": 7,
    "MNLNDBPJMPM": 3453842675,
    "GPNIEJEKICJ": 2447973259,
    "EPBFNHBKDAL": [680022801, 680022802],
    "IJNLPPLOAEL": [],
    "JDDENLGBBGA": "",
    "FFIBEFOHCJK": [],
    "JGLLMIPILIF": 3533119999,
    "BBCNEFIKEFK": 2208852091,
    "KHCOBNKNKJB": [],
    "EKEHFHNPCKH": 4201124966,
    "DIPFKLBDCPA": 28,
    "JIHEDFADIHD": []
  },
  {
    "id": 29,
    "storyId": 7,
    "MNLNDBPJMPM": 3976835763,
    "GPNIEJEKICJ": 3384093595,
    "EPBFNHBKDAL": [680022901],
    "IJNLPPLOAEL": [],
    "JDDENLGBBGA": "",
    "FFIBEFOHCJK": [],
    "JGLLMIPILIF": 889869711,
    "BBCNEFIKEFK": 3932312755,
    "KHCOBNKNKJB": [],
    "EKEHFHNPCKH": 658449046,
    "DIPFKLBDCPA": 29,
    "JIHEDFADIHD": []
  },
  {
    "id": 30,
    "storyId": 7,
    "MNLNDBPJMPM": 493146835,
    "GPNIEJEKICJ": 2383737659,
    "EPBFNHBKDAL": [680023001, 680023002],
    "IJNLPPLOAEL": [],
    "JDDENLGBBGA": "",
    "FFIBEFOHCJK": [],
    "JGLLMIPILIF": 3229134519,
    "BBCNEFIKEFK": 123384451,
    "KHCOBNKNKJB": [],
    "EKEHFHNPCKH": 2634563782,
    "DIPFKLBDCPA": 30,
    "JIHEDFADIHD": []
  },
  {
    "id": 31,
    "storyId": 7,
    "MNLNDBPJMPM": 2546205507,
    "GPNIEJEKICJ": 753890259,
    "EPBFNHBKDAL": [680023102, 680023101],
    "IJNLPPLOAEL": [],
    "JDDENLGBBGA": "",
    "FFIBEFOHCJK": [],
    "JGLLMIPILIF": 1402638327,
    "BBCNEFIKEFK": 4180876875,
    "KHCOBNKNKJB": [],
    "EKEHFHNPCKH": 2793592102,
    "DIPFKLBDCPA": 31,
    "JIHEDFADIHD": []
  },
  {
    "id": 32,
    "storyId": 7,
    "MNLNDBPJMPM": 3606491299,
    "GPNIEJEKICJ": 4190590091,
    "EPBFNHBKDAL": [680023201],
    "IJNLPPLOAEL": [],
    "JDDENLGBBGA": "",
    "FFIBEFOHCJK": [],
    "JGLLMIPILIF": 1956503383,
    "BBCNEFIKEFK": 2378500635,
    "KHCOBNKNKJB": [],
    "EKEHFHNPCKH": 2978520766,
    "DIPFKLBDCPA": 32,
    "JIHEDFADIHD": []
  },
  {
    "id": 33,
    "DLGJHDNPGNB": "ECHO_SHELL_TYPE_SPECIAL_ECHO",
    "MNLNDBPJMPM": 1423264659,
    "GPNIEJEKICJ": 2810350355,
    "EPBFNHBKDAL": [680026801],
    "IJNLPPLOAEL": [],
    "JDDENLGBBGA": "",
    "FFIBEFOHCJK": [],
    "JGLLMIPILIF": 170249815,
    "BBCNEFIKEFK": 39636603,
    "KHCOBNKNKJB": [],
    "CHNGIAMGBFK": 1139,
    "EKEHFHNPCKH": 1766800878,
    "DIPFKLBDCPA": 3,
    "JIHEDFADIHD": [29, 54],
    "GALCEFHNECD": 4007414
  },
  {
    "id": 34,
    "DLGJHDNPGNB": "ECHO_SHELL_TYPE_SPECIAL_ECHO",
    "MNLNDBPJMPM": 553978179,
    "GPNIEJEKICJ": 670407467,
    "EPBFNHBKDAL": [680026901],
    "IJNLPPLOAEL": [],
    "JDDENLGBBGA": "",
    "FFIBEFOHCJK": [],
    "JGLLMIPILIF": 2959064799,
    "BBCNEFIKEFK": 2443720691,
    "KHCOBNKNKJB": [],
    "CHNGIAMGBFK": 1144,
    "EKEHFHNPCKH": 2662421150,
    "DIPFKLBDCPA": 1,
    "JIHEDFADIHD": [13, 48],
    "GALCEFHNECD": 4006712
  },
  {
    "id": 35,
    "DLGJHDNPGNB": "ECHO_SHELL_TYPE_SPECIAL_ECHO",
    "MNLNDBPJMPM": 2588551003,
    "GPNIEJEKICJ": 355344699,
    "EPBFNHBKDAL": [680027101],
    "IJNLPPLOAEL": [],
    "JDDENLGBBGA": "",
    "FFIBEFOHCJK": [],
    "JGLLMIPILIF": 2373223015,
    "BBCNEFIKEFK": 519855147,
    "KHCOBNKNKJB": [],
    "CHNGIAMGBFK": 1137,
    "EKEHFHNPCKH": 3882668878,
    "DIPFKLBDCPA": 2,
    "JIHEDFADIHD": [27, 52],
    "GALCEFHNECD": 4007005
  },
  {
    "id": 36,
    "DLGJHDNPGNB": "ECHO_SHELL_TYPE_SPECIAL_ECHO",
    "MNLNDBPJMPM": 3812452899,
    "GPNIEJEKICJ": 3986909603,
    "EPBFNHBKDAL": [680027001, 680027002],
    "IJNLPPLOAEL": [],
    "JDDENLGBBGA": "",
    "FFIBEFOHCJK": [],
    "JGLLMIPILIF": 941630023,
    "BBCNEFIKEFK": 394103963,
    "KHCOBNKNKJB": [],
    "CHNGIAMGBFK": 1142,
    "EKEHFHNPCKH": 2958357142,
    "DIPFKLBDCPA": 4,
    "JIHEDFADIHD": [17, 50],
    "GALCEFHNECD": 4007201
  },
  {
    "id": 37,
    "DLGJHDNPGNB": "ECHO_SHELL_TYPE_SPECIAL_IMAGE",
    "storyId": 3,
    "MNLNDBPJMPM": 1214430811,
    "GPNIEJEKICJ": 1027547427,
    "EPBFNHBKDAL": [],
    "IJNLPPLOAEL": [1111259, 1111260, 1111261, 1111262],
    "JDDENLGBBGA": "ART/UI/Atlas/EchoShellV2/UI_Activity_EchoShellV2_Pic_01",
    "FFIBEFOHCJK": [],
    "JGLLMIPILIF": 3306433255,
    "BBCNEFIKEFK": 2352779451,
    "KHCOBNKNKJB": [22],
    "EKEHFHNPCKH": 1757507606,
    "DIPFKLBDCPA": 1,
    "JIHEDFADIHD": []
  },
  {
    "id": 38,
    "DLGJHDNPGNB": "ECHO_SHELL_TYPE_SPECIAL_IMAGE",
    "storyId": 3,
    "MNLNDBPJMPM": 500986107,
    "GPNIEJEKICJ": 141915131,
    "EPBFNHBKDAL": [],
    "IJNLPPLOAEL": [1111263, 1111264, 1111265],
    "JDDENLGBBGA": "ART/UI/Atlas/EchoShellV2/UI_Activity_EchoShellV2_Pic_02",
    "FFIBEFOHCJK": [],
    "JGLLMIPILIF": 3267593911,
    "BBCNEFIKEFK": 1665616107,
    "KHCOBNKNKJB": [15, 16],
    "EKEHFHNPCKH": 2305911438,
    "DIPFKLBDCPA": 2,
    "JIHEDFADIHD": []
  },
  {
    "id": 39,
    "DLGJHDNPGNB": "ECHO_SHELL_TYPE_NORMAL_IMAGE",
    "storyId": 3,
    "MNLNDBPJMPM": 512751715,
    "GPNIEJEKICJ": 1147049051,
    "EPBFNHBKDAL": [],
    "IJNLPPLOAEL": [1111266, 1111267, 1111268, 1111269, 1111270],
    "JDDENLGBBGA": "ART/UI/Atlas/EchoShellV2/UI_Activity_EchoShellV2_Pic_03",
    "HEKODNLGKCG": 2801014,
    "FFIBEFOHCJK": [131.0417938232422, 121.09429931640625, -171.71620178222656],
    "JGLLMIPILIF": 2390246399,
    "BBCNEFIKEFK": 2092030715,
    "KHCOBNKNKJB": [],
    "EKEHFHNPCKH": 1759703638,
    "DIPFKLBDCPA": 3,
    "JIHEDFADIHD": []
  },
  {
    "id": 40,
    "DLGJHDNPGNB": "ECHO_SHELL_TYPE_SPECIAL_IMAGE",
    "storyId": 3,
    "MNLNDBPJMPM": 1402805739,
    "GPNIEJEKICJ": 1306642235,
    "EPBFNHBKDAL": [],
    "IJNLPPLOAEL": [1111271, 1111272, 1111273, 1111274, 1111275],
    "JDDENLGBBGA": "ART/UI/Atlas/EchoShellV2/UI_Activity_EchoShellV2_Pic_04",
    "FFIBEFOHCJK": [],
    "JGLLMIPILIF": 1016394535,
    "BBCNEFIKEFK": 275272259,
    "KHCOBNKNKJB": [18, 19],
    "EKEHFHNPCKH": 4130831142,
    "DIPFKLBDCPA": 4,
    "JIHEDFADIHD": []
  },
  {
    "id": 41,
    "DLGJHDNPGNB": "ECHO_SHELL_TYPE_NORMAL_IMAGE",
    "storyId": 1,
    "MNLNDBPJMPM": 4263520195,
    "GPNIEJEKICJ": 1379975707,
    "EPBFNHBKDAL": [],
    "IJNLPPLOAEL": [1111276, 1111277],
    "JDDENLGBBGA": "ART/UI/Atlas/EchoShellV2/UI_Activity_EchoShellV2_Pic_05",
    "HEKODNLGKCG": 2801001,
    "FFIBEFOHCJK": [381.4397888183594, 123.33540344238281, -619.973388671875],
    "JGLLMIPILIF": 536785479,
    "BBCNEFIKEFK": 1928128275,
    "KHCOBNKNKJB": [],
    "EKEHFHNPCKH": 2706834742,
    "DIPFKLBDCPA": 3,
    "JIHEDFADIHD": []
  },
  {
    "id": 42,
    "DLGJHDNPGNB": "ECHO_SHELL_TYPE_NORMAL_IMAGE",
    "storyId": 1,
    "MNLNDBPJMPM": 2327155147,
    "GPNIEJEKICJ": 2416100635,
    "EPBFNHBKDAL": [],
    "IJNLPPLOAEL": [1111278],
    "JDDENLGBBGA": "ART/UI/Atlas/EchoShellV2/UI_Activity_EchoShellV2_Pic_06",
    "HEKODNLGKCG": 2801002,
    "FFIBEFOHCJK": [302.0733947753906, 121.89559936523438, 153.73460388183594],
    "JGLLMIPILIF": 4182735487,
    "BBCNEFIKEFK": 819838755,
    "KHCOBNKNKJB": [],
    "EKEHFHNPCKH": 2578016390,
    "DIPFKLBDCPA": 7,
    "JIHEDFADIHD": []
  },
  {
    "id": 43,
    "DLGJHDNPGNB": "ECHO_SHELL_TYPE_NORMAL_IMAGE",
    "storyId": 2,
    "MNLNDBPJMPM": 274239619,
    "GPNIEJEKICJ": 1532067163,
    "EPBFNHBKDAL": [],
    "IJNLPPLOAEL": [1111279, 1111280],
    "JDDENLGBBGA": "ART/UI/Atlas/EchoShellV2/UI_Activity_EchoShellV2_Pic_07",
    "HEKODNLGKCG": 2801003,
    "FFIBEFOHCJK": [-345.783203125, 232.3238983154297, -648.706787109375],
    "JGLLMIPILIF": 3500118423,
    "BBCNEFIKEFK": 3150826627,
    "KHCOBNKNKJB": [],
    "EKEHFHNPCKH": 347918710,
    "DIPFKLBDCPA": 2,
    "JIHEDFADIHD": []
  },
  {
    "id": 44,
    "DLGJHDNPGNB": "ECHO_SHELL_TYPE_NORMAL_IMAGE",
    "storyId": 2,
    "MNLNDBPJMPM": 2429546491,
    "GPNIEJEKICJ": 3136129203,
    "EPBFNHBKDAL": [],
    "IJNLPPLOAEL": [1111281, 1111282],
    "JDDENLGBBGA": "ART/UI/Atlas/EchoShellV2/UI_Activity_EchoShellV2_Pic_08",
    "HEKODNLGKCG": 2801004,
    "FFIBEFOHCJK": [-709.109619140625, 168.10069274902344, 7.126842975616455],
    "JGLLMIPILIF": 2200191487,
    "BBCNEFIKEFK": 3344105547,
    "KHCOBNKNKJB": [22],
    "EKEHFHNPCKH": 3084844406,
    "DIPFKLBDCPA": 4,
    "JIHEDFADIHD": []
  },
  {
    "id": 45,
    "DLGJHDNPGNB": "ECHO_SHELL_TYPE_SPECIAL_ECHO",
    "storyId": 1,
    "MNLNDBPJMPM": 1737664787,
    "GPNIEJEKICJ": 397339219,
    "EPBFNHBKDAL": [680026001],
    "IJNLPPLOAEL": [],
    "JDDENLGBBGA": "",
    "HEKODNLGKCG": 2801005,
    "FFIBEFOHCJK": [584.8582153320312, 125.36029815673828, -402.5116882324219],
    "JGLLMIPILIF": 1272619967,
    "BBCNEFIKEFK": 2580204563,
    "KHCOBNKNKJB": [],
    "EKEHFHNPCKH": 1098259654,
    "DIPFKLBDCPA": 1,
    "JIHEDFADIHD": []
  },
  {
    "id": 46,
    "DLGJHDNPGNB": "ECHO_SHELL_TYPE_SPECIAL_ECHO",
    "storyId": 1,
    "MNLNDBPJMPM": 3454660811,
    "GPNIEJEKICJ": 948197643,
    "EPBFNHBKDAL": [680026101, 680026102],
    "IJNLPPLOAEL": [],
    "JDDENLGBBGA": "",
    "HEKODNLGKCG": 2801006,
    "FFIBEFOHCJK": [629.161376953125, 223.25669860839844, -478.0609130859375],
    "JGLLMIPILIF": 1569243863,
    "BBCNEFIKEFK": 1311732419,
    "KHCOBNKNKJB": [],
    "EKEHFHNPCKH": 1956283270,
    "DIPFKLBDCPA": 2,
    "JIHEDFADIHD": []
  },
  {
    "id": 47,
    "DLGJHDNPGNB": "ECHO_SHELL_TYPE_SPECIAL_ECHO",
    "storyId": 2,
    "MNLNDBPJMPM": 1363255139,
    "GPNIEJEKICJ": 1152506371,
    "EPBFNHBKDAL": [680026201, 680026202, 680026203],
    "IJNLPPLOAEL": [],
    "JDDENLGBBGA": "",
    "HEKODNLGKCG": 2801007,
    "FFIBEFOHCJK": [-389.5126037597656, 120.25389862060547, -540.6815185546875],
    "JGLLMIPILIF": 1880026551,
    "BBCNEFIKEFK": 1393023475,
    "KHCOBNKNKJB": [],
    "EKEHFHNPCKH": 574673230,
    "DIPFKLBDCPA": 1,
    "JIHEDFADIHD": []
  },
  {
    "id": 48,
    "DLGJHDNPGNB": "ECHO_SHELL_TYPE_SPECIAL_ECHO",
    "storyId": 1,
    "MNLNDBPJMPM": 1247349547,
    "GPNIEJEKICJ": 629644563,
    "EPBFNHBKDAL": [680026301, 680026302],
    "IJNLPPLOAEL": [],
    "JDDENLGBBGA": "",
    "HEKODNLGKCG": 2801008,
    "FFIBEFOHCJK": [272.7839050292969, 121.71219635009766, 384.7550048828125],
    "JGLLMIPILIF": 1078688895,
    "BBCNEFIKEFK": 2515992115,
    "KHCOBNKNKJB": [],
    "EKEHFHNPCKH": 571914942,
    "DIPFKLBDCPA": 4,
    "JIHEDFADIHD": []
  },
  {
    "id": 49,
    "DLGJHDNPGNB": "ECHO_SHELL_TYPE_SPECIAL_ECHO",
    "storyId": 2,
    "MNLNDBPJMPM": 1994137603,
    "GPNIEJEKICJ": 172139635,
    "EPBFNHBKDAL": [680026401, 680026402],
    "IJNLPPLOAEL": [],
    "JDDENLGBBGA": "",
    "HEKODNLGKCG": 2801009,
    "FFIBEFOHCJK": [
      -410.20111083984375, 120.19779968261719, -665.0222778320312
    ],
    "JGLLMIPILIF": 2820167567,
    "BBCNEFIKEFK": 2714404419,
    "KHCOBNKNKJB": [],
    "EKEHFHNPCKH": 1294032598,
    "DIPFKLBDCPA": 3,
    "JIHEDFADIHD": []
  },
  {
    "id": 50,
    "DLGJHDNPGNB": "ECHO_SHELL_TYPE_SPECIAL_ECHO",
    "storyId": 1,
    "MNLNDBPJMPM": 2939180699,
    "GPNIEJEKICJ": 14584899,
    "EPBFNHBKDAL": [680026501, 680026502, 680026503, 680026504],
    "IJNLPPLOAEL": [],
    "JDDENLGBBGA": "",
    "HEKODNLGKCG": 2801010,
    "FFIBEFOHCJK": [234.2592010498047, 126.32689666748047, 363.20361328125],
    "JGLLMIPILIF": 700907431,
    "BBCNEFIKEFK": 480792187,
    "KHCOBNKNKJB": [],
    "EKEHFHNPCKH": 4042198574,
    "DIPFKLBDCPA": 5,
    "JIHEDFADIHD": []
  },
  {
    "id": 51,
    "DLGJHDNPGNB": "ECHO_SHELL_TYPE_SPECIAL_ECHO",
    "storyId": 1,
    "MNLNDBPJMPM": 971490483,
    "GPNIEJEKICJ": 1172296763,
    "EPBFNHBKDAL": [680026601],
    "IJNLPPLOAEL": [],
    "JDDENLGBBGA": "",
    "HEKODNLGKCG": 2801011,
    "FFIBEFOHCJK": [264.9364929199219, 120.34230041503906, 262.14739990234375],
    "JGLLMIPILIF": 1102815295,
    "BBCNEFIKEFK": 3551823411,
    "KHCOBNKNKJB": [],
    "EKEHFHNPCKH": 2923859094,
    "DIPFKLBDCPA": 6,
    "JIHEDFADIHD": []
  },
  {
    "id": 52,
    "DLGJHDNPGNB": "ECHO_SHELL_TYPE_SPECIAL_ECHO",
    "storyId": 2,
    "MNLNDBPJMPM": 2746276115,
    "GPNIEJEKICJ": 461898931,
    "EPBFNHBKDAL": [680026701, 680026702, 680026703],
    "IJNLPPLOAEL": [],
    "JDDENLGBBGA": "",
    "HEKODNLGKCG": 2801012,
    "FFIBEFOHCJK": [-727.980224609375, 123.96739959716797, 22.00473976135254],
    "JGLLMIPILIF": 3772296479,
    "BBCNEFIKEFK": 3437815395,
    "KHCOBNKNKJB": [22],
    "EKEHFHNPCKH": 1178706734,
    "DIPFKLBDCPA": 5,
    "JIHEDFADIHD": []
  },
  {
    "id": 53,
    "DLGJHDNPGNB": "ECHO_SHELL_TYPE_NORMAL_INTERACT",
    "storyId": 3,
    "MNLNDBPJMPM": 3587443355,
    "GPNIEJEKICJ": 1053833123,
    "EPBFNHBKDAL": [],
    "IJNLPPLOAEL": [],
    "JDDENLGBBGA": "ART/UI/Atlas/EchoShellV2/UI_Activity_EchoShellV2_Pic_09",
    "HEKODNLGKCG": 2801013,
    "FFIBEFOHCJK": [131.0417938232422, 121.09429931640625, -171.71620178222656],
    "JGLLMIPILIF": 2737328455,
    "BBCNEFIKEFK": 535474635,
    "KHCOBNKNKJB": [],
    "EKEHFHNPCKH": 4090226982,
    "DIPFKLBDCPA": 5,
    "JIHEDFADIHD": []
  }
]
