[
  {
    "id": 200900,
    "HKODKMIGFHC": 10.0
  },
  {
    "id": 200901,
    "HKODKMIGFHC": 10.0,
    "cityId": 1,
    "DDIFGMBHBAD": 0.20000000298023224
  },
  {
    "id": 200902,
    "HKODKMIGFHC": 10.0,
    "cityId": 2,
    "DDIFGMBHBAD": 0.20000000298023224
  },
  {
    "id": 200903,
    "HKODKMIGFHC": 10.0,
    "cityId": 3,
    "DDIFGMBHBAD": 0.20000000298023224
  },
  {
    "id": 200904,
    "HKODKMIGFHC": 10.0,
    "HKDHEOFJAEA": 2.0,
    "LCDEOAJHFLN": 14.0
  },
  {
    "id": 200905,
    "HKODKMIGFHC": 10.0,
    "cityId": 4,
    "DDIFGMBHBAD": 0.20000000298023224
  }
]
