[
  {
    "id": 111023,
    "JKLJIONLGCF": [
      {
        "KABNPEOHFOJ": 9201,
        "weight": 1.0,
        "OFBMCIBJIDF": 1.0
      },
      {
        "KABNPEOHFOJ": 9200,
        "OFBMCIBJIDF": 1.0
      },
      {},
      {}
    ],
    "HGOPOANMGNN": 2,
    "HEBDEDIANEF": []
  },
  {
    "id": 111024,
    "JKLJIONLGCF": [
      {
        "KABNPEOHFOJ": 9202,
        "weight": 1.0,
        "OFBMCIBJIDF": 1.0
      },
      {
        "KABNPEOHFOJ": 9200,
        "OFBMCIBJIDF": 1.0
      },
      {},
      {}
    ],
    "HGOPOANMGNN": 3,
    "HEBDEDIANEF": []
  },
  {
    "id": 111025,
    "JKLJIONLGCF": [
      {
        "KABNPEOHFOJ": 9203,
        "weight": 1.0,
        "OFBMCIBJIDF": 1.0
      },
      {
        "KABNPEOHFOJ": 9200,
        "OFBMCIBJIDF": 1.0
      },
      {},
      {}
    ],
    "HGOPOANMGNN": 4,
    "HEBDEDIANEF": []
  },
  {
    "id": 111026,
    "JKLJIONLGCF": [
      {
        "KABNPEOHFOJ": 9204,
        "weight": 1.0,
        "OFBMCIBJIDF": 1.0
      },
      {
        "KABNPEOHFOJ": 9205,
        "weight": 1.0,
        "OFBMCIBJIDF": 1.0
      },
      {
        "KABNPEOHFOJ": 9200,
        "OFBMCIBJIDF": 1.0
      },
      {
        "KABNPEOHFOJ": 9206,
        "weight": 1.0,
        "OFBMCIBJIDF": 1.0
      }
    ],
    "HGOPOANMGNN": 5,
    "HEBDEDIANEF": []
  },
  {
    "id": 111027,
    "JKLJIONLGCF": [
      {
        "KABNPEOHFOJ": 9200,
        "weight": 1.0,
        "OFBMCIBJIDF": 1.0
      },
      {},
      {},
      {}
    ],
    "HGOPOANMGNN": 1,
    "HEBDEDIANEF": [10007]
  },
  {
    "id": 111028,
    "JKLJIONLGCF": [
      {
        "KABNPEOHFOJ": 9207,
        "weight": 1.0,
        "OFBMCIBJIDF": 1.0
      },
      {
        "KABNPEOHFOJ": 9200,
        "OFBMCIBJIDF": 1.0
      },
      {
        "KABNPEOHFOJ": 9208,
        "weight": 1.0,
        "OFBMCIBJIDF": 1.0
      },
      {}
    ],
    "HGOPOANMGNN": 6,
    "HEBDEDIANEF": []
  }
]
