[
  {
    "activityId": 2017,
    "IKLGIHCPFFH": 6,
    "KFMDKGOPLAM": 3,
    "DNEHHHADOHM": 4,
    "JMIEGMKENKJ": 4008109,
    "PIALKJAEHLA": 4008113,
    "KJNNIFIKLOE": 4008119,
    "IEOPJILFFEA": "SGV_Fungus_Burst_Count",
    "ALMLCAKOIMC": ["ElementFrozen", "Struggle", "ElementPetrifaction"],
    "ICBPHBLKFMH": "BurstUnavailable",
    "KLLEOLGNNBO": 682,
    "FEJDMNEFABC": 704,
    "EDFAILNGCIM": [1],
    "IIKMJPCAJKN": [1, 3, 4, 6],
    "ACOBJJDLCEF": 1,
    "JIECAAPEIGJ": 3,
    "MCBBNNHPHDP": 70350462,
    "GPPABHIAIKN": 12031,
    "LJGPKKIMFEI": 12045,
    "DNOBJFDPPJI": 12033,
    "ICAHMFPMLEG": 12034,
    "POLNDPFBJFD": 12035,
    "EKHKELPJJGE": 12042,
    "HMIPJEFNIIF": 4008119,
    "BKIDLGLGPGI": 4008108,
    "BKGPOAPBMAJ": 40085,
    "JPKPKIDMBKF": 4008603,
    "DPHAKEEOGAE": 1
  }
]
