[
  {
    "levelId": 1,
    "dayIndex": 1,
    "dungeonId": 3063,
    "galleryId": 30038,
    "NIKGMEMLMHL": [1, 7],
    "HKOAIPMIHOO": [1, 7],
    "LJHCBCDKFPG": [3, 4],
    "levelNameTextMapHash": 1504149465,
    "levelDescTextMapHash": 1212529662,
    "NNFKGOCOFFO": 3221162666,
    "LLAFFNMJGMC": 3250012767,
    "KGDNKMFFCMD": 2809079037,
    "DIILJNOFKJJ": "ART/UI/Atlas/Activity/FungusFighterV2/UI_Img_FungusFighterV2_Pic_01",
    "watcherList": [15120044],
    "NPIHNIEEPAK": 4.0,
    "MDNMAOGDFFB": true,
    "BGDOOKFOKDL": 7350704
  },
  {
    "levelId": 2,
    "dayIndex": 1,
    "dungeonId": 3053,
    "galleryId": 30031,
    "NIKGMEMLMHL": [1, 7, 3, 4, 9],
    "HKOAIPMIHOO": [1, 9],
    "LJHCBCDKFPG": [7, 1, 2],
    "levelNameTextMapHash": 2862878969,
    "levelDescTextMapHash": 3406849006,
    "NNFKGOCOFFO": 1160329338,
    "LLAFFNMJGMC": 1312222471,
    "KGDNKMFFCMD": 2053192397,
    "DIILJNOFKJJ": "ART/UI/Atlas/Activity/FungusFighterV2/UI_Img_FungusFighterV2_Pic_02",
    "watcherList": [15120023, 15120024, 15120025],
    "NPIHNIEEPAK": 4.0
  },
  {
    "levelId": 3,
    "dayIndex": 2,
    "dungeonId": 3054,
    "galleryId": 30032,
    "NIKGMEMLMHL": [1, 7, 3, 4, 9, 6],
    "HKOAIPMIHOO": [6, 7],
    "LJHCBCDKFPG": [7, 10, 2, 4],
    "levelNameTextMapHash": 3722270649,
    "levelDescTextMapHash": 1234562366,
    "NNFKGOCOFFO": 969432154,
    "LLAFFNMJGMC": 2016228831,
    "KGDNKMFFCMD": 3838241485,
    "DIILJNOFKJJ": "ART/UI/Atlas/Activity/FungusFighterV2/UI_Img_FungusFighterV2_Pic_03",
    "watcherList": [15120026, 15120027, 15120028],
    "NPIHNIEEPAK": 4.0
  },
  {
    "levelId": 4,
    "dayIndex": 3,
    "dungeonId": 3055,
    "galleryId": 30033,
    "NIKGMEMLMHL": [1, 7, 3, 4, 9, 6, 5, 2],
    "HKOAIPMIHOO": [2, 5],
    "LJHCBCDKFPG": [7, 8, 2, 3],
    "levelNameTextMapHash": 1138657513,
    "levelDescTextMapHash": 3103657878,
    "NNFKGOCOFFO": 2137091330,
    "LLAFFNMJGMC": 2050022575,
    "KGDNKMFFCMD": 4088546277,
    "DIILJNOFKJJ": "ART/UI/Atlas/Activity/FungusFighterV2/UI_Img_FungusFighterV2_Pic_04",
    "watcherList": [15120029, 15120030, 15120031],
    "NPIHNIEEPAK": 4.0
  },
  {
    "levelId": 5,
    "dayIndex": 4,
    "dungeonId": 3056,
    "galleryId": 30034,
    "NIKGMEMLMHL": [1, 7, 3, 4, 9, 6, 5, 2, 8, 10],
    "HKOAIPMIHOO": [],
    "LJHCBCDKFPG": [8, 9, 3, 5, 12],
    "levelNameTextMapHash": 2934853233,
    "levelDescTextMapHash": 3441443838,
    "NNFKGOCOFFO": 603156250,
    "LLAFFNMJGMC": 2851458271,
    "KGDNKMFFCMD": 3857845685,
    "DIILJNOFKJJ": "ART/UI/Atlas/Activity/FungusFighterV2/UI_Img_FungusFighterV2_Pic_05",
    "watcherList": [15120032, 15120033, 15120034],
    "NPIHNIEEPAK": 4.0,
    "BKPMDFJBJFE": true
  },
  {
    "levelId": 6,
    "dayIndex": 5,
    "dungeonId": 3057,
    "galleryId": 30035,
    "NIKGMEMLMHL": [1, 7, 3, 4, 9, 6, 5, 2, 8, 10],
    "HKOAIPMIHOO": [],
    "LJHCBCDKFPG": [9, 2, 3, 4, 6, 14, 15],
    "levelNameTextMapHash": 2713042081,
    "levelDescTextMapHash": 3083748454,
    "NNFKGOCOFFO": 3318855090,
    "LLAFFNMJGMC": 593867503,
    "KGDNKMFFCMD": 1021422117,
    "DIILJNOFKJJ": "ART/UI/Atlas/Activity/FungusFighterV2/UI_Img_FungusFighterV2_Pic_06",
    "watcherList": [15120035, 15120036, 15120037],
    "NPIHNIEEPAK": 4.0,
    "BKPMDFJBJFE": true
  },
  {
    "levelId": 7,
    "dayIndex": 6,
    "dungeonId": 3058,
    "galleryId": 30036,
    "NIKGMEMLMHL": [1, 7, 3, 4, 9, 6, 5, 2, 8, 10],
    "HKOAIPMIHOO": [],
    "LJHCBCDKFPG": [11, 1, 2, 3, 4, 5, 16],
    "levelNameTextMapHash": 1132321625,
    "levelDescTextMapHash": 2143081902,
    "NNFKGOCOFFO": 2939098242,
    "LLAFFNMJGMC": 2948740623,
    "KGDNKMFFCMD": 1208333205,
    "DIILJNOFKJJ": "ART/UI/Atlas/Activity/FungusFighterV2/UI_Img_FungusFighterV2_Pic_07",
    "watcherList": [15120038, 15120039, 15120040],
    "NPIHNIEEPAK": 4.0,
    "BKPMDFJBJFE": true
  },
  {
    "levelId": 8,
    "dayIndex": 7,
    "dungeonId": 3059,
    "galleryId": 30037,
    "NIKGMEMLMHL": [1, 7, 3, 4, 9, 6, 5, 2, 8, 10],
    "HKOAIPMIHOO": [],
    "LJHCBCDKFPG": [7, 8, 9, 10, 11, 2, 5, 6, 13],
    "levelNameTextMapHash": 127702681,
    "levelDescTextMapHash": 4092464518,
    "NNFKGOCOFFO": 1769103218,
    "LLAFFNMJGMC": 917482503,
    "KGDNKMFFCMD": 2329738653,
    "DIILJNOFKJJ": "ART/UI/Atlas/Activity/FungusFighterV2/UI_Img_FungusFighterV2_Pic_08",
    "watcherList": [15120041, 15120042, 15120043],
    "NPIHNIEEPAK": 4.0,
    "BKPMDFJBJFE": true
  }
]
