[
  {
    "Id": 101,
    "cardType": "GCG_CARD_CHARACTER",
    "CLDIGBBIIHF": "FRIENDLY",
    "MELCHLNCNNE": ["GCG_TAG_NONE", "GCG_TAG_NONE", "GCG_TAG_NONE"],
    "OOBKGCCFACK": ["GCG_TAG_NONE", "GCG_TAG_NONE"],
    "EBCIJENNHAP": [
      {
        "type": "IS_ALIVE_CHARACTER",
        "value": 1
      },
      {
        "type": "NOT_HAS_MODIFY_STATE",
        "value": 303300
      },
      {},
      {}
    ],
    "EJAJAJBIPGO": [
      {
        "type": "ONSTAGE",
        "value": 1
      },
      {}
    ],
    "GGKEKHDAEFO": [
      {
        "type": "CHARACTER_ORDER",
        "DFHHEDCIDFK": true
      },
      {}
    ],
    "GGGBONNICJH": 1938774220,
    "HAJJNJOGEEP": "TALENT"
  },
  {
    "Id": 102,
    "cardType": "GCG_CARD_CHARACTER",
    "CLDIGBBIIHF": "FRIENDLY",
    "MELCHLNCNNE": ["GCG_TAG_NONE", "GCG_TAG_NONE", "GCG_TAG_NONE"],
    "OOBKGCCFACK": ["GCG_TAG_NONE", "GCG_TAG_NONE"],
    "EBCIJENNHAP": [
      {
        "type": "IS_ALIVE_CHARACTER",
        "value": 1
      },
      {
        "type": "ONSTAGE",
        "value": 1
      },
      {},
      {}
    ],
    "EJAJAJBIPGO": [{}, {}],
    "GGKEKHDAEFO": [{}, {}],
    "GGGBONNICJH": 2327303172,
    "HAJJNJOGEEP": "TALENT"
  },
  {
    "Id": 103,
    "cardType": "GCG_CARD_CHARACTER",
    "CLDIGBBIIHF": "FRIENDLY",
    "MELCHLNCNNE": ["GCG_TAG_NONE", "GCG_TAG_NONE", "GCG_TAG_NONE"],
    "OOBKGCCFACK": ["GCG_TAG_NONE", "GCG_TAG_NONE"],
    "EBCIJENNHAP": [
      {
        "type": "IS_ALIVE_CHARACTER",
        "value": 1
      },
      {
        "type": "NOT_HAS_MODIFY_STATE",
        "value": 303300
      },
      {
        "type": "CHARACTER_HURT_MIN",
        "value": 1
      },
      {}
    ],
    "EJAJAJBIPGO": [{}, {}],
    "GGKEKHDAEFO": [
      {
        "type": "HP"
      },
      {}
    ],
    "GGGBONNICJH": 1150336436,
    "HAJJNJOGEEP": "HEALING"
  },
  {
    "Id": 104,
    "cardType": "GCG_CARD_CHARACTER",
    "CLDIGBBIIHF": "FRIENDLY",
    "MELCHLNCNNE": ["GCG_TAG_NONE", "GCG_TAG_NONE", "GCG_TAG_NONE"],
    "OOBKGCCFACK": ["GCG_TAG_NONE", "GCG_TAG_NONE"],
    "EBCIJENNHAP": [
      {
        "type": "IS_ALIVE_CHARACTER",
        "value": 1
      },
      {
        "type": "ONSTAGE"
      },
      {},
      {}
    ],
    "EJAJAJBIPGO": [{}, {}],
    "GGKEKHDAEFO": [{}, {}],
    "GGGBONNICJH": 408186852,
    "HAJJNJOGEEP": "TALENT"
  },
  {
    "Id": 105,
    "cardType": "GCG_CARD_CHARACTER",
    "CLDIGBBIIHF": "FRIENDLY",
    "MELCHLNCNNE": ["GCG_TAG_NONE", "GCG_TAG_NONE", "GCG_TAG_NONE"],
    "OOBKGCCFACK": ["GCG_TAG_NONE", "GCG_TAG_NONE"],
    "EBCIJENNHAP": [
      {
        "type": "IS_ALIVE_CHARACTER"
      },
      {},
      {},
      {}
    ],
    "EJAJAJBIPGO": [{}, {}],
    "GGKEKHDAEFO": [{}, {}],
    "GGGBONNICJH": 2365195396,
    "HAJJNJOGEEP": "HEALING"
  },
  {
    "Id": 106,
    "cardType": "GCG_CARD_CHARACTER",
    "CLDIGBBIIHF": "FRIENDLY",
    "MELCHLNCNNE": ["GCG_TAG_NONE", "GCG_TAG_NONE", "GCG_TAG_NONE"],
    "OOBKGCCFACK": ["GCG_TAG_NONE", "GCG_TAG_NONE"],
    "EBCIJENNHAP": [
      {
        "type": "IS_ALIVE_CHARACTER",
        "value": 1
      },
      {
        "type": "ONSTAGE",
        "value": 1
      },
      {},
      {}
    ],
    "EJAJAJBIPGO": [
      {
        "type": "CHARACTER_NOT_CHARGED_MIN",
        "value": 1
      },
      {
        "type": "CHARACTER_NOT_CHARGED_MAX",
        "value": 1
      }
    ],
    "GGKEKHDAEFO": [{}, {}],
    "GGGBONNICJH": 4178679012,
    "HAJJNJOGEEP": "TALENT"
  },
  {
    "Id": 107,
    "cardType": "GCG_CARD_CHARACTER",
    "CLDIGBBIIHF": "FRIENDLY",
    "MELCHLNCNNE": ["GCG_TAG_NONE", "GCG_TAG_NONE", "GCG_TAG_NONE"],
    "OOBKGCCFACK": ["GCG_TAG_NONE", "GCG_TAG_NONE"],
    "EBCIJENNHAP": [
      {
        "type": "IS_ALIVE_CHARACTER",
        "value": 1
      },
      {
        "type": "ONSTAGE",
        "value": 1
      },
      {},
      {}
    ],
    "EJAJAJBIPGO": [
      {
        "type": "CHARACTER_NOT_CHARGED_MIN",
        "value": 1
      },
      {
        "type": "CHARACTER_NOT_CHARGED_MAX",
        "value": 2
      }
    ],
    "GGKEKHDAEFO": [{}, {}],
    "GGGBONNICJH": 1018474292,
    "HAJJNJOGEEP": "TALENT"
  },
  {
    "Id": 108,
    "cardType": "GCG_CARD_CHARACTER",
    "CLDIGBBIIHF": "FRIENDLY",
    "MELCHLNCNNE": ["GCG_TAG_NONE", "GCG_TAG_NONE", "GCG_TAG_NONE"],
    "OOBKGCCFACK": ["GCG_TAG_NONE", "GCG_TAG_NONE"],
    "EBCIJENNHAP": [
      {
        "type": "IS_ALIVE_CHARACTER",
        "value": 1
      },
      {
        "type": "ONSTAGE",
        "value": 1
      },
      {
        "type": "NOT_HAS_MODIFY_STATE_WITH_TAG",
        "value": 5
      },
      {}
    ],
    "EJAJAJBIPGO": [{}, {}],
    "GGKEKHDAEFO": [{}, {}],
    "GGGBONNICJH": 1315855148,
    "HAJJNJOGEEP": "TALENT"
  },
  {
    "Id": 110,
    "cardType": "GCG_CARD_CHARACTER",
    "CLDIGBBIIHF": "FRIENDLY",
    "MELCHLNCNNE": ["GCG_TAG_NONE", "GCG_TAG_NONE", "GCG_TAG_NONE"],
    "OOBKGCCFACK": ["GCG_TAG_NONE", "GCG_TAG_NONE"],
    "EBCIJENNHAP": [
      {
        "type": "IS_ALIVE_CHARACTER",
        "value": 1
      },
      {},
      {},
      {}
    ],
    "EJAJAJBIPGO": [{}, {}],
    "GGKEKHDAEFO": [
      {
        "type": "CHARACTER_ORDER",
        "DFHHEDCIDFK": true
      },
      {}
    ],
    "GGGBONNICJH": 343151572,
    "HAJJNJOGEEP": "RELIC"
  },
  {
    "Id": 111,
    "cardType": "GCG_CARD_CHARACTER",
    "CLDIGBBIIHF": "FRIENDLY",
    "MELCHLNCNNE": ["GCG_TAG_WEAPON_CATALYST", "GCG_TAG_NONE", "GCG_TAG_NONE"],
    "OOBKGCCFACK": ["GCG_TAG_NONE", "GCG_TAG_NONE"],
    "EBCIJENNHAP": [
      {
        "type": "IS_ALIVE_CHARACTER",
        "value": 1
      },
      {},
      {},
      {}
    ],
    "EJAJAJBIPGO": [{}, {}],
    "GGKEKHDAEFO": [
      {
        "type": "CHARACTER_ORDER",
        "DFHHEDCIDFK": true
      },
      {}
    ],
    "GGGBONNICJH": 3364576692,
    "HAJJNJOGEEP": "WEAPON"
  },
  {
    "Id": 112,
    "cardType": "GCG_CARD_CHARACTER",
    "CLDIGBBIIHF": "FRIENDLY",
    "MELCHLNCNNE": ["GCG_TAG_WEAPON_BOW", "GCG_TAG_NONE", "GCG_TAG_NONE"],
    "OOBKGCCFACK": ["GCG_TAG_NONE", "GCG_TAG_NONE"],
    "EBCIJENNHAP": [
      {
        "type": "IS_ALIVE_CHARACTER",
        "value": 1
      },
      {},
      {},
      {}
    ],
    "EJAJAJBIPGO": [{}, {}],
    "GGKEKHDAEFO": [
      {
        "type": "CHARACTER_ORDER",
        "DFHHEDCIDFK": true
      },
      {}
    ],
    "GGGBONNICJH": 2633066588,
    "HAJJNJOGEEP": "WEAPON"
  },
  {
    "Id": 113,
    "cardType": "GCG_CARD_CHARACTER",
    "CLDIGBBIIHF": "FRIENDLY",
    "MELCHLNCNNE": ["GCG_TAG_WEAPON_CLAYMORE", "GCG_TAG_NONE", "GCG_TAG_NONE"],
    "OOBKGCCFACK": ["GCG_TAG_NONE", "GCG_TAG_NONE"],
    "EBCIJENNHAP": [
      {
        "type": "IS_ALIVE_CHARACTER",
        "value": 1
      },
      {},
      {},
      {}
    ],
    "EJAJAJBIPGO": [{}, {}],
    "GGKEKHDAEFO": [
      {
        "type": "CHARACTER_ORDER",
        "DFHHEDCIDFK": true
      },
      {}
    ],
    "GGGBONNICJH": 2360075052,
    "HAJJNJOGEEP": "WEAPON"
  },
  {
    "Id": 114,
    "cardType": "GCG_CARD_CHARACTER",
    "CLDIGBBIIHF": "FRIENDLY",
    "MELCHLNCNNE": ["GCG_TAG_WEAPON_POLE", "GCG_TAG_NONE", "GCG_TAG_NONE"],
    "OOBKGCCFACK": ["GCG_TAG_NONE", "GCG_TAG_NONE"],
    "EBCIJENNHAP": [
      {
        "type": "IS_ALIVE_CHARACTER",
        "value": 1
      },
      {},
      {},
      {}
    ],
    "EJAJAJBIPGO": [{}, {}],
    "GGKEKHDAEFO": [
      {
        "type": "CHARACTER_ORDER",
        "DFHHEDCIDFK": true
      },
      {}
    ],
    "GGGBONNICJH": 3688410436,
    "HAJJNJOGEEP": "WEAPON"
  },
  {
    "Id": 115,
    "cardType": "GCG_CARD_CHARACTER",
    "CLDIGBBIIHF": "FRIENDLY",
    "MELCHLNCNNE": ["GCG_TAG_WEAPON_SWORD", "GCG_TAG_NONE", "GCG_TAG_NONE"],
    "OOBKGCCFACK": ["GCG_TAG_NONE", "GCG_TAG_NONE"],
    "EBCIJENNHAP": [
      {
        "type": "IS_ALIVE_CHARACTER",
        "value": 1
      },
      {},
      {},
      {}
    ],
    "EJAJAJBIPGO": [{}, {}],
    "GGKEKHDAEFO": [
      {
        "type": "CHARACTER_ORDER",
        "DFHHEDCIDFK": true
      },
      {}
    ],
    "GGGBONNICJH": 4107010156,
    "HAJJNJOGEEP": "WEAPON"
  },
  {
    "Id": 121,
    "cardType": "GCG_CARD_CHARACTER",
    "CLDIGBBIIHF": "FRIENDLY",
    "MELCHLNCNNE": ["GCG_TAG_NONE", "GCG_TAG_NONE", "GCG_TAG_NONE"],
    "OOBKGCCFACK": ["GCG_TAG_ELEMENT_CRYO", "GCG_TAG_NONE"],
    "EBCIJENNHAP": [
      {
        "type": "IS_ALIVE_CHARACTER",
        "value": 1
      },
      {},
      {},
      {}
    ],
    "EJAJAJBIPGO": [{}, {}],
    "GGKEKHDAEFO": [
      {
        "type": "HAS_TAG",
        "DFHHEDCIDFK": true,
        "EPNNHMDGFKJ": "GCG_TAG_ELEMENT_CRYO"
      },
      {
        "type": "CHARACTER_ORDER",
        "DFHHEDCIDFK": true
      }
    ],
    "GGGBONNICJH": 1498887420,
    "HAJJNJOGEEP": "RELIC"
  },
  {
    "Id": 122,
    "cardType": "GCG_CARD_CHARACTER",
    "CLDIGBBIIHF": "FRIENDLY",
    "MELCHLNCNNE": ["GCG_TAG_NONE", "GCG_TAG_NONE", "GCG_TAG_NONE"],
    "OOBKGCCFACK": ["GCG_TAG_ELEMENT_HYDRO", "GCG_TAG_NONE"],
    "EBCIJENNHAP": [
      {
        "type": "IS_ALIVE_CHARACTER",
        "value": 1
      },
      {},
      {},
      {}
    ],
    "EJAJAJBIPGO": [{}, {}],
    "GGKEKHDAEFO": [
      {
        "type": "HAS_TAG",
        "DFHHEDCIDFK": true,
        "EPNNHMDGFKJ": "GCG_TAG_ELEMENT_HYDRO"
      },
      {
        "type": "CHARACTER_ORDER",
        "DFHHEDCIDFK": true
      }
    ],
    "GGGBONNICJH": 1901741212,
    "HAJJNJOGEEP": "RELIC"
  },
  {
    "Id": 123,
    "cardType": "GCG_CARD_CHARACTER",
    "CLDIGBBIIHF": "FRIENDLY",
    "MELCHLNCNNE": ["GCG_TAG_NONE", "GCG_TAG_NONE", "GCG_TAG_NONE"],
    "OOBKGCCFACK": ["GCG_TAG_ELEMENT_PYRO", "GCG_TAG_NONE"],
    "EBCIJENNHAP": [
      {
        "type": "IS_ALIVE_CHARACTER",
        "value": 1
      },
      {},
      {},
      {}
    ],
    "EJAJAJBIPGO": [{}, {}],
    "GGKEKHDAEFO": [
      {
        "type": "HAS_TAG",
        "DFHHEDCIDFK": true,
        "EPNNHMDGFKJ": "GCG_TAG_ELEMENT_PYRO"
      },
      {
        "type": "CHARACTER_ORDER",
        "DFHHEDCIDFK": true
      }
    ],
    "GGGBONNICJH": 4215312612,
    "HAJJNJOGEEP": "RELIC"
  },
  {
    "Id": 124,
    "cardType": "GCG_CARD_CHARACTER",
    "CLDIGBBIIHF": "FRIENDLY",
    "MELCHLNCNNE": ["GCG_TAG_NONE", "GCG_TAG_NONE", "GCG_TAG_NONE"],
    "OOBKGCCFACK": ["GCG_TAG_ELEMENT_ELECTRO", "GCG_TAG_NONE"],
    "EBCIJENNHAP": [
      {
        "type": "IS_ALIVE_CHARACTER",
        "value": 1
      },
      {},
      {},
      {}
    ],
    "EJAJAJBIPGO": [{}, {}],
    "GGKEKHDAEFO": [
      {
        "type": "HAS_TAG",
        "DFHHEDCIDFK": true,
        "EPNNHMDGFKJ": "GCG_TAG_ELEMENT_ELECTRO"
      },
      {
        "type": "CHARACTER_ORDER",
        "DFHHEDCIDFK": true
      }
    ],
    "GGGBONNICJH": 1021508316,
    "HAJJNJOGEEP": "RELIC"
  },
  {
    "Id": 125,
    "cardType": "GCG_CARD_CHARACTER",
    "CLDIGBBIIHF": "FRIENDLY",
    "MELCHLNCNNE": ["GCG_TAG_NONE", "GCG_TAG_NONE", "GCG_TAG_NONE"],
    "OOBKGCCFACK": ["GCG_TAG_ELEMENT_ANEMO", "GCG_TAG_NONE"],
    "EBCIJENNHAP": [
      {
        "type": "IS_ALIVE_CHARACTER",
        "value": 1
      },
      {},
      {},
      {}
    ],
    "EJAJAJBIPGO": [{}, {}],
    "GGKEKHDAEFO": [
      {
        "type": "HAS_TAG",
        "DFHHEDCIDFK": true,
        "EPNNHMDGFKJ": "GCG_TAG_ELEMENT_ANEMO"
      },
      {
        "type": "CHARACTER_ORDER",
        "DFHHEDCIDFK": true
      }
    ],
    "GGGBONNICJH": 2144580860,
    "HAJJNJOGEEP": "RELIC"
  },
  {
    "Id": 126,
    "cardType": "GCG_CARD_CHARACTER",
    "CLDIGBBIIHF": "FRIENDLY",
    "MELCHLNCNNE": ["GCG_TAG_NONE", "GCG_TAG_NONE", "GCG_TAG_NONE"],
    "OOBKGCCFACK": ["GCG_TAG_ELEMENT_GEO", "GCG_TAG_NONE"],
    "EBCIJENNHAP": [
      {
        "type": "IS_ALIVE_CHARACTER",
        "value": 1
      },
      {},
      {},
      {}
    ],
    "EJAJAJBIPGO": [{}, {}],
    "GGKEKHDAEFO": [
      {
        "type": "HAS_TAG",
        "DFHHEDCIDFK": true,
        "EPNNHMDGFKJ": "GCG_TAG_ELEMENT_GEO"
      },
      {
        "type": "CHARACTER_ORDER",
        "DFHHEDCIDFK": true
      }
    ],
    "GGGBONNICJH": 3052576212,
    "HAJJNJOGEEP": "RELIC"
  },
  {
    "Id": 127,
    "cardType": "GCG_CARD_CHARACTER",
    "CLDIGBBIIHF": "FRIENDLY",
    "MELCHLNCNNE": ["GCG_TAG_NONE", "GCG_TAG_NONE", "GCG_TAG_NONE"],
    "OOBKGCCFACK": ["GCG_TAG_ELEMENT_DENDRO", "GCG_TAG_NONE"],
    "EBCIJENNHAP": [
      {
        "type": "IS_ALIVE_CHARACTER",
        "value": 1
      },
      {},
      {},
      {}
    ],
    "EJAJAJBIPGO": [{}, {}],
    "GGKEKHDAEFO": [
      {
        "type": "HAS_TAG",
        "DFHHEDCIDFK": true,
        "EPNNHMDGFKJ": "GCG_TAG_ELEMENT_DENDRO"
      },
      {
        "type": "CHARACTER_ORDER",
        "DFHHEDCIDFK": true
      }
    ],
    "GGGBONNICJH": 882895236,
    "HAJJNJOGEEP": "RELIC"
  },
  {
    "Id": 151,
    "cardType": "GCG_CARD_CHARACTER",
    "CLDIGBBIIHF": "FRIENDLY",
    "MELCHLNCNNE": ["GCG_TAG_NONE", "GCG_TAG_NONE", "GCG_TAG_NONE"],
    "OOBKGCCFACK": ["GCG_TAG_NONE", "GCG_TAG_NONE"],
    "EBCIJENNHAP": [
      {
        "type": "IS_ALIVE_CHARACTER",
        "value": 1
      },
      {
        "type": "HAS_MODIFY_STATE_WITH_TAG",
        "value": 3
      },
      {
        "type": "SAME_WEAPON_TYPE_CHAR_COUNT",
        "value": 1
      },
      {}
    ],
    "EJAJAJBIPGO": [{}, {}],
    "GGKEKHDAEFO": [
      {
        "type": "HP",
        "DFHHEDCIDFK": true
      },
      {
        "type": "CHARACTER_ORDER",
        "DFHHEDCIDFK": true
      }
    ],
    "GGGBONNICJH": 3784009956
  },
  {
    "Id": 152,
    "cardType": "GCG_CARD_CHARACTER",
    "CLDIGBBIIHF": "FRIENDLY",
    "MELCHLNCNNE": ["GCG_TAG_NONE", "GCG_TAG_NONE", "GCG_TAG_NONE"],
    "OOBKGCCFACK": ["GCG_TAG_NONE", "GCG_TAG_NONE"],
    "EBCIJENNHAP": [
      {
        "type": "IS_ALIVE_CHARACTER",
        "value": 1
      },
      {
        "type": "SAME_WEAPON_TYPE_WITH",
        "value": 1
      },
      {},
      {}
    ],
    "EJAJAJBIPGO": [{}, {}],
    "GGKEKHDAEFO": [
      {
        "type": "HP",
        "DFHHEDCIDFK": true
      },
      {
        "type": "CHARACTER_ORDER",
        "DFHHEDCIDFK": true
      }
    ],
    "GGGBONNICJH": 2524648828,
    "HAJJNJOGEEP": "WEAPON"
  },
  {
    "Id": 153,
    "cardType": "GCG_CARD_CHARACTER",
    "CLDIGBBIIHF": "FRIENDLY",
    "MELCHLNCNNE": ["GCG_TAG_NONE", "GCG_TAG_NONE", "GCG_TAG_NONE"],
    "OOBKGCCFACK": ["GCG_TAG_NONE", "GCG_TAG_NONE"],
    "EBCIJENNHAP": [
      {
        "type": "IS_ALIVE_CHARACTER",
        "value": 1
      },
      {
        "type": "HAS_MODIFY_STATE_WITH_TAG",
        "value": 4
      },
      {
        "type": "ALIVE_CHAR_COUNT",
        "value": 1
      },
      {}
    ],
    "EJAJAJBIPGO": [{}, {}],
    "GGKEKHDAEFO": [
      {
        "type": "HP",
        "DFHHEDCIDFK": true
      },
      {
        "type": "CHARACTER_ORDER",
        "DFHHEDCIDFK": true
      }
    ],
    "GGGBONNICJH": 2511338772
  },
  {
    "Id": 154,
    "cardType": "GCG_CARD_CHARACTER",
    "CLDIGBBIIHF": "FRIENDLY",
    "MELCHLNCNNE": ["GCG_TAG_NONE", "GCG_TAG_NONE", "GCG_TAG_NONE"],
    "OOBKGCCFACK": ["GCG_TAG_NONE", "GCG_TAG_NONE"],
    "EBCIJENNHAP": [
      {
        "type": "IS_ALIVE_CHARACTER",
        "value": 1
      },
      {},
      {},
      {}
    ],
    "EJAJAJBIPGO": [{}, {}],
    "GGKEKHDAEFO": [
      {
        "type": "HP",
        "DFHHEDCIDFK": true
      },
      {
        "type": "CHARACTER_ORDER",
        "DFHHEDCIDFK": true
      }
    ],
    "GGGBONNICJH": 527777572,
    "HAJJNJOGEEP": "RELIC"
  },
  {
    "Id": 501,
    "cardType": "GCG_CARD_SUMMON",
    "CLDIGBBIIHF": "FRIENDLY",
    "MELCHLNCNNE": ["GCG_TAG_NONE", "GCG_TAG_NONE", "GCG_TAG_NONE"],
    "OOBKGCCFACK": ["GCG_TAG_NONE", "GCG_TAG_NONE"],
    "EBCIJENNHAP": [{}, {}, {}, {}],
    "EJAJAJBIPGO": [{}, {}],
    "GGKEKHDAEFO": [
      {
        "type": "TOKEN_TO_SHOW"
      },
      {
        "type": "CREATE_ORDER",
        "DFHHEDCIDFK": true
      }
    ],
    "GGGBONNICJH": 1056180972,
    "HAJJNJOGEEP": "TALENT"
  },
  {
    "Id": 502,
    "cardType": "GCG_CARD_SUMMON",
    "CLDIGBBIIHF": "ENEMY",
    "MELCHLNCNNE": ["GCG_TAG_NONE", "GCG_TAG_NONE", "GCG_TAG_NONE"],
    "OOBKGCCFACK": ["GCG_TAG_NONE", "GCG_TAG_NONE"],
    "EBCIJENNHAP": [{}, {}, {}, {}],
    "EJAJAJBIPGO": [{}, {}],
    "GGKEKHDAEFO": [
      {
        "type": "TOKEN_TO_SHOW",
        "DFHHEDCIDFK": true
      },
      {
        "type": "CREATE_ORDER"
      }
    ],
    "GGGBONNICJH": 2424549932,
    "HAJJNJOGEEP": "TALENT"
  },
  {
    "Id": 503,
    "cardType": "GCG_CARD_SUMMON",
    "CLDIGBBIIHF": "ENEMY",
    "MELCHLNCNNE": ["GCG_TAG_NONE", "GCG_TAG_NONE", "GCG_TAG_NONE"],
    "OOBKGCCFACK": ["GCG_TAG_NONE", "GCG_TAG_NONE"],
    "EBCIJENNHAP": [{}, {}, {}, {}],
    "EJAJAJBIPGO": [{}, {}],
    "GGKEKHDAEFO": [
      {
        "type": "TOKEN_TO_SHOW",
        "DFHHEDCIDFK": true
      },
      {
        "type": "CREATE_ORDER"
      }
    ],
    "GGGBONNICJH": 1884474996,
    "HAJJNJOGEEP": "TALENT"
  },
  {
    "Id": 1001,
    "cardType": "GCG_CARD_CHARACTER",
    "CLDIGBBIIHF": "FRIENDLY",
    "MELCHLNCNNE": ["GCG_TAG_NONE", "GCG_TAG_NONE", "GCG_TAG_NONE"],
    "OOBKGCCFACK": ["GCG_TAG_NONE", "GCG_TAG_NONE"],
    "EBCIJENNHAP": [
      {
        "type": "IS_ALIVE_CHARACTER",
        "value": 1
      },
      {
        "type": "CARD",
        "value": 1403
      },
      {
        "type": "NOT_HAS_MODIFY_STATE_WITH_TAG",
        "value": 5
      },
      {}
    ],
    "EJAJAJBIPGO": [{}, {}],
    "GGKEKHDAEFO": [{}, {}],
    "GGGBONNICJH": 1697191692,
    "HAJJNJOGEEP": "TALENT"
  },
  {
    "Id": 1002,
    "cardType": "GCG_CARD_CHARACTER",
    "CLDIGBBIIHF": "FRIENDLY",
    "MELCHLNCNNE": ["GCG_TAG_NONE", "GCG_TAG_NONE", "GCG_TAG_NONE"],
    "OOBKGCCFACK": ["GCG_TAG_NONE", "GCG_TAG_NONE"],
    "EBCIJENNHAP": [
      {
        "type": "IS_ALIVE_CHARACTER",
        "value": 1
      },
      {
        "type": "CARD",
        "value": 1105
      },
      {},
      {}
    ],
    "EJAJAJBIPGO": [{}, {}],
    "GGKEKHDAEFO": [{}, {}],
    "GGGBONNICJH": 3834140836,
    "HAJJNJOGEEP": "TALENT"
  },
  {
    "Id": 11101,
    "cardType": "GCG_CARD_CHARACTER",
    "CLDIGBBIIHF": "FRIENDLY",
    "MELCHLNCNNE": ["GCG_TAG_NONE", "GCG_TAG_NONE", "GCG_TAG_NONE"],
    "OOBKGCCFACK": ["GCG_TAG_NONE", "GCG_TAG_NONE"],
    "EBCIJENNHAP": [
      {
        "type": "IS_ALIVE_CHARACTER",
        "value": 1
      },
      {
        "type": "CARD",
        "value": 1101
      },
      {
        "type": "NOT_HAS_MODIFY_STATE_WITH_TAG",
        "value": 5
      },
      {
        "type": "ONSTAGE",
        "value": 1
      }
    ],
    "EJAJAJBIPGO": [{}, {}],
    "GGKEKHDAEFO": [{}, {}],
    "GGGBONNICJH": 3363485348,
    "HAJJNJOGEEP": "TALENT"
  },
  {
    "Id": 11102,
    "cardType": "GCG_CARD_CHARACTER",
    "CLDIGBBIIHF": "FRIENDLY",
    "MELCHLNCNNE": ["GCG_TAG_NONE", "GCG_TAG_NONE", "GCG_TAG_NONE"],
    "OOBKGCCFACK": ["GCG_TAG_NONE", "GCG_TAG_NONE"],
    "EBCIJENNHAP": [
      {
        "type": "IS_ALIVE_CHARACTER",
        "value": 1
      },
      {
        "type": "CARD",
        "value": 1102
      },
      {
        "type": "NOT_HAS_MODIFY_STATE_WITH_TAG",
        "value": 5
      },
      {
        "type": "ONSTAGE",
        "value": 1
      }
    ],
    "EJAJAJBIPGO": [{}, {}],
    "GGKEKHDAEFO": [{}, {}],
    "GGGBONNICJH": 1618102308,
    "HAJJNJOGEEP": "TALENT"
  },
  {
    "Id": 11103,
    "cardType": "GCG_CARD_CHARACTER",
    "CLDIGBBIIHF": "FRIENDLY",
    "MELCHLNCNNE": ["GCG_TAG_NONE", "GCG_TAG_NONE", "GCG_TAG_NONE"],
    "OOBKGCCFACK": ["GCG_TAG_NONE", "GCG_TAG_NONE"],
    "EBCIJENNHAP": [
      {
        "type": "IS_ALIVE_CHARACTER",
        "value": 1
      },
      {
        "type": "CARD",
        "value": 1103
      },
      {
        "type": "NOT_HAS_MODIFY_STATE_WITH_TAG",
        "value": 5
      },
      {
        "type": "ONSTAGE",
        "value": 1
      }
    ],
    "EJAJAJBIPGO": [{}, {}],
    "GGKEKHDAEFO": [{}, {}],
    "GGGBONNICJH": 995450124,
    "HAJJNJOGEEP": "TALENT"
  },
  {
    "Id": 11104,
    "cardType": "GCG_CARD_CHARACTER",
    "CLDIGBBIIHF": "FRIENDLY",
    "MELCHLNCNNE": ["GCG_TAG_NONE", "GCG_TAG_NONE", "GCG_TAG_NONE"],
    "OOBKGCCFACK": ["GCG_TAG_NONE", "GCG_TAG_NONE"],
    "EBCIJENNHAP": [
      {
        "type": "IS_ALIVE_CHARACTER",
        "value": 1
      },
      {
        "type": "CARD",
        "value": 1104
      },
      {
        "type": "NOT_HAS_MODIFY_STATE_WITH_TAG",
        "value": 5
      },
      {
        "type": "ONSTAGE",
        "value": 1
      }
    ],
    "EJAJAJBIPGO": [{}, {}],
    "GGKEKHDAEFO": [{}, {}],
    "GGGBONNICJH": 741451804,
    "HAJJNJOGEEP": "TALENT"
  },
  {
    "Id": 11105,
    "cardType": "GCG_CARD_CHARACTER",
    "CLDIGBBIIHF": "FRIENDLY",
    "MELCHLNCNNE": ["GCG_TAG_NONE", "GCG_TAG_NONE", "GCG_TAG_NONE"],
    "OOBKGCCFACK": ["GCG_TAG_NONE", "GCG_TAG_NONE"],
    "EBCIJENNHAP": [
      {
        "type": "IS_ALIVE_CHARACTER",
        "value": 1
      },
      {
        "type": "CARD",
        "value": 1105
      },
      {
        "type": "NOT_HAS_MODIFY_STATE_WITH_TAG",
        "value": 5
      },
      {
        "type": "ONSTAGE",
        "value": 1
      }
    ],
    "EJAJAJBIPGO": [{}, {}],
    "GGKEKHDAEFO": [{}, {}],
    "GGGBONNICJH": 1092165748,
    "HAJJNJOGEEP": "TALENT"
  },
  {
    "Id": 11106,
    "cardType": "GCG_CARD_CHARACTER",
    "CLDIGBBIIHF": "FRIENDLY",
    "MELCHLNCNNE": ["GCG_TAG_NONE", "GCG_TAG_NONE", "GCG_TAG_NONE"],
    "OOBKGCCFACK": ["GCG_TAG_NONE", "GCG_TAG_NONE"],
    "EBCIJENNHAP": [
      {
        "type": "IS_ALIVE_CHARACTER",
        "value": 1
      },
      {
        "type": "CARD",
        "value": 1106
      },
      {
        "type": "NOT_HAS_MODIFY_STATE_WITH_TAG",
        "value": 5
      },
      {
        "type": "ONSTAGE",
        "value": 1
      }
    ],
    "EJAJAJBIPGO": [{}, {}],
    "GGKEKHDAEFO": [{}, {}],
    "GGGBONNICJH": 2241829988,
    "HAJJNJOGEEP": "TALENT"
  },
  {
    "Id": 11201,
    "cardType": "GCG_CARD_CHARACTER",
    "CLDIGBBIIHF": "FRIENDLY",
    "MELCHLNCNNE": ["GCG_TAG_NONE", "GCG_TAG_NONE", "GCG_TAG_NONE"],
    "OOBKGCCFACK": ["GCG_TAG_NONE", "GCG_TAG_NONE"],
    "EBCIJENNHAP": [
      {
        "type": "IS_ALIVE_CHARACTER",
        "value": 1
      },
      {
        "type": "CARD",
        "value": 1201
      },
      {
        "type": "NOT_HAS_MODIFY_STATE_WITH_TAG",
        "value": 5
      },
      {
        "type": "ONSTAGE",
        "value": 1
      }
    ],
    "EJAJAJBIPGO": [{}, {}],
    "GGKEKHDAEFO": [{}, {}],
    "GGGBONNICJH": 3891514388,
    "HAJJNJOGEEP": "TALENT"
  },
  {
    "Id": 11202,
    "cardType": "GCG_CARD_CHARACTER",
    "CLDIGBBIIHF": "FRIENDLY",
    "MELCHLNCNNE": ["GCG_TAG_NONE", "GCG_TAG_NONE", "GCG_TAG_NONE"],
    "OOBKGCCFACK": ["GCG_TAG_NONE", "GCG_TAG_NONE"],
    "EBCIJENNHAP": [
      {
        "type": "IS_ALIVE_CHARACTER",
        "value": 1
      },
      {
        "type": "CARD",
        "value": 1202
      },
      {
        "type": "NOT_HAS_MODIFY_STATE_WITH_TAG",
        "value": 5
      },
      {
        "type": "ONSTAGE",
        "value": 1
      }
    ],
    "EJAJAJBIPGO": [{}, {}],
    "GGKEKHDAEFO": [{}, {}],
    "GGGBONNICJH": 2462697340,
    "HAJJNJOGEEP": "TALENT"
  },
  {
    "Id": 11203,
    "cardType": "GCG_CARD_CHARACTER",
    "CLDIGBBIIHF": "FRIENDLY",
    "MELCHLNCNNE": ["GCG_TAG_NONE", "GCG_TAG_NONE", "GCG_TAG_NONE"],
    "OOBKGCCFACK": ["GCG_TAG_NONE", "GCG_TAG_NONE"],
    "EBCIJENNHAP": [
      {
        "type": "IS_ALIVE_CHARACTER",
        "value": 1
      },
      {
        "type": "CARD",
        "value": 1203
      },
      {
        "type": "NOT_HAS_MODIFY_STATE_WITH_TAG",
        "value": 5
      },
      {
        "type": "ONSTAGE",
        "value": 1
      }
    ],
    "EJAJAJBIPGO": [{}, {}],
    "GGKEKHDAEFO": [{}, {}],
    "GGGBONNICJH": 1940476828,
    "HAJJNJOGEEP": "TALENT"
  },
  {
    "Id": 11205,
    "cardType": "GCG_CARD_CHARACTER",
    "CLDIGBBIIHF": "FRIENDLY",
    "MELCHLNCNNE": ["GCG_TAG_NONE", "GCG_TAG_NONE", "GCG_TAG_NONE"],
    "OOBKGCCFACK": ["GCG_TAG_NONE", "GCG_TAG_NONE"],
    "EBCIJENNHAP": [
      {
        "type": "IS_ALIVE_CHARACTER",
        "value": 1
      },
      {
        "type": "CARD",
        "value": 1205
      },
      {
        "type": "NOT_HAS_MODIFY_STATE_WITH_TAG",
        "value": 5
      },
      {
        "type": "ONSTAGE",
        "value": 1
      }
    ],
    "EJAJAJBIPGO": [{}, {}],
    "GGKEKHDAEFO": [{}, {}],
    "GGGBONNICJH": 21308412,
    "HAJJNJOGEEP": "TALENT"
  },
  {
    "Id": 11206,
    "cardType": "GCG_CARD_CHARACTER",
    "CLDIGBBIIHF": "FRIENDLY",
    "MELCHLNCNNE": ["GCG_TAG_NONE", "GCG_TAG_NONE", "GCG_TAG_NONE"],
    "OOBKGCCFACK": ["GCG_TAG_NONE", "GCG_TAG_NONE"],
    "EBCIJENNHAP": [
      {
        "type": "IS_ALIVE_CHARACTER",
        "value": 1
      },
      {
        "type": "CARD",
        "value": 1206
      },
      {
        "type": "NOT_HAS_MODIFY_STATE_WITH_TAG",
        "value": 5
      },
      {
        "type": "ONSTAGE",
        "value": 1
      }
    ],
    "EJAJAJBIPGO": [{}, {}],
    "GGKEKHDAEFO": [{}, {}],
    "GGGBONNICJH": 112647300,
    "HAJJNJOGEEP": "TALENT"
  },
  {
    "Id": 11301,
    "cardType": "GCG_CARD_CHARACTER",
    "CLDIGBBIIHF": "FRIENDLY",
    "MELCHLNCNNE": ["GCG_TAG_NONE", "GCG_TAG_NONE", "GCG_TAG_NONE"],
    "OOBKGCCFACK": ["GCG_TAG_NONE", "GCG_TAG_NONE"],
    "EBCIJENNHAP": [
      {
        "type": "IS_ALIVE_CHARACTER",
        "value": 1
      },
      {
        "type": "CARD",
        "value": 1301
      },
      {
        "type": "NOT_HAS_MODIFY_STATE_WITH_TAG",
        "value": 5
      },
      {
        "type": "ONSTAGE",
        "value": 1
      }
    ],
    "EJAJAJBIPGO": [{}, {}],
    "GGKEKHDAEFO": [{}, {}],
    "GGGBONNICJH": 2187416700,
    "HAJJNJOGEEP": "TALENT"
  },
  {
    "Id": 11302,
    "cardType": "GCG_CARD_CHARACTER",
    "CLDIGBBIIHF": "FRIENDLY",
    "MELCHLNCNNE": ["GCG_TAG_NONE", "GCG_TAG_NONE", "GCG_TAG_NONE"],
    "OOBKGCCFACK": ["GCG_TAG_NONE", "GCG_TAG_NONE"],
    "EBCIJENNHAP": [
      {
        "type": "IS_ALIVE_CHARACTER",
        "value": 1
      },
      {
        "type": "CARD",
        "value": 1302
      },
      {
        "type": "NOT_HAS_MODIFY_STATE_WITH_TAG",
        "value": 5
      },
      {
        "type": "ONSTAGE",
        "value": 1
      }
    ],
    "EJAJAJBIPGO": [{}, {}],
    "GGKEKHDAEFO": [{}, {}],
    "GGGBONNICJH": 569355852,
    "HAJJNJOGEEP": "TALENT"
  },
  {
    "Id": 11303,
    "cardType": "GCG_CARD_CHARACTER",
    "CLDIGBBIIHF": "FRIENDLY",
    "MELCHLNCNNE": ["GCG_TAG_NONE", "GCG_TAG_NONE", "GCG_TAG_NONE"],
    "OOBKGCCFACK": ["GCG_TAG_NONE", "GCG_TAG_NONE"],
    "EBCIJENNHAP": [
      {
        "type": "IS_ALIVE_CHARACTER",
        "value": 1
      },
      {
        "type": "CARD",
        "value": 1303
      },
      {
        "type": "NOT_HAS_MODIFY_STATE_WITH_TAG",
        "value": 5
      },
      {
        "type": "ONSTAGE",
        "value": 1
      }
    ],
    "EJAJAJBIPGO": [{}, {}],
    "GGKEKHDAEFO": [{}, {}],
    "GGGBONNICJH": 2306117116,
    "HAJJNJOGEEP": "TALENT"
  },
  {
    "Id": 11305,
    "cardType": "GCG_CARD_CHARACTER",
    "CLDIGBBIIHF": "FRIENDLY",
    "MELCHLNCNNE": ["GCG_TAG_NONE", "GCG_TAG_NONE", "GCG_TAG_NONE"],
    "OOBKGCCFACK": ["GCG_TAG_NONE", "GCG_TAG_NONE"],
    "EBCIJENNHAP": [
      {
        "type": "IS_ALIVE_CHARACTER",
        "value": 1
      },
      {
        "type": "CARD",
        "value": 1305
      },
      {
        "type": "NOT_HAS_MODIFY_STATE_WITH_TAG",
        "value": 5
      },
      {
        "type": "ONSTAGE",
        "value": 1
      }
    ],
    "EJAJAJBIPGO": [{}, {}],
    "GGKEKHDAEFO": [{}, {}],
    "GGGBONNICJH": 1271786756,
    "HAJJNJOGEEP": "TALENT"
  },
  {
    "Id": 11306,
    "cardType": "GCG_CARD_CHARACTER",
    "CLDIGBBIIHF": "FRIENDLY",
    "MELCHLNCNNE": ["GCG_TAG_NONE", "GCG_TAG_NONE", "GCG_TAG_NONE"],
    "OOBKGCCFACK": ["GCG_TAG_NONE", "GCG_TAG_NONE"],
    "EBCIJENNHAP": [
      {
        "type": "IS_ALIVE_CHARACTER",
        "value": 1
      },
      {
        "type": "CARD",
        "value": 1306
      },
      {
        "type": "NOT_HAS_MODIFY_STATE_WITH_TAG",
        "value": 5
      },
      {
        "type": "ONSTAGE",
        "value": 1
      }
    ],
    "EJAJAJBIPGO": [{}, {}],
    "GGKEKHDAEFO": [{}, {}],
    "GGGBONNICJH": 636341932,
    "HAJJNJOGEEP": "TALENT"
  },
  {
    "Id": 11401,
    "cardType": "GCG_CARD_CHARACTER",
    "CLDIGBBIIHF": "FRIENDLY",
    "MELCHLNCNNE": ["GCG_TAG_NONE", "GCG_TAG_NONE", "GCG_TAG_NONE"],
    "OOBKGCCFACK": ["GCG_TAG_NONE", "GCG_TAG_NONE"],
    "EBCIJENNHAP": [
      {
        "type": "IS_ALIVE_CHARACTER",
        "value": 1
      },
      {
        "type": "CARD",
        "value": 1401
      },
      {
        "type": "NOT_HAS_MODIFY_STATE_WITH_TAG",
        "value": 5
      },
      {
        "type": "ONSTAGE",
        "value": 1
      }
    ],
    "EJAJAJBIPGO": [{}, {}],
    "GGKEKHDAEFO": [{}, {}],
    "GGGBONNICJH": 2222741388,
    "HAJJNJOGEEP": "TALENT"
  },
  {
    "Id": 11402,
    "cardType": "GCG_CARD_CHARACTER",
    "CLDIGBBIIHF": "FRIENDLY",
    "MELCHLNCNNE": ["GCG_TAG_NONE", "GCG_TAG_NONE", "GCG_TAG_NONE"],
    "OOBKGCCFACK": ["GCG_TAG_NONE", "GCG_TAG_NONE"],
    "EBCIJENNHAP": [
      {
        "type": "IS_ALIVE_CHARACTER",
        "value": 1
      },
      {
        "type": "CARD",
        "value": 1402
      },
      {
        "type": "NOT_HAS_MODIFY_STATE_WITH_TAG",
        "value": 5
      },
      {
        "type": "ONSTAGE",
        "value": 1
      }
    ],
    "EJAJAJBIPGO": [{}, {}],
    "GGKEKHDAEFO": [{}, {}],
    "GGGBONNICJH": 2252053156,
    "HAJJNJOGEEP": "TALENT"
  },
  {
    "Id": 11403,
    "cardType": "GCG_CARD_CHARACTER",
    "CLDIGBBIIHF": "FRIENDLY",
    "MELCHLNCNNE": ["GCG_TAG_NONE", "GCG_TAG_NONE", "GCG_TAG_NONE"],
    "OOBKGCCFACK": ["GCG_TAG_NONE", "GCG_TAG_NONE"],
    "EBCIJENNHAP": [
      {
        "type": "IS_ALIVE_CHARACTER",
        "value": 1
      },
      {
        "type": "CARD",
        "value": 1403
      },
      {
        "type": "NOT_HAS_MODIFY_STATE_WITH_TAG",
        "value": 5
      },
      {
        "type": "ONSTAGE",
        "value": 1
      }
    ],
    "EJAJAJBIPGO": [{}, {}],
    "GGKEKHDAEFO": [{}, {}],
    "GGGBONNICJH": 3858117948,
    "HAJJNJOGEEP": "TALENT"
  },
  {
    "Id": 11404,
    "cardType": "GCG_CARD_CHARACTER",
    "CLDIGBBIIHF": "FRIENDLY",
    "MELCHLNCNNE": ["GCG_TAG_NONE", "GCG_TAG_NONE", "GCG_TAG_NONE"],
    "OOBKGCCFACK": ["GCG_TAG_NONE", "GCG_TAG_NONE"],
    "EBCIJENNHAP": [
      {
        "type": "IS_ALIVE_CHARACTER",
        "value": 1
      },
      {
        "type": "CARD",
        "value": 1404
      },
      {
        "type": "NOT_HAS_MODIFY_STATE_WITH_TAG",
        "value": 5
      },
      {
        "type": "ONSTAGE",
        "value": 1
      }
    ],
    "EJAJAJBIPGO": [{}, {}],
    "GGKEKHDAEFO": [{}, {}],
    "GGGBONNICJH": 3987221668,
    "HAJJNJOGEEP": "TALENT"
  },
  {
    "Id": 11405,
    "cardType": "GCG_CARD_CHARACTER",
    "CLDIGBBIIHF": "FRIENDLY",
    "MELCHLNCNNE": ["GCG_TAG_NONE", "GCG_TAG_NONE", "GCG_TAG_NONE"],
    "OOBKGCCFACK": ["GCG_TAG_NONE", "GCG_TAG_NONE"],
    "EBCIJENNHAP": [
      {
        "type": "IS_ALIVE_CHARACTER",
        "value": 1
      },
      {
        "type": "CARD",
        "value": 1405
      },
      {
        "type": "NOT_HAS_MODIFY_STATE_WITH_TAG",
        "value": 5
      },
      {
        "type": "ONSTAGE",
        "value": 1
      }
    ],
    "EJAJAJBIPGO": [{}, {}],
    "GGKEKHDAEFO": [{}, {}],
    "GGGBONNICJH": 1764567684,
    "HAJJNJOGEEP": "TALENT"
  },
  {
    "Id": 11406,
    "cardType": "GCG_CARD_CHARACTER",
    "CLDIGBBIIHF": "FRIENDLY",
    "MELCHLNCNNE": ["GCG_TAG_NONE", "GCG_TAG_NONE", "GCG_TAG_NONE"],
    "OOBKGCCFACK": ["GCG_TAG_NONE", "GCG_TAG_NONE"],
    "EBCIJENNHAP": [
      {
        "type": "IS_ALIVE_CHARACTER",
        "value": 1
      },
      {
        "type": "CARD",
        "value": 1406
      },
      {
        "type": "NOT_HAS_MODIFY_STATE_WITH_TAG",
        "value": 5
      },
      {
        "type": "ONSTAGE",
        "value": 1
      }
    ],
    "EJAJAJBIPGO": [{}, {}],
    "GGKEKHDAEFO": [{}, {}],
    "GGGBONNICJH": 195068036,
    "HAJJNJOGEEP": "TALENT"
  },
  {
    "Id": 11501,
    "cardType": "GCG_CARD_CHARACTER",
    "CLDIGBBIIHF": "FRIENDLY",
    "MELCHLNCNNE": ["GCG_TAG_NONE", "GCG_TAG_NONE", "GCG_TAG_NONE"],
    "OOBKGCCFACK": ["GCG_TAG_NONE", "GCG_TAG_NONE"],
    "EBCIJENNHAP": [
      {
        "type": "IS_ALIVE_CHARACTER",
        "value": 1
      },
      {
        "type": "CARD",
        "value": 1501
      },
      {
        "type": "NOT_HAS_MODIFY_STATE_WITH_TAG",
        "value": 5
      },
      {
        "type": "ONSTAGE",
        "value": 1
      }
    ],
    "EJAJAJBIPGO": [{}, {}],
    "GGKEKHDAEFO": [{}, {}],
    "GGGBONNICJH": 4070747052,
    "HAJJNJOGEEP": "TALENT"
  },
  {
    "Id": 11502,
    "cardType": "GCG_CARD_CHARACTER",
    "CLDIGBBIIHF": "FRIENDLY",
    "MELCHLNCNNE": ["GCG_TAG_NONE", "GCG_TAG_NONE", "GCG_TAG_NONE"],
    "OOBKGCCFACK": ["GCG_TAG_NONE", "GCG_TAG_NONE"],
    "EBCIJENNHAP": [
      {
        "type": "IS_ALIVE_CHARACTER",
        "value": 1
      },
      {
        "type": "CARD",
        "value": 1502
      },
      {
        "type": "NOT_HAS_MODIFY_STATE_WITH_TAG",
        "value": 5
      },
      {
        "type": "ONSTAGE",
        "value": 1
      }
    ],
    "EJAJAJBIPGO": [{}, {}],
    "GGKEKHDAEFO": [{}, {}],
    "GGGBONNICJH": 3531161900,
    "HAJJNJOGEEP": "TALENT"
  },
  {
    "Id": 11601,
    "cardType": "GCG_CARD_CHARACTER",
    "CLDIGBBIIHF": "FRIENDLY",
    "MELCHLNCNNE": ["GCG_TAG_NONE", "GCG_TAG_NONE", "GCG_TAG_NONE"],
    "OOBKGCCFACK": ["GCG_TAG_NONE", "GCG_TAG_NONE"],
    "EBCIJENNHAP": [
      {
        "type": "IS_ALIVE_CHARACTER",
        "value": 1
      },
      {
        "type": "CARD",
        "value": 1601
      },
      {
        "type": "NOT_HAS_MODIFY_STATE_WITH_TAG",
        "value": 5
      },
      {
        "type": "ONSTAGE",
        "value": 1
      }
    ],
    "EJAJAJBIPGO": [{}, {}],
    "GGKEKHDAEFO": [{}, {}],
    "GGGBONNICJH": 920155404,
    "HAJJNJOGEEP": "TALENT"
  },
  {
    "Id": 11602,
    "cardType": "GCG_CARD_CHARACTER",
    "CLDIGBBIIHF": "FRIENDLY",
    "MELCHLNCNNE": ["GCG_TAG_NONE", "GCG_TAG_NONE", "GCG_TAG_NONE"],
    "OOBKGCCFACK": ["GCG_TAG_NONE", "GCG_TAG_NONE"],
    "EBCIJENNHAP": [
      {
        "type": "IS_ALIVE_CHARACTER",
        "value": 1
      },
      {
        "type": "CARD",
        "value": 1602
      },
      {
        "type": "NOT_HAS_MODIFY_STATE_WITH_TAG",
        "value": 5
      },
      {
        "type": "ONSTAGE",
        "value": 1
      }
    ],
    "EJAJAJBIPGO": [{}, {}],
    "GGKEKHDAEFO": [{}, {}],
    "GGGBONNICJH": 1123328548,
    "HAJJNJOGEEP": "TALENT"
  },
  {
    "Id": 11605,
    "cardType": "GCG_CARD_CHARACTER",
    "CLDIGBBIIHF": "FRIENDLY",
    "MELCHLNCNNE": ["GCG_TAG_NONE", "GCG_TAG_NONE", "GCG_TAG_NONE"],
    "OOBKGCCFACK": ["GCG_TAG_NONE", "GCG_TAG_NONE"],
    "EBCIJENNHAP": [
      {
        "type": "IS_ALIVE_CHARACTER",
        "value": 1
      },
      {
        "type": "CARD",
        "value": 1605
      },
      {
        "type": "NOT_HAS_MODIFY_STATE_WITH_TAG",
        "value": 5
      },
      {
        "type": "ONSTAGE",
        "value": 1
      }
    ],
    "EJAJAJBIPGO": [{}, {}],
    "GGKEKHDAEFO": [{}, {}],
    "GGGBONNICJH": 1928991164,
    "HAJJNJOGEEP": "TALENT"
  },
  {
    "Id": 11701,
    "cardType": "GCG_CARD_CHARACTER",
    "CLDIGBBIIHF": "FRIENDLY",
    "MELCHLNCNNE": ["GCG_TAG_NONE", "GCG_TAG_NONE", "GCG_TAG_NONE"],
    "OOBKGCCFACK": ["GCG_TAG_NONE", "GCG_TAG_NONE"],
    "EBCIJENNHAP": [
      {
        "type": "IS_ALIVE_CHARACTER",
        "value": 1
      },
      {
        "type": "CARD",
        "value": 1701
      },
      {
        "type": "NOT_HAS_MODIFY_STATE_WITH_TAG",
        "value": 5
      },
      {
        "type": "ONSTAGE",
        "value": 1
      }
    ],
    "EJAJAJBIPGO": [{}, {}],
    "GGKEKHDAEFO": [{}, {}],
    "GGGBONNICJH": 2756531924,
    "HAJJNJOGEEP": "TALENT"
  },
  {
    "Id": 11702,
    "cardType": "GCG_CARD_CHARACTER",
    "CLDIGBBIIHF": "FRIENDLY",
    "MELCHLNCNNE": ["GCG_TAG_NONE", "GCG_TAG_NONE", "GCG_TAG_NONE"],
    "OOBKGCCFACK": ["GCG_TAG_NONE", "GCG_TAG_NONE"],
    "EBCIJENNHAP": [
      {
        "type": "IS_ALIVE_CHARACTER",
        "value": 1
      },
      {
        "type": "CARD",
        "value": 1702
      },
      {
        "type": "NOT_HAS_MODIFY_STATE_WITH_TAG",
        "value": 5
      },
      {
        "type": "ONSTAGE",
        "value": 1
      }
    ],
    "EJAJAJBIPGO": [{}, {}],
    "GGKEKHDAEFO": [{}, {}],
    "GGGBONNICJH": 1164259364,
    "HAJJNJOGEEP": "TALENT"
  },
  {
    "Id": 12201,
    "cardType": "GCG_CARD_CHARACTER",
    "CLDIGBBIIHF": "FRIENDLY",
    "MELCHLNCNNE": ["GCG_TAG_NONE", "GCG_TAG_NONE", "GCG_TAG_NONE"],
    "OOBKGCCFACK": ["GCG_TAG_NONE", "GCG_TAG_NONE"],
    "EBCIJENNHAP": [
      {
        "type": "IS_ALIVE_CHARACTER",
        "value": 1
      },
      {
        "type": "CARD",
        "value": 2201
      },
      {
        "type": "NOT_HAS_MODIFY_STATE_WITH_TAG",
        "value": 5
      },
      {
        "type": "ONSTAGE",
        "value": 1
      }
    ],
    "EJAJAJBIPGO": [{}, {}],
    "GGKEKHDAEFO": [{}, {}],
    "GGGBONNICJH": 1402804460,
    "HAJJNJOGEEP": "TALENT"
  },
  {
    "Id": 12202,
    "cardType": "GCG_CARD_CHARACTER",
    "CLDIGBBIIHF": "FRIENDLY",
    "MELCHLNCNNE": ["GCG_TAG_NONE", "GCG_TAG_NONE", "GCG_TAG_NONE"],
    "OOBKGCCFACK": ["GCG_TAG_NONE", "GCG_TAG_NONE"],
    "EBCIJENNHAP": [
      {
        "type": "IS_ALIVE_CHARACTER",
        "value": 1
      },
      {
        "type": "CARD",
        "value": 2202
      },
      {
        "type": "NOT_HAS_MODIFY_STATE_WITH_TAG",
        "value": 5
      },
      {
        "type": "ONSTAGE",
        "value": 1
      }
    ],
    "EJAJAJBIPGO": [{}, {}],
    "GGKEKHDAEFO": [{}, {}],
    "GGGBONNICJH": 4015981380,
    "HAJJNJOGEEP": "TALENT"
  },
  {
    "Id": 12301,
    "cardType": "GCG_CARD_CHARACTER",
    "CLDIGBBIIHF": "FRIENDLY",
    "MELCHLNCNNE": ["GCG_TAG_NONE", "GCG_TAG_NONE", "GCG_TAG_NONE"],
    "OOBKGCCFACK": ["GCG_TAG_NONE", "GCG_TAG_NONE"],
    "EBCIJENNHAP": [
      {
        "type": "IS_ALIVE_CHARACTER",
        "value": 1
      },
      {
        "type": "CARD",
        "value": 2301
      },
      {
        "type": "NOT_HAS_MODIFY_STATE_WITH_TAG",
        "value": 5
      },
      {
        "type": "ONSTAGE",
        "value": 1
      }
    ],
    "EJAJAJBIPGO": [{}, {}],
    "GGKEKHDAEFO": [{}, {}],
    "GGGBONNICJH": 3196067324,
    "HAJJNJOGEEP": "TALENT"
  },
  {
    "Id": 12501,
    "cardType": "GCG_CARD_CHARACTER",
    "CLDIGBBIIHF": "FRIENDLY",
    "MELCHLNCNNE": ["GCG_TAG_NONE", "GCG_TAG_NONE", "GCG_TAG_NONE"],
    "OOBKGCCFACK": ["GCG_TAG_NONE", "GCG_TAG_NONE"],
    "EBCIJENNHAP": [
      {
        "type": "IS_ALIVE_CHARACTER",
        "value": 1
      },
      {
        "type": "CARD",
        "value": 2501
      },
      {
        "type": "NOT_HAS_MODIFY_STATE_WITH_TAG",
        "value": 5
      },
      {
        "type": "ONSTAGE",
        "value": 1
      }
    ],
    "EJAJAJBIPGO": [{}, {}],
    "GGKEKHDAEFO": [{}, {}],
    "GGGBONNICJH": 522393036,
    "HAJJNJOGEEP": "TALENT"
  },
  {
    "Id": 12601,
    "cardType": "GCG_CARD_CHARACTER",
    "CLDIGBBIIHF": "FRIENDLY",
    "MELCHLNCNNE": ["GCG_TAG_NONE", "GCG_TAG_NONE", "GCG_TAG_NONE"],
    "OOBKGCCFACK": ["GCG_TAG_NONE", "GCG_TAG_NONE"],
    "EBCIJENNHAP": [
      {
        "type": "IS_ALIVE_CHARACTER",
        "value": 1
      },
      {
        "type": "CARD",
        "value": 2601
      },
      {
        "type": "NOT_HAS_MODIFY_STATE_WITH_TAG",
        "value": 5
      },
      {
        "type": "ONSTAGE",
        "value": 1
      }
    ],
    "EJAJAJBIPGO": [{}, {}],
    "GGKEKHDAEFO": [{}, {}],
    "GGGBONNICJH": 2066468396,
    "HAJJNJOGEEP": "TALENT"
  },
  {
    "Id": 12701,
    "cardType": "GCG_CARD_CHARACTER",
    "CLDIGBBIIHF": "FRIENDLY",
    "MELCHLNCNNE": ["GCG_TAG_NONE", "GCG_TAG_NONE", "GCG_TAG_NONE"],
    "OOBKGCCFACK": ["GCG_TAG_NONE", "GCG_TAG_NONE"],
    "EBCIJENNHAP": [
      {
        "type": "IS_ALIVE_CHARACTER",
        "value": 1
      },
      {
        "type": "CARD",
        "value": 2701
      },
      {
        "type": "NOT_HAS_MODIFY_STATE_WITH_TAG",
        "value": 5
      },
      {
        "type": "ONSTAGE",
        "value": 1
      }
    ],
    "EJAJAJBIPGO": [{}, {}],
    "GGKEKHDAEFO": [{}, {}],
    "GGGBONNICJH": 1175705604,
    "HAJJNJOGEEP": "TALENT"
  }
]
