[
  {
    "type": "GCG_SKILL_TAG_A",
    "nameTextMapHash": 1653327868
  },
  {
    "type": "GCG_SKILL_TAG_E",
    "nameTextMapHash": 3477257188
  },
  {
    "type": "GCG_SKILL_TAG_Q",
    "nameTextMapHash": 2453877364,
    "DDLDMLCBOFH": 501
  },
  {
    "type": "GCG_SKILL_TAG_PASSIVE",
    "nameTextMapHash": 1313860164,
    "DDLDMLCBOFH": 502
  }
]
