[
  {
    "JAANCFOLJMF": 1,
    "MCJHNGADGDE": 64001,
    "CGFLCGGOPOJ": []
  },
  {
    "JAANCFOLJMF": 2,
    "MCJHNGADGDE": 64002,
    "CGFLCGGOPOJ": [1]
  },
  {
    "JAANCFOLJMF": 3,
    "MCJHNGADGDE": 64003,
    "CGFLCGGOPOJ": [2]
  },
  {
    "JAANCFOLJMF": 4,
    "MCJHNGADGDE": 64004,
    "CGFLCGGOPOJ": [3]
  },
  {
    "JAANCFOLJMF": 5,
    "MCJHNGADGDE": 64005,
    "CGFLCGGOPOJ": [4]
  },
  {
    "JAANCFOLJMF": 6,
    "MCJHNGADGDE": 64006,
    "CGFLCGGOPOJ": [5]
  },
  {
    "JAANCFOLJMF": 7,
    "MCJHNGADGDE": 64007,
    "CGFLCGGOPOJ": [6]
  },
  {
    "JAANCFOLJMF": 8,
    "MCJHNGADGDE": 64008,
    "CGFLCGGOPOJ": [7]
  },
  {
    "JAANCFOLJMF": 9,
    "MCJHNGADGDE": 64009,
    "CGFLCGGOPOJ": [8]
  },
  {
    "JAANCFOLJMF": 10,
    "MCJHNGADGDE": 64010,
    "CGFLCGGOPOJ": [9]
  },
  {
    "JAANCFOLJMF": 11,
    "MCJHNGADGDE": 64011,
    "CGFLCGGOPOJ": [10]
  },
  {
    "JAANCFOLJMF": 12,
    "MCJHNGADGDE": 64012,
    "CGFLCGGOPOJ": [11]
  },
  {
    "JAANCFOLJMF": 13,
    "MCJHNGADGDE": 64013,
    "CGFLCGGOPOJ": [12]
  },
  {
    "JAANCFOLJMF": 14,
    "MCJHNGADGDE": 64014,
    "CGFLCGGOPOJ": [13]
  },
  {
    "JAANCFOLJMF": 15,
    "MCJHNGADGDE": 64015,
    "CGFLCGGOPOJ": [14]
  },
  {
    "JAANCFOLJMF": 16,
    "MCJHNGADGDE": 64016,
    "CGFLCGGOPOJ": [15]
  },
  {
    "JAANCFOLJMF": 17,
    "MCJHNGADGDE": 64017,
    "CGFLCGGOPOJ": [16]
  },
  {
    "JAANCFOLJMF": 18,
    "MCJHNGADGDE": 64018,
    "CGFLCGGOPOJ": [17]
  },
  {
    "JAANCFOLJMF": 19,
    "MCJHNGADGDE": 64019,
    "CGFLCGGOPOJ": [18]
  },
  {
    "JAANCFOLJMF": 20,
    "MCJHNGADGDE": 64020,
    "CGFLCGGOPOJ": [19]
  },
  {
    "JAANCFOLJMF": 21,
    "MCJHNGADGDE": 64021,
    "CGFLCGGOPOJ": [20]
  }
]
