[
  {
    "JJOKHCNNCKD": 2,
    "typeID": 2,
    "NKHDIFMFKNF": 2699366952,
    "ANIOCMEEJFG": 2003,
    "MEHHEHBGHGH": "LQ",
    "order": 1,
    "icon": "ART/UI/Atlas/HandbookGuideIcon/UI_GuideIcon_LegendQuest",
    "GDPIOCGKLHH": true,
    "FEKHMBEFJKM": [
      {
        "param": []
      },
      {
        "param": []
      },
      {
        "param": []
      }
    ]
  },
  {
    "JJOKHCNNCKD": 3,
    "typeID": 2,
    "NKHDIFMFKNF": 1346080752,
    "ANIOCMEEJFG": 2005,
    "MEHHEHBGHGH": "LQ",
    "order": 2,
    "icon": "ART/UI/Atlas/HandbookGuideIcon/UI_GuideIcon_LegendQuest",
    "GDPIOCGKLHH": true,
    "FEKHMBEFJKM": [
      {
        "param": []
      },
      {
        "param": []
      },
      {
        "param": []
      }
    ]
  },
  {
    "JJOKHCNNCKD": 4,
    "typeID": 2,
    "NKHDIFMFKNF": 2146269432,
    "ANIOCMEEJFG": 1105,
    "MEHHEHBGHGH": "WQ",
    "order": 3,
    "icon": "ART/UI/Atlas/HandbookGuideIcon/UI_GuideIcon_MainQuest",
    "FEKHMBEFJKM": [
      {
        "param": []
      },
      {
        "param": []
      },
      {
        "param": []
      }
    ]
  },
  {
    "JJOKHCNNCKD": 5,
    "typeID": 2,
    "NKHDIFMFKNF": 2905360616,
    "ANIOCMEEJFG": 2021,
    "MEHHEHBGHGH": "LQ",
    "order": 4,
    "icon": "ART/UI/Atlas/HandbookGuideIcon/UI_GuideIcon_LegendQuest",
    "GDPIOCGKLHH": true,
    "FEKHMBEFJKM": [
      {
        "param": []
      },
      {
        "param": []
      },
      {
        "param": []
      }
    ]
  },
  {
    "JJOKHCNNCKD": 6,
    "typeID": 2,
    "NKHDIFMFKNF": 2479533392,
    "ANIOCMEEJFG": 2022,
    "MEHHEHBGHGH": "LQ",
    "order": 5,
    "icon": "ART/UI/Atlas/HandbookGuideIcon/UI_GuideIcon_LegendQuest",
    "GDPIOCGKLHH": true,
    "FEKHMBEFJKM": [
      {
        "param": []
      },
      {
        "param": []
      },
      {
        "param": []
      }
    ]
  },
  {
    "JJOKHCNNCKD": 7,
    "typeID": 3,
    "NKHDIFMFKNF": 907672792,
    "AMOFJLKKIAC": 20031,
    "MEHHEHBGHGH": "WQ",
    "order": 1,
    "icon": "ART/UI/Atlas/HandbookGuideIcon/UI_GuideIcon_PlayMethod",
    "FEKHMBEFJKM": [
      {
        "param": []
      },
      {
        "param": []
      },
      {
        "param": []
      }
    ]
  },
  {
    "JJOKHCNNCKD": 8,
    "typeID": 3,
    "NKHDIFMFKNF": 2972094720,
    "AMOFJLKKIAC": 20505,
    "MEHHEHBGHGH": "WQ",
    "order": 2,
    "icon": "ART/UI/Atlas/HandbookGuideIcon/UI_GuideIcon_PlayMethod",
    "FEKHMBEFJKM": [
      {
        "param": []
      },
      {
        "param": []
      },
      {
        "param": []
      }
    ]
  },
  {
    "JJOKHCNNCKD": 9,
    "typeID": 3,
    "NKHDIFMFKNF": 3301133712,
    "AMOFJLKKIAC": 20506,
    "MEHHEHBGHGH": "WQ",
    "order": 3,
    "icon": "ART/UI/Atlas/HandbookGuideIcon/UI_GuideIcon_PlayMethod",
    "FEKHMBEFJKM": [
      {
        "param": []
      },
      {
        "param": []
      },
      {
        "param": []
      }
    ]
  },
  {
    "JJOKHCNNCKD": 10,
    "typeID": 3,
    "NKHDIFMFKNF": 1438839112,
    "AMOFJLKKIAC": 70650,
    "MEHHEHBGHGH": "WQ",
    "order": 4,
    "icon": "ART/UI/Atlas/HandbookGuideIcon/UI_GuideIcon_PlayMethod",
    "FEKHMBEFJKM": [
      {
        "param": []
      },
      {
        "param": []
      },
      {
        "param": []
      }
    ]
  },
  {
    "JJOKHCNNCKD": 11,
    "typeID": 3,
    "NKHDIFMFKNF": 4234611992,
    "AMOFJLKKIAC": 70651,
    "MEHHEHBGHGH": "WQ",
    "order": 5,
    "icon": "ART/UI/Atlas/HandbookGuideIcon/UI_GuideIcon_PlayMethod",
    "FEKHMBEFJKM": [
      {
        "param": []
      },
      {
        "param": []
      },
      {
        "param": []
      }
    ]
  },
  {
    "JJOKHCNNCKD": 12,
    "typeID": 3,
    "NKHDIFMFKNF": 4127691256,
    "AMOFJLKKIAC": 22111,
    "MEHHEHBGHGH": "WQ",
    "order": 6,
    "icon": "ART/UI/Atlas/HandbookGuideIcon/UI_GuideIcon_PlayMethod",
    "FEKHMBEFJKM": [
      {
        "param": []
      },
      {
        "param": []
      },
      {
        "param": []
      }
    ]
  },
  {
    "JJOKHCNNCKD": 13,
    "typeID": 3,
    "NKHDIFMFKNF": 3001418600,
    "AMOFJLKKIAC": 71650,
    "MEHHEHBGHGH": "WQ",
    "order": 7,
    "icon": "ART/UI/Atlas/HandbookGuideIcon/UI_GuideIcon_PlayMethod",
    "FEKHMBEFJKM": [
      {
        "param": []
      },
      {
        "param": []
      },
      {
        "param": []
      }
    ]
  },
  {
    "JJOKHCNNCKD": 14,
    "typeID": 3,
    "NKHDIFMFKNF": 3959877576,
    "AMOFJLKKIAC": 11008,
    "MEHHEHBGHGH": "WQ",
    "order": 8,
    "icon": "ART/UI/Atlas/HandbookGuideIcon/UI_GuideIcon_PlayMethod",
    "FEKHMBEFJKM": [
      {
        "param": []
      },
      {
        "param": []
      },
      {
        "param": []
      }
    ]
  },
  {
    "JJOKHCNNCKD": 15,
    "typeID": 3,
    "NKHDIFMFKNF": 2293697904,
    "AMOFJLKKIAC": 70665,
    "MEHHEHBGHGH": "WQ",
    "order": 9,
    "icon": "ART/UI/Atlas/HandbookGuideIcon/UI_GuideIcon_PlayMethod",
    "FEKHMBEFJKM": [
      {
        "param": []
      },
      {
        "param": []
      },
      {
        "param": []
      }
    ]
  },
  {
    "JJOKHCNNCKD": 16,
    "typeID": 3,
    "NKHDIFMFKNF": 1924299440,
    "AMOFJLKKIAC": 70661,
    "MEHHEHBGHGH": "WQ",
    "order": 10,
    "icon": "ART/UI/Atlas/HandbookGuideIcon/UI_GuideIcon_PlayMethod",
    "FEKHMBEFJKM": [
      {
        "param": []
      },
      {
        "param": []
      },
      {
        "param": []
      }
    ]
  },
  {
    "JJOKHCNNCKD": 17,
    "typeID": 3,
    "NKHDIFMFKNF": 3334789056,
    "AMOFJLKKIAC": 72657,
    "MEHHEHBGHGH": "WQ",
    "order": 11,
    "icon": "ART/UI/Atlas/HandbookGuideIcon/UI_GuideIcon_PlayMethod",
    "FEKHMBEFJKM": [
      {
        "param": []
      },
      {
        "param": []
      },
      {
        "param": []
      }
    ]
  },
  {
    "JJOKHCNNCKD": 18,
    "typeID": 3,
    "NKHDIFMFKNF": 431177464,
    "AMOFJLKKIAC": 71654,
    "MEHHEHBGHGH": "WQ",
    "order": 12,
    "icon": "ART/UI/Atlas/HandbookGuideIcon/UI_GuideIcon_PlayMethod",
    "FEKHMBEFJKM": [
      {
        "param": []
      },
      {
        "param": []
      },
      {
        "param": []
      }
    ]
  },
  {
    "JJOKHCNNCKD": 19,
    "typeID": 3,
    "NKHDIFMFKNF": 4223935904,
    "AMOFJLKKIAC": 71655,
    "MEHHEHBGHGH": "WQ",
    "order": 13,
    "icon": "ART/UI/Atlas/HandbookGuideIcon/UI_GuideIcon_PlayMethod",
    "FEKHMBEFJKM": [
      {
        "param": []
      },
      {
        "param": []
      },
      {
        "param": []
      }
    ]
  },
  {
    "JJOKHCNNCKD": 20,
    "typeID": 3,
    "NKHDIFMFKNF": 2800066928,
    "AMOFJLKKIAC": 72183,
    "MEHHEHBGHGH": "WQ",
    "order": 14,
    "icon": "ART/UI/Atlas/HandbookGuideIcon/UI_GuideIcon_PlayMethod",
    "FEKHMBEFJKM": [
      {
        "param": []
      },
      {
        "param": []
      },
      {
        "param": []
      }
    ]
  },
  {
    "JJOKHCNNCKD": 21,
    "typeID": 3,
    "NKHDIFMFKNF": 2872530896,
    "AMOFJLKKIAC": 73802,
    "MEHHEHBGHGH": "WQ",
    "order": 15,
    "icon": "ART/UI/Atlas/HandbookGuideIcon/UI_GuideIcon_PlayMethod",
    "FEKHMBEFJKM": [
      {
        "param": []
      },
      {
        "param": []
      },
      {
        "param": []
      }
    ]
  },
  {
    "JJOKHCNNCKD": 22,
    "typeID": 3,
    "NKHDIFMFKNF": 2953500184,
    "AMOFJLKKIAC": 73673,
    "MEHHEHBGHGH": "WQ",
    "order": 16,
    "icon": "ART/UI/Atlas/HandbookGuideIcon/UI_GuideIcon_PlayMethod",
    "FEKHMBEFJKM": [
      {
        "param": []
      },
      {
        "param": []
      },
      {
        "param": []
      }
    ]
  },
  {
    "JJOKHCNNCKD": 23,
    "typeID": 4,
    "NKHDIFMFKNF": 2158662944,
    "AMOFJLKKIAC": 72233,
    "MEHHEHBGHGH": "WQ",
    "order": 1,
    "icon": "ART/UI/Atlas/HandbookGuideIcon/UI_GuideIcon_PlotUnlock",
    "FEKHMBEFJKM": [
      {
        "param": []
      },
      {
        "param": []
      },
      {
        "param": []
      }
    ]
  },
  {
    "JJOKHCNNCKD": 24,
    "typeID": 4,
    "NKHDIFMFKNF": 688803792,
    "ANIOCMEEJFG": 10051,
    "MEHHEHBGHGH": "WQ",
    "order": 2,
    "icon": "ART/UI/Atlas/HandbookGuideIcon/UI_GuideIcon_PlotUnlock",
    "FEKHMBEFJKM": [
      {
        "param": []
      },
      {
        "param": []
      },
      {
        "param": []
      }
    ]
  },
  {
    "JJOKHCNNCKD": 25,
    "typeID": 5,
    "NKHDIFMFKNF": 3260427632,
    "ANIOCMEEJFG": 2020,
    "MEHHEHBGHGH": "LQ",
    "order": 1,
    "icon": "ART/UI/Atlas/HandbookGuideIcon/UI_GuideIcon_LegendQuest",
    "GDPIOCGKLHH": true,
    "FEKHMBEFJKM": [
      {
        "type": "QUEST_GUIDE_SHOW_COND_LEVEL_GT_OR_EQ",
        "param": [40]
      },
      {
        "type": "QUEST_GUIDE_SHOW_COND_PREQUEST_FINISHED",
        "param": [1102402]
      },
      {
        "param": []
      }
    ]
  },
  {
    "JJOKHCNNCKD": 26,
    "typeID": 5,
    "NKHDIFMFKNF": 2022840632,
    "ANIOCMEEJFG": 2027,
    "MEHHEHBGHGH": "LQ",
    "order": 2,
    "icon": "ART/UI/Atlas/HandbookGuideIcon/UI_GuideIcon_LegendQuest",
    "GDPIOCGKLHH": true,
    "FEKHMBEFJKM": [
      {
        "type": "QUEST_GUIDE_SHOW_COND_LEVEL_GT_OR_EQ",
        "param": [40]
      },
      {
        "type": "QUEST_GUIDE_SHOW_COND_PREQUEST_FINISHED",
        "param": [1201812]
      },
      {
        "param": []
      }
    ]
  },
  {
    "JJOKHCNNCKD": 27,
    "typeID": 5,
    "NKHDIFMFKNF": 3925778592,
    "ANIOCMEEJFG": 2039,
    "MEHHEHBGHGH": "LQ",
    "order": 3,
    "icon": "ART/UI/Atlas/HandbookGuideIcon/UI_GuideIcon_LegendQuest",
    "GDPIOCGKLHH": true,
    "FEKHMBEFJKM": [
      {
        "type": "QUEST_GUIDE_SHOW_COND_LEVEL_GT_OR_EQ",
        "param": [40]
      },
      {
        "type": "QUEST_GUIDE_SHOW_COND_PREQUEST_FINISHED",
        "param": [1301504]
      },
      {
        "param": []
      }
    ]
  },
  {
    "JJOKHCNNCKD": 28,
    "typeID": 7,
    "NKHDIFMFKNF": 3253251888,
    "ANIOCMEEJFG": 2013,
    "MEHHEHBGHGH": "LQ",
    "order": 1,
    "icon": "ART/UI/Atlas/HandbookGuideIcon/UI_GuideIcon_LegendQuest",
    "EJDLKOMKCBI": 1,
    "FEKHMBEFJKM": [
      {
        "type": "QUEST_GUIDE_SHOW_COND_LEVEL_GT_OR_EQ",
        "param": [26]
      },
      {
        "param": []
      },
      {
        "param": []
      }
    ]
  },
  {
    "JJOKHCNNCKD": 29,
    "typeID": 7,
    "NKHDIFMFKNF": 3365386944,
    "ANIOCMEEJFG": 2014,
    "MEHHEHBGHGH": "LQ",
    "order": 2,
    "icon": "ART/UI/Atlas/HandbookGuideIcon/UI_GuideIcon_LegendQuest",
    "EJDLKOMKCBI": 1,
    "FEKHMBEFJKM": [
      {
        "type": "QUEST_GUIDE_SHOW_COND_LEVEL_GT_OR_EQ",
        "param": [26]
      },
      {
        "param": []
      },
      {
        "param": []
      }
    ]
  },
  {
    "JJOKHCNNCKD": 30,
    "typeID": 7,
    "NKHDIFMFKNF": 1834911112,
    "ANIOCMEEJFG": 2023,
    "MEHHEHBGHGH": "LQ",
    "order": 3,
    "icon": "ART/UI/Atlas/HandbookGuideIcon/UI_GuideIcon_LegendQuest",
    "EJDLKOMKCBI": 1,
    "FEKHMBEFJKM": [
      {
        "type": "QUEST_GUIDE_SHOW_COND_LEVEL_GT_OR_EQ",
        "param": [26]
      },
      {
        "param": []
      },
      {
        "param": []
      }
    ]
  },
  {
    "JJOKHCNNCKD": 31,
    "typeID": 7,
    "NKHDIFMFKNF": 2291523728,
    "ANIOCMEEJFG": 2001,
    "MEHHEHBGHGH": "LQ",
    "order": 4,
    "icon": "ART/UI/Atlas/HandbookGuideIcon/UI_GuideIcon_LegendQuest",
    "EJDLKOMKCBI": 1,
    "FEKHMBEFJKM": [
      {
        "param": []
      },
      {
        "param": []
      },
      {
        "param": []
      }
    ]
  },
  {
    "JJOKHCNNCKD": 32,
    "typeID": 7,
    "NKHDIFMFKNF": 3340703848,
    "ANIOCMEEJFG": 2002,
    "MEHHEHBGHGH": "LQ",
    "order": 5,
    "icon": "ART/UI/Atlas/HandbookGuideIcon/UI_GuideIcon_LegendQuest",
    "EJDLKOMKCBI": 1,
    "FEKHMBEFJKM": [
      {
        "param": []
      },
      {
        "param": []
      },
      {
        "param": []
      }
    ]
  },
  {
    "JJOKHCNNCKD": 33,
    "typeID": 7,
    "NKHDIFMFKNF": 3547580600,
    "ANIOCMEEJFG": 2004,
    "MEHHEHBGHGH": "LQ",
    "order": 6,
    "icon": "ART/UI/Atlas/HandbookGuideIcon/UI_GuideIcon_LegendQuest",
    "EJDLKOMKCBI": 1,
    "FEKHMBEFJKM": [
      {
        "param": []
      },
      {
        "param": []
      },
      {
        "param": []
      }
    ]
  },
  {
    "JJOKHCNNCKD": 34,
    "typeID": 7,
    "NKHDIFMFKNF": 652044072,
    "ANIOCMEEJFG": 2006,
    "MEHHEHBGHGH": "LQ",
    "order": 7,
    "icon": "ART/UI/Atlas/HandbookGuideIcon/UI_GuideIcon_LegendQuest",
    "EJDLKOMKCBI": 1,
    "FEKHMBEFJKM": [
      {
        "type": "QUEST_GUIDE_SHOW_COND_LEVEL_GT_OR_EQ",
        "param": [26]
      },
      {
        "param": []
      },
      {
        "param": []
      }
    ]
  },
  {
    "JJOKHCNNCKD": 35,
    "typeID": 7,
    "NKHDIFMFKNF": 228032160,
    "ANIOCMEEJFG": 2007,
    "MEHHEHBGHGH": "LQ",
    "order": 8,
    "icon": "ART/UI/Atlas/HandbookGuideIcon/UI_GuideIcon_LegendQuest",
    "EJDLKOMKCBI": 1,
    "FEKHMBEFJKM": [
      {
        "param": []
      },
      {
        "param": []
      },
      {
        "param": []
      }
    ]
  },
  {
    "JJOKHCNNCKD": 36,
    "typeID": 7,
    "NKHDIFMFKNF": 988613528,
    "ANIOCMEEJFG": 2008,
    "MEHHEHBGHGH": "LQ",
    "order": 9,
    "icon": "ART/UI/Atlas/HandbookGuideIcon/UI_GuideIcon_LegendQuest",
    "EJDLKOMKCBI": 1,
    "FEKHMBEFJKM": [
      {
        "param": []
      },
      {
        "param": []
      },
      {
        "param": []
      }
    ]
  },
  {
    "JJOKHCNNCKD": 37,
    "typeID": 7,
    "NKHDIFMFKNF": 1430036296,
    "ANIOCMEEJFG": 2009,
    "MEHHEHBGHGH": "LQ",
    "order": 10,
    "icon": "ART/UI/Atlas/HandbookGuideIcon/UI_GuideIcon_LegendQuest",
    "EJDLKOMKCBI": 1,
    "FEKHMBEFJKM": [
      {
        "type": "QUEST_GUIDE_SHOW_COND_LEVEL_GT_OR_EQ",
        "param": [26]
      },
      {
        "param": []
      },
      {
        "param": []
      }
    ]
  },
  {
    "JJOKHCNNCKD": 38,
    "typeID": 7,
    "NKHDIFMFKNF": 3922973192,
    "ANIOCMEEJFG": 2010,
    "MEHHEHBGHGH": "LQ",
    "order": 11,
    "icon": "ART/UI/Atlas/HandbookGuideIcon/UI_GuideIcon_LegendQuest",
    "EJDLKOMKCBI": 1,
    "FEKHMBEFJKM": [
      {
        "type": "QUEST_GUIDE_SHOW_COND_LEVEL_GT_OR_EQ",
        "param": [26]
      },
      {
        "param": []
      },
      {
        "param": []
      }
    ]
  },
  {
    "JJOKHCNNCKD": 39,
    "typeID": 7,
    "NKHDIFMFKNF": 503601088,
    "ANIOCMEEJFG": 2011,
    "MEHHEHBGHGH": "LQ",
    "order": 12,
    "icon": "ART/UI/Atlas/HandbookGuideIcon/UI_GuideIcon_LegendQuest",
    "EJDLKOMKCBI": 1,
    "FEKHMBEFJKM": [
      {
        "type": "QUEST_GUIDE_SHOW_COND_LEVEL_GT_OR_EQ",
        "param": [26]
      },
      {
        "param": []
      },
      {
        "param": []
      }
    ]
  },
  {
    "JJOKHCNNCKD": 40,
    "typeID": 7,
    "NKHDIFMFKNF": 448765144,
    "ANIOCMEEJFG": 2012,
    "MEHHEHBGHGH": "LQ",
    "order": 13,
    "icon": "ART/UI/Atlas/HandbookGuideIcon/UI_GuideIcon_LegendQuest",
    "EJDLKOMKCBI": 1,
    "FEKHMBEFJKM": [
      {
        "type": "QUEST_GUIDE_SHOW_COND_LEVEL_GT_OR_EQ",
        "param": [26]
      },
      {
        "param": []
      },
      {
        "param": []
      }
    ]
  },
  {
    "JJOKHCNNCKD": 41,
    "typeID": 7,
    "NKHDIFMFKNF": 4075548784,
    "ANIOCMEEJFG": 2016,
    "MEHHEHBGHGH": "LQ",
    "order": 14,
    "icon": "ART/UI/Atlas/HandbookGuideIcon/UI_GuideIcon_LegendQuest",
    "EJDLKOMKCBI": 1,
    "FEKHMBEFJKM": [
      {
        "type": "QUEST_GUIDE_SHOW_COND_LEVEL_GT_OR_EQ",
        "param": [26]
      },
      {
        "param": []
      },
      {
        "param": []
      }
    ]
  },
  {
    "JJOKHCNNCKD": 42,
    "typeID": 7,
    "NKHDIFMFKNF": 2351156544,
    "ANIOCMEEJFG": 2017,
    "MEHHEHBGHGH": "LQ",
    "order": 15,
    "icon": "ART/UI/Atlas/HandbookGuideIcon/UI_GuideIcon_LegendQuest",
    "EJDLKOMKCBI": 1,
    "FEKHMBEFJKM": [
      {
        "type": "QUEST_GUIDE_SHOW_COND_LEVEL_GT_OR_EQ",
        "param": [26]
      },
      {
        "param": []
      },
      {
        "param": []
      }
    ]
  },
  {
    "JJOKHCNNCKD": 43,
    "typeID": 7,
    "NKHDIFMFKNF": 3503761440,
    "ANIOCMEEJFG": 2018,
    "MEHHEHBGHGH": "LQ",
    "order": 16,
    "icon": "ART/UI/Atlas/HandbookGuideIcon/UI_GuideIcon_LegendQuest",
    "EJDLKOMKCBI": 1,
    "FEKHMBEFJKM": [
      {
        "type": "QUEST_GUIDE_SHOW_COND_LEVEL_GT_OR_EQ",
        "param": [26]
      },
      {
        "param": []
      },
      {
        "param": []
      }
    ]
  },
  {
    "JJOKHCNNCKD": 44,
    "typeID": 7,
    "NKHDIFMFKNF": 3305527360,
    "ANIOCMEEJFG": 2019,
    "MEHHEHBGHGH": "LQ",
    "order": 17,
    "icon": "ART/UI/Atlas/HandbookGuideIcon/UI_GuideIcon_LegendQuest",
    "EJDLKOMKCBI": 1,
    "FEKHMBEFJKM": [
      {
        "type": "QUEST_GUIDE_SHOW_COND_LEVEL_GT_OR_EQ",
        "param": [26]
      },
      {
        "param": []
      },
      {
        "param": []
      }
    ]
  },
  {
    "JJOKHCNNCKD": 45,
    "typeID": 7,
    "NKHDIFMFKNF": 1036100336,
    "ANIOCMEEJFG": 2024,
    "MEHHEHBGHGH": "LQ",
    "order": 18,
    "icon": "ART/UI/Atlas/HandbookGuideIcon/UI_GuideIcon_LegendQuest",
    "EJDLKOMKCBI": 1,
    "FEKHMBEFJKM": [
      {
        "type": "QUEST_GUIDE_SHOW_COND_LEVEL_GT_OR_EQ",
        "param": [26]
      },
      {
        "param": []
      },
      {
        "param": []
      }
    ]
  },
  {
    "JJOKHCNNCKD": 46,
    "typeID": 7,
    "NKHDIFMFKNF": 3820873584,
    "ANIOCMEEJFG": 2025,
    "MEHHEHBGHGH": "LQ",
    "order": 19,
    "icon": "ART/UI/Atlas/HandbookGuideIcon/UI_GuideIcon_LegendQuest",
    "EJDLKOMKCBI": 1,
    "FEKHMBEFJKM": [
      {
        "type": "QUEST_GUIDE_SHOW_COND_LEVEL_GT_OR_EQ",
        "param": [26]
      },
      {
        "param": []
      },
      {
        "param": []
      }
    ]
  },
  {
    "JJOKHCNNCKD": 47,
    "typeID": 7,
    "NKHDIFMFKNF": 992890232,
    "ANIOCMEEJFG": 2026,
    "MEHHEHBGHGH": "LQ",
    "order": 20,
    "icon": "ART/UI/Atlas/HandbookGuideIcon/UI_GuideIcon_LegendQuest",
    "EJDLKOMKCBI": 1,
    "FEKHMBEFJKM": [
      {
        "type": "QUEST_GUIDE_SHOW_COND_LEVEL_GT_OR_EQ",
        "param": [26]
      },
      {
        "param": []
      },
      {
        "param": []
      }
    ]
  },
  {
    "JJOKHCNNCKD": 48,
    "typeID": 7,
    "NKHDIFMFKNF": 3335885560,
    "ANIOCMEEJFG": 2028,
    "MEHHEHBGHGH": "LQ",
    "order": 21,
    "icon": "ART/UI/Atlas/HandbookGuideIcon/UI_GuideIcon_LegendQuest",
    "EJDLKOMKCBI": 1,
    "FEKHMBEFJKM": [
      {
        "type": "QUEST_GUIDE_SHOW_COND_LEVEL_GT_OR_EQ",
        "param": [26]
      },
      {
        "param": []
      },
      {
        "param": []
      }
    ]
  },
  {
    "JJOKHCNNCKD": 49,
    "typeID": 7,
    "NKHDIFMFKNF": 3948852688,
    "ANIOCMEEJFG": 2029,
    "MEHHEHBGHGH": "LQ",
    "order": 22,
    "icon": "ART/UI/Atlas/HandbookGuideIcon/UI_GuideIcon_LegendQuest",
    "EJDLKOMKCBI": 1,
    "FEKHMBEFJKM": [
      {
        "type": "QUEST_GUIDE_SHOW_COND_LEVEL_GT_OR_EQ",
        "param": [26]
      },
      {
        "param": []
      },
      {
        "param": []
      }
    ]
  },
  {
    "JJOKHCNNCKD": 50,
    "typeID": 7,
    "NKHDIFMFKNF": 35657064,
    "ANIOCMEEJFG": 2031,
    "MEHHEHBGHGH": "LQ",
    "order": 23,
    "icon": "ART/UI/Atlas/HandbookGuideIcon/UI_GuideIcon_LegendQuest",
    "EJDLKOMKCBI": 1,
    "FEKHMBEFJKM": [
      {
        "type": "QUEST_GUIDE_SHOW_COND_LEVEL_GT_OR_EQ",
        "param": [26]
      },
      {
        "param": []
      },
      {
        "param": []
      }
    ]
  },
  {
    "JJOKHCNNCKD": 51,
    "typeID": 7,
    "NKHDIFMFKNF": 423005392,
    "ANIOCMEEJFG": 2030,
    "MEHHEHBGHGH": "LQ",
    "order": 24,
    "icon": "ART/UI/Atlas/HandbookGuideIcon/UI_GuideIcon_LegendQuest",
    "EJDLKOMKCBI": 1,
    "FEKHMBEFJKM": [
      {
        "type": "QUEST_GUIDE_SHOW_COND_LEVEL_GT_OR_EQ",
        "param": [26]
      },
      {
        "param": []
      },
      {
        "param": []
      }
    ]
  },
  {
    "JJOKHCNNCKD": 52,
    "typeID": 7,
    "NKHDIFMFKNF": 3244611368,
    "ANIOCMEEJFG": 2032,
    "MEHHEHBGHGH": "LQ",
    "order": 25,
    "icon": "ART/UI/Atlas/HandbookGuideIcon/UI_GuideIcon_LegendQuest",
    "EJDLKOMKCBI": 1,
    "FEKHMBEFJKM": [
      {
        "type": "QUEST_GUIDE_SHOW_COND_LEVEL_GT_OR_EQ",
        "param": [26]
      },
      {
        "param": []
      },
      {
        "param": []
      }
    ]
  },
  {
    "JJOKHCNNCKD": 53,
    "typeID": 7,
    "NKHDIFMFKNF": 1179574712,
    "ANIOCMEEJFG": 2033,
    "MEHHEHBGHGH": "LQ",
    "order": 26,
    "icon": "ART/UI/Atlas/HandbookGuideIcon/UI_GuideIcon_LegendQuest",
    "EJDLKOMKCBI": 1,
    "FEKHMBEFJKM": [
      {
        "type": "QUEST_GUIDE_SHOW_COND_LEVEL_GT_OR_EQ",
        "param": [26]
      },
      {
        "param": []
      },
      {
        "param": []
      }
    ]
  },
  {
    "JJOKHCNNCKD": 54,
    "typeID": 7,
    "NKHDIFMFKNF": 3690217144,
    "ANIOCMEEJFG": 2034,
    "MEHHEHBGHGH": "LQ",
    "order": 27,
    "icon": "ART/UI/Atlas/HandbookGuideIcon/UI_GuideIcon_LegendQuest",
    "EJDLKOMKCBI": 1,
    "FEKHMBEFJKM": [
      {
        "type": "QUEST_GUIDE_SHOW_COND_LEVEL_GT_OR_EQ",
        "param": [26]
      },
      {
        "param": []
      },
      {
        "param": []
      }
    ]
  },
  {
    "JJOKHCNNCKD": 55,
    "typeID": 7,
    "NKHDIFMFKNF": 54245632,
    "ANIOCMEEJFG": 2035,
    "MEHHEHBGHGH": "LQ",
    "order": 28,
    "icon": "ART/UI/Atlas/HandbookGuideIcon/UI_GuideIcon_LegendQuest",
    "EJDLKOMKCBI": 1,
    "FEKHMBEFJKM": [
      {
        "type": "QUEST_GUIDE_SHOW_COND_LEVEL_GT_OR_EQ",
        "param": [26]
      },
      {
        "param": []
      },
      {
        "param": []
      }
    ]
  },
  {
    "JJOKHCNNCKD": 56,
    "typeID": 7,
    "NKHDIFMFKNF": 864432704,
    "ANIOCMEEJFG": 2036,
    "MEHHEHBGHGH": "LQ",
    "order": 29,
    "icon": "ART/UI/Atlas/HandbookGuideIcon/UI_GuideIcon_LegendQuest",
    "EJDLKOMKCBI": 1,
    "FEKHMBEFJKM": [
      {
        "type": "QUEST_GUIDE_SHOW_COND_LEVEL_GT_OR_EQ",
        "param": [26]
      },
      {
        "param": []
      },
      {
        "param": []
      }
    ]
  },
  {
    "JJOKHCNNCKD": 57,
    "typeID": 7,
    "NKHDIFMFKNF": 802897104,
    "ANIOCMEEJFG": 2037,
    "MEHHEHBGHGH": "LQ",
    "order": 30,
    "icon": "ART/UI/Atlas/HandbookGuideIcon/UI_GuideIcon_LegendQuest",
    "EJDLKOMKCBI": 1,
    "FEKHMBEFJKM": [
      {
        "type": "QUEST_GUIDE_SHOW_COND_LEVEL_GT_OR_EQ",
        "param": [26]
      },
      {
        "param": []
      },
      {
        "param": []
      }
    ]
  },
  {
    "JJOKHCNNCKD": 58,
    "typeID": 8,
    "NKHDIFMFKNF": 1110857312,
    "AMOFJLKKIAC": 71811,
    "MEHHEHBGHGH": "WQ",
    "order": 1,
    "icon": "ART/UI/Atlas/HandbookGuideIcon/UI_GuideIcon_Packet",
    "FEKHMBEFJKM": [
      {
        "param": []
      },
      {
        "param": []
      },
      {
        "param": []
      }
    ]
  },
  {
    "JJOKHCNNCKD": 59,
    "typeID": 8,
    "NKHDIFMFKNF": 824184224,
    "AMOFJLKKIAC": 71812,
    "MEHHEHBGHGH": "WQ",
    "order": 2,
    "icon": "ART/UI/Atlas/HandbookGuideIcon/UI_GuideIcon_Packet",
    "FEKHMBEFJKM": [
      {
        "param": []
      },
      {
        "param": []
      },
      {
        "param": []
      }
    ]
  },
  {
    "JJOKHCNNCKD": 60,
    "typeID": 8,
    "NKHDIFMFKNF": 839869736,
    "AMOFJLKKIAC": 72672,
    "MEHHEHBGHGH": "WQ",
    "order": 3,
    "icon": "ART/UI/Atlas/HandbookGuideIcon/UI_GuideIcon_Packet",
    "FEKHMBEFJKM": [
      {
        "param": []
      },
      {
        "param": []
      },
      {
        "param": []
      }
    ]
  },
  {
    "JJOKHCNNCKD": 61,
    "typeID": 8,
    "NKHDIFMFKNF": 1466414528,
    "AMOFJLKKIAC": 41402,
    "MEHHEHBGHGH": "WQ",
    "order": 4,
    "icon": "ART/UI/Atlas/HandbookGuideIcon/UI_GuideIcon_Packet",
    "FEKHMBEFJKM": [
      {
        "param": []
      },
      {
        "param": []
      },
      {
        "param": []
      }
    ]
  },
  {
    "JJOKHCNNCKD": 62,
    "typeID": 9,
    "NKHDIFMFKNF": 574179640,
    "AMOFJLKKIAC": 70141,
    "MEHHEHBGHGH": "WQ",
    "order": 1,
    "icon": "ART/UI/Atlas/HandbookGuideIcon/UI_GuideIcon_Explore",
    "FEKHMBEFJKM": [
      {
        "param": []
      },
      {
        "param": []
      },
      {
        "param": []
      }
    ]
  },
  {
    "JJOKHCNNCKD": 63,
    "typeID": 9,
    "NKHDIFMFKNF": 486264600,
    "ANIOCMEEJFG": 10061,
    "MEHHEHBGHGH": "WQ",
    "order": 2,
    "icon": "ART/UI/Atlas/HandbookGuideIcon/UI_GuideIcon_Explore",
    "FEKHMBEFJKM": [
      {
        "param": []
      },
      {
        "param": []
      },
      {
        "param": []
      }
    ]
  },
  {
    "JJOKHCNNCKD": 64,
    "typeID": 9,
    "NKHDIFMFKNF": 1239997536,
    "ANIOCMEEJFG": 10031,
    "MEHHEHBGHGH": "WQ",
    "order": 3,
    "icon": "ART/UI/Atlas/HandbookGuideIcon/UI_GuideIcon_Explore",
    "FEKHMBEFJKM": [
      {
        "param": []
      },
      {
        "param": []
      },
      {
        "param": []
      }
    ]
  },
  {
    "JJOKHCNNCKD": 65,
    "typeID": 9,
    "NKHDIFMFKNF": 1567416096,
    "ANIOCMEEJFG": 10032,
    "MEHHEHBGHGH": "WQ",
    "order": 4,
    "icon": "ART/UI/Atlas/HandbookGuideIcon/UI_GuideIcon_Explore",
    "FEKHMBEFJKM": [
      {
        "param": []
      },
      {
        "param": []
      },
      {
        "param": []
      }
    ]
  },
  {
    "JJOKHCNNCKD": 66,
    "typeID": 9,
    "NKHDIFMFKNF": 4074530760,
    "ANIOCMEEJFG": 10055,
    "MEHHEHBGHGH": "WQ",
    "order": 5,
    "icon": "ART/UI/Atlas/HandbookGuideIcon/UI_GuideIcon_Explore",
    "FEKHMBEFJKM": [
      {
        "param": []
      },
      {
        "param": []
      },
      {
        "param": []
      }
    ]
  },
  {
    "JJOKHCNNCKD": 67,
    "typeID": 9,
    "NKHDIFMFKNF": 2990345296,
    "ANIOCMEEJFG": 10025,
    "MEHHEHBGHGH": "WQ",
    "order": 6,
    "icon": "ART/UI/Atlas/HandbookGuideIcon/UI_GuideIcon_Explore",
    "FEKHMBEFJKM": [
      {
        "param": []
      },
      {
        "param": []
      },
      {
        "param": []
      }
    ]
  },
  {
    "JJOKHCNNCKD": 68,
    "typeID": 9,
    "NKHDIFMFKNF": 314970712,
    "ANIOCMEEJFG": 10036,
    "MEHHEHBGHGH": "WQ",
    "order": 7,
    "icon": "ART/UI/Atlas/HandbookGuideIcon/UI_GuideIcon_Explore",
    "FEKHMBEFJKM": [
      {
        "param": []
      },
      {
        "param": []
      },
      {
        "param": []
      }
    ]
  },
  {
    "JJOKHCNNCKD": 69,
    "typeID": 9,
    "NKHDIFMFKNF": 175793032,
    "ANIOCMEEJFG": 10037,
    "MEHHEHBGHGH": "WQ",
    "order": 8,
    "icon": "ART/UI/Atlas/HandbookGuideIcon/UI_GuideIcon_Explore",
    "FEKHMBEFJKM": [
      {
        "param": []
      },
      {
        "param": []
      },
      {
        "param": []
      }
    ]
  },
  {
    "JJOKHCNNCKD": 70,
    "typeID": 9,
    "NKHDIFMFKNF": 1252922936,
    "ANIOCMEEJFG": 10044,
    "MEHHEHBGHGH": "WQ",
    "order": 9,
    "icon": "ART/UI/Atlas/HandbookGuideIcon/UI_GuideIcon_Explore",
    "FEKHMBEFJKM": [
      {
        "param": []
      },
      {
        "param": []
      },
      {
        "param": []
      }
    ]
  },
  {
    "JJOKHCNNCKD": 71,
    "typeID": 9,
    "NKHDIFMFKNF": 2683747528,
    "ANIOCMEEJFG": 10073,
    "MEHHEHBGHGH": "WQ",
    "order": 10,
    "icon": "ART/UI/Atlas/HandbookGuideIcon/UI_GuideIcon_Explore",
    "FEKHMBEFJKM": [
      {
        "param": []
      },
      {
        "param": []
      },
      {
        "param": []
      }
    ]
  },
  {
    "JJOKHCNNCKD": 72,
    "typeID": 9,
    "NKHDIFMFKNF": 2950139088,
    "ANIOCMEEJFG": 10076,
    "MEHHEHBGHGH": "WQ",
    "order": 11,
    "icon": "ART/UI/Atlas/HandbookGuideIcon/UI_GuideIcon_Explore",
    "FEKHMBEFJKM": [
      {
        "param": []
      },
      {
        "param": []
      },
      {
        "param": []
      }
    ]
  },
  {
    "JJOKHCNNCKD": 73,
    "typeID": 9,
    "NKHDIFMFKNF": 1158810936,
    "ANIOCMEEJFG": 10069,
    "MEHHEHBGHGH": "WQ",
    "order": 12,
    "icon": "ART/UI/Atlas/HandbookGuideIcon/UI_GuideIcon_Explore",
    "FEKHMBEFJKM": [
      {
        "param": []
      },
      {
        "param": []
      },
      {
        "param": []
      }
    ]
  },
  {
    "JJOKHCNNCKD": 74,
    "typeID": 9,
    "NKHDIFMFKNF": 3606907448,
    "ANIOCMEEJFG": 10083,
    "MEHHEHBGHGH": "WQ",
    "order": 13,
    "icon": "ART/UI/Atlas/HandbookGuideIcon/UI_GuideIcon_Explore",
    "FEKHMBEFJKM": [
      {
        "param": []
      },
      {
        "param": []
      },
      {
        "param": []
      }
    ]
  },
  {
    "JJOKHCNNCKD": 75,
    "typeID": 9,
    "NKHDIFMFKNF": 963558608,
    "ANIOCMEEJFG": 10072,
    "MEHHEHBGHGH": "WQ",
    "order": 14,
    "icon": "ART/UI/Atlas/HandbookGuideIcon/UI_GuideIcon_Explore",
    "FEKHMBEFJKM": [
      {
        "param": []
      },
      {
        "param": []
      },
      {
        "param": []
      }
    ]
  },
  {
    "JJOKHCNNCKD": 76,
    "typeID": 9,
    "NKHDIFMFKNF": 685402176,
    "ANIOCMEEJFG": 10070,
    "MEHHEHBGHGH": "WQ",
    "order": 15,
    "icon": "ART/UI/Atlas/HandbookGuideIcon/UI_GuideIcon_Explore",
    "FEKHMBEFJKM": [
      {
        "param": []
      },
      {
        "param": []
      },
      {
        "param": []
      }
    ]
  },
  {
    "JJOKHCNNCKD": 77,
    "typeID": 9,
    "NKHDIFMFKNF": 1943063328,
    "ANIOCMEEJFG": 10079,
    "MEHHEHBGHGH": "WQ",
    "order": 16,
    "icon": "ART/UI/Atlas/HandbookGuideIcon/UI_GuideIcon_Explore",
    "FEKHMBEFJKM": [
      {
        "param": []
      },
      {
        "param": []
      },
      {
        "param": []
      }
    ]
  },
  {
    "JJOKHCNNCKD": 78,
    "typeID": 9,
    "NKHDIFMFKNF": 642362008,
    "ANIOCMEEJFG": 10087,
    "MEHHEHBGHGH": "WQ",
    "order": 17,
    "icon": "ART/UI/Atlas/HandbookGuideIcon/UI_GuideIcon_Explore",
    "FEKHMBEFJKM": [
      {
        "param": []
      },
      {
        "param": []
      },
      {
        "param": []
      }
    ]
  },
  {
    "JJOKHCNNCKD": 79,
    "typeID": 9,
    "NKHDIFMFKNF": 2665304344,
    "ANIOCMEEJFG": 10130,
    "MEHHEHBGHGH": "WQ",
    "order": 18,
    "icon": "ART/UI/Atlas/HandbookGuideIcon/UI_GuideIcon_Explore",
    "FEKHMBEFJKM": [
      {
        "param": []
      },
      {
        "param": []
      },
      {
        "param": []
      }
    ]
  },
  {
    "JJOKHCNNCKD": 80,
    "typeID": 9,
    "NKHDIFMFKNF": 3356999352,
    "ANIOCMEEJFG": 10121,
    "MEHHEHBGHGH": "WQ",
    "order": 19,
    "icon": "ART/UI/Atlas/HandbookGuideIcon/UI_GuideIcon_Explore",
    "FEKHMBEFJKM": [
      {
        "param": []
      },
      {
        "param": []
      },
      {
        "param": []
      }
    ]
  },
  {
    "JJOKHCNNCKD": 81,
    "typeID": 10,
    "NKHDIFMFKNF": 554313824,
    "ANIOCMEEJFG": 101401,
    "MEHHEHBGHGH": "LQ",
    "order": 1,
    "icon": "ART/UI/Atlas/HandbookGuideIcon/UI_GuideIcon_Coop",
    "EJDLKOMKCBI": 2,
    "FEKHMBEFJKM": [
      {
        "type": "QUEST_GUIDE_SHOW_COND_LEVEL_GT_OR_EQ",
        "param": [26]
      },
      {
        "param": []
      },
      {
        "param": []
      }
    ]
  },
  {
    "JJOKHCNNCKD": 82,
    "typeID": 10,
    "NKHDIFMFKNF": 3130454200,
    "ANIOCMEEJFG": 103401,
    "MEHHEHBGHGH": "LQ",
    "order": 2,
    "icon": "ART/UI/Atlas/HandbookGuideIcon/UI_GuideIcon_Coop",
    "EJDLKOMKCBI": 2,
    "FEKHMBEFJKM": [
      {
        "type": "QUEST_GUIDE_SHOW_COND_LEVEL_GT_OR_EQ",
        "param": [26]
      },
      {
        "param": []
      },
      {
        "param": []
      }
    ]
  },
  {
    "JJOKHCNNCKD": 83,
    "typeID": 10,
    "NKHDIFMFKNF": 4207117152,
    "ANIOCMEEJFG": 103601,
    "MEHHEHBGHGH": "LQ",
    "order": 3,
    "icon": "ART/UI/Atlas/HandbookGuideIcon/UI_GuideIcon_Coop",
    "EJDLKOMKCBI": 2,
    "FEKHMBEFJKM": [
      {
        "type": "QUEST_GUIDE_SHOW_COND_LEVEL_GT_OR_EQ",
        "param": [26]
      },
      {
        "param": []
      },
      {
        "param": []
      }
    ]
  },
  {
    "JJOKHCNNCKD": 84,
    "typeID": 10,
    "NKHDIFMFKNF": 2402386776,
    "ANIOCMEEJFG": 103201,
    "MEHHEHBGHGH": "LQ",
    "order": 4,
    "icon": "ART/UI/Atlas/HandbookGuideIcon/UI_GuideIcon_Coop",
    "EJDLKOMKCBI": 2,
    "FEKHMBEFJKM": [
      {
        "type": "QUEST_GUIDE_SHOW_COND_LEVEL_GT_OR_EQ",
        "param": [26]
      },
      {
        "param": []
      },
      {
        "param": []
      }
    ]
  },
  {
    "JJOKHCNNCKD": 85,
    "typeID": 10,
    "NKHDIFMFKNF": 1898036960,
    "ANIOCMEEJFG": 103402,
    "MEHHEHBGHGH": "LQ",
    "order": 5,
    "icon": "ART/UI/Atlas/HandbookGuideIcon/UI_GuideIcon_Coop",
    "EJDLKOMKCBI": 2,
    "FEKHMBEFJKM": [
      {
        "type": "QUEST_GUIDE_SHOW_COND_LEVEL_GT_OR_EQ",
        "param": [26]
      },
      {
        "param": []
      },
      {
        "param": []
      }
    ]
  },
  {
    "JJOKHCNNCKD": 86,
    "typeID": 10,
    "NKHDIFMFKNF": 599670272,
    "ANIOCMEEJFG": 103901,
    "MEHHEHBGHGH": "LQ",
    "order": 6,
    "icon": "ART/UI/Atlas/HandbookGuideIcon/UI_GuideIcon_Coop",
    "EJDLKOMKCBI": 2,
    "FEKHMBEFJKM": [
      {
        "type": "QUEST_GUIDE_SHOW_COND_LEVEL_GT_OR_EQ",
        "param": [26]
      },
      {
        "param": []
      },
      {
        "param": []
      }
    ]
  },
  {
    "JJOKHCNNCKD": 87,
    "typeID": 10,
    "NKHDIFMFKNF": 2619555768,
    "ANIOCMEEJFG": 102401,
    "MEHHEHBGHGH": "LQ",
    "order": 7,
    "icon": "ART/UI/Atlas/HandbookGuideIcon/UI_GuideIcon_Coop",
    "EJDLKOMKCBI": 2,
    "FEKHMBEFJKM": [
      {
        "type": "QUEST_GUIDE_SHOW_COND_LEVEL_GT_OR_EQ",
        "param": [26]
      },
      {
        "param": []
      },
      {
        "param": []
      }
    ]
  },
  {
    "JJOKHCNNCKD": 88,
    "typeID": 10,
    "NKHDIFMFKNF": 1429784376,
    "ANIOCMEEJFG": 105001,
    "MEHHEHBGHGH": "LQ",
    "order": 8,
    "icon": "ART/UI/Atlas/HandbookGuideIcon/UI_GuideIcon_Coop",
    "EJDLKOMKCBI": 2,
    "FEKHMBEFJKM": [
      {
        "type": "QUEST_GUIDE_SHOW_COND_LEVEL_GT_OR_EQ",
        "param": [26]
      },
      {
        "param": []
      },
      {
        "param": []
      }
    ]
  },
  {
    "JJOKHCNNCKD": 89,
    "typeID": 10,
    "NKHDIFMFKNF": 3827515240,
    "ANIOCMEEJFG": 105301,
    "MEHHEHBGHGH": "LQ",
    "order": 9,
    "icon": "ART/UI/Atlas/HandbookGuideIcon/UI_GuideIcon_Coop",
    "EJDLKOMKCBI": 2,
    "FEKHMBEFJKM": [
      {
        "type": "QUEST_GUIDE_SHOW_COND_LEVEL_GT_OR_EQ",
        "param": [26]
      },
      {
        "param": []
      },
      {
        "param": []
      }
    ]
  },
  {
    "JJOKHCNNCKD": 90,
    "typeID": 10,
    "NKHDIFMFKNF": 2581100456,
    "ANIOCMEEJFG": 105501,
    "MEHHEHBGHGH": "LQ",
    "order": 10,
    "icon": "ART/UI/Atlas/HandbookGuideIcon/UI_GuideIcon_Coop",
    "EJDLKOMKCBI": 2,
    "FEKHMBEFJKM": [
      {
        "type": "QUEST_GUIDE_SHOW_COND_LEVEL_GT_OR_EQ",
        "param": [26]
      },
      {
        "param": []
      },
      {
        "param": []
      }
    ]
  },
  {
    "JJOKHCNNCKD": 91,
    "typeID": 10,
    "NKHDIFMFKNF": 2181479064,
    "ANIOCMEEJFG": 106401,
    "MEHHEHBGHGH": "LQ",
    "order": 11,
    "icon": "ART/UI/Atlas/HandbookGuideIcon/UI_GuideIcon_Coop",
    "EJDLKOMKCBI": 2,
    "FEKHMBEFJKM": [
      {
        "type": "QUEST_GUIDE_SHOW_COND_LEVEL_GT_OR_EQ",
        "param": [26]
      },
      {
        "param": []
      },
      {
        "param": []
      }
    ]
  },
  {
    "JJOKHCNNCKD": 92,
    "typeID": 10,
    "NKHDIFMFKNF": 4217472592,
    "ANIOCMEEJFG": 102701,
    "MEHHEHBGHGH": "LQ",
    "order": 12,
    "icon": "ART/UI/Atlas/HandbookGuideIcon/UI_GuideIcon_Coop",
    "EJDLKOMKCBI": 2,
    "FEKHMBEFJKM": [
      {
        "type": "QUEST_GUIDE_SHOW_COND_LEVEL_GT_OR_EQ",
        "param": [26]
      },
      {
        "param": []
      },
      {
        "param": []
      }
    ]
  },
  {
    "JJOKHCNNCKD": 93,
    "typeID": 10,
    "NKHDIFMFKNF": 1256531096,
    "ANIOCMEEJFG": 106501,
    "MEHHEHBGHGH": "LQ",
    "order": 13,
    "icon": "ART/UI/Atlas/HandbookGuideIcon/UI_GuideIcon_Coop",
    "EJDLKOMKCBI": 2,
    "FEKHMBEFJKM": [
      {
        "type": "QUEST_GUIDE_SHOW_COND_LEVEL_GT_OR_EQ",
        "param": [26]
      },
      {
        "param": []
      },
      {
        "param": []
      }
    ]
  },
  {
    "JJOKHCNNCKD": 94,
    "typeID": 10,
    "NKHDIFMFKNF": 3423065120,
    "ANIOCMEEJFG": 105901,
    "MEHHEHBGHGH": "LQ",
    "order": 14,
    "icon": "ART/UI/Atlas/HandbookGuideIcon/UI_GuideIcon_Coop",
    "EJDLKOMKCBI": 2,
    "FEKHMBEFJKM": [
      {
        "type": "QUEST_GUIDE_SHOW_COND_LEVEL_GT_OR_EQ",
        "param": [26]
      },
      {
        "param": []
      },
      {
        "param": []
      }
    ]
  },
  {
    "JJOKHCNNCKD": 95,
    "typeID": 10,
    "NKHDIFMFKNF": 2304749480,
    "ANIOCMEEJFG": 107601,
    "MEHHEHBGHGH": "LQ",
    "order": 15,
    "icon": "ART/UI/Atlas/HandbookGuideIcon/UI_GuideIcon_Coop",
    "EJDLKOMKCBI": 2,
    "FEKHMBEFJKM": [
      {
        "type": "QUEST_GUIDE_SHOW_COND_LEVEL_GT_OR_EQ",
        "param": [26]
      },
      {
        "param": []
      },
      {
        "param": []
      }
    ]
  },
  {
    "JJOKHCNNCKD": 96,
    "typeID": 10,
    "NKHDIFMFKNF": 2086438336,
    "ANIOCMEEJFG": 107401,
    "MEHHEHBGHGH": "LQ",
    "order": 16,
    "icon": "ART/UI/Atlas/HandbookGuideIcon/UI_GuideIcon_Coop",
    "EJDLKOMKCBI": 2,
    "FEKHMBEFJKM": [
      {
        "type": "QUEST_GUIDE_SHOW_COND_LEVEL_GT_OR_EQ",
        "param": [26]
      },
      {
        "param": []
      },
      {
        "param": []
      }
    ]
  }
]
