[
  {
    "FGFKIDMEOCK": 100101,
    "MDECHKKJKHH": 1001,
    "DOKAADCLEJJ": true,
    "DGJPJNHCKNH": true,
    "LGDCFGGGGII": [
      {
        "param": ""
      },
      {
        "param": ""
      }
    ],
    "HFIPHDJCCEF": true,
    "PAMMHFGBKDA": 100104,
    "AIMABOCPJEH": [
      {
        "type": "INFERENCE_ACTION_UNLOCK_WORD",
        "param": "100106"
      },
      {
        "param": ""
      }
    ],
    "AMLHNFKHPKG": 1787105266,
    "BOGDHDPGDEE": 30099908,
    "APJANNODPDM": 30099930,
    "GBEGODEDDCN": 1001
  },
  {
    "FGFKIDMEOCK": 100102,
    "MDECHKKJKHH": 1001,
    "DOKAADCLEJJ": true,
    "DGJPJNHCKNH": true,
    "LGDCFGGGGII": [
      {
        "param": ""
      },
      {
        "param": ""
      }
    ],
    "AIMABOCPJEH": [
      {
        "param": ""
      },
      {
        "param": ""
      }
    ],
    "AMLHNFKHPKG": 2931453642,
    "BOGDHDPGDEE": 30099905,
    "APJANNODPDM": 30099930,
    "GBEGODEDDCN": 1001
  },
  {
    "FGFKIDMEOCK": 100103,
    "MDECHKKJKHH": 1001,
    "DOKAADCLEJJ": true,
    "DGJPJNHCKNH": true,
    "LGDCFGGGGII": [
      {
        "param": ""
      },
      {
        "param": ""
      }
    ],
    "AIMABOCPJEH": [
      {
        "param": ""
      },
      {
        "param": ""
      }
    ],
    "AMLHNFKHPKG": 2624163786,
    "BOGDHDPGDEE": 30099903,
    "APJANNODPDM": 30099930,
    "GBEGODEDDCN": 1001
  },
  {
    "FGFKIDMEOCK": 100104,
    "MDECHKKJKHH": 1001,
    "DOKAADCLEJJ": true,
    "DGJPJNHCKNH": true,
    "LGDCFGGGGII": [
      {
        "param": ""
      },
      {
        "param": ""
      }
    ],
    "AIMABOCPJEH": [
      {
        "param": ""
      },
      {
        "param": ""
      }
    ],
    "AMLHNFKHPKG": 1903595554,
    "BOGDHDPGDEE": 30099904,
    "APJANNODPDM": 30099930,
    "GBEGODEDDCN": 1001
  },
  {
    "FGFKIDMEOCK": 100105,
    "MDECHKKJKHH": 1001,
    "DOKAADCLEJJ": true,
    "DGJPJNHCKNH": true,
    "LGDCFGGGGII": [
      {
        "param": ""
      },
      {
        "param": ""
      }
    ],
    "AIMABOCPJEH": [
      {
        "param": ""
      },
      {
        "param": ""
      }
    ],
    "AMLHNFKHPKG": 3843829682,
    "BOGDHDPGDEE": 30099907,
    "APJANNODPDM": 30099930,
    "GBEGODEDDCN": 1001
  },
  {
    "FGFKIDMEOCK": 100106,
    "MDECHKKJKHH": 1001,
    "DGJPJNHCKNH": true,
    "LGDCFGGGGII": [
      {
        "param": ""
      },
      {
        "param": ""
      }
    ],
    "AIMABOCPJEH": [
      {
        "param": ""
      },
      {
        "param": ""
      }
    ],
    "AMLHNFKHPKG": 250590402,
    "BOGDHDPGDEE": 30099919,
    "APJANNODPDM": 30099930,
    "GBEGODEDDCN": 1001
  },
  {
    "FGFKIDMEOCK": 100201,
    "MDECHKKJKHH": 1002,
    "DOKAADCLEJJ": true,
    "DGJPJNHCKNH": true,
    "LGDCFGGGGII": [
      {
        "param": ""
      },
      {
        "param": ""
      }
    ],
    "AIMABOCPJEH": [
      {
        "param": ""
      },
      {
        "param": ""
      }
    ],
    "AMLHNFKHPKG": 267348354,
    "BOGDHDPGDEE": 30099909,
    "GBEGODEDDCN": 1001
  },
  {
    "FGFKIDMEOCK": 100202,
    "MDECHKKJKHH": 1002,
    "DOKAADCLEJJ": true,
    "DGJPJNHCKNH": true,
    "LGDCFGGGGII": [
      {
        "param": ""
      },
      {
        "param": ""
      }
    ],
    "AIMABOCPJEH": [
      {
        "param": ""
      },
      {
        "param": ""
      }
    ],
    "AMLHNFKHPKG": 4198875546,
    "BOGDHDPGDEE": 30099906,
    "GBEGODEDDCN": 1001
  },
  {
    "FGFKIDMEOCK": 100203,
    "MDECHKKJKHH": 1002,
    "DOKAADCLEJJ": true,
    "DGJPJNHCKNH": true,
    "LGDCFGGGGII": [
      {
        "param": ""
      },
      {
        "param": ""
      }
    ],
    "AIMABOCPJEH": [
      {
        "param": ""
      },
      {
        "param": ""
      }
    ],
    "AMLHNFKHPKG": 2541104378,
    "BOGDHDPGDEE": 30099903,
    "GBEGODEDDCN": 1001
  },
  {
    "FGFKIDMEOCK": 100204,
    "MDECHKKJKHH": 1002,
    "DOKAADCLEJJ": true,
    "DGJPJNHCKNH": true,
    "LGDCFGGGGII": [
      {
        "param": ""
      },
      {
        "param": ""
      }
    ],
    "AIMABOCPJEH": [
      {
        "param": ""
      },
      {
        "param": ""
      }
    ],
    "AMLHNFKHPKG": 2957095122,
    "BOGDHDPGDEE": 30099907,
    "GBEGODEDDCN": 1001
  },
  {
    "FGFKIDMEOCK": 100301,
    "MDECHKKJKHH": 1003,
    "DOKAADCLEJJ": true,
    "DGJPJNHCKNH": true,
    "LGDCFGGGGII": [
      {
        "param": ""
      },
      {
        "param": ""
      }
    ],
    "AIMABOCPJEH": [
      {
        "param": ""
      },
      {
        "param": ""
      }
    ],
    "AMLHNFKHPKG": 340513546,
    "BOGDHDPGDEE": 30099909,
    "GBEGODEDDCN": 1001
  },
  {
    "FGFKIDMEOCK": 100302,
    "MDECHKKJKHH": 1003,
    "DOKAADCLEJJ": true,
    "DGJPJNHCKNH": true,
    "LGDCFGGGGII": [
      {
        "param": ""
      },
      {
        "param": ""
      }
    ],
    "AIMABOCPJEH": [
      {
        "param": ""
      },
      {
        "param": ""
      }
    ],
    "AMLHNFKHPKG": 1822707266,
    "BOGDHDPGDEE": 30099910,
    "GBEGODEDDCN": 1001
  },
  {
    "FGFKIDMEOCK": 100303,
    "MDECHKKJKHH": 1003,
    "DOKAADCLEJJ": true,
    "DGJPJNHCKNH": true,
    "LGDCFGGGGII": [
      {
        "param": ""
      },
      {
        "param": ""
      }
    ],
    "AIMABOCPJEH": [
      {
        "param": ""
      },
      {
        "param": ""
      }
    ],
    "AMLHNFKHPKG": 2076342314,
    "BOGDHDPGDEE": 30099907,
    "GBEGODEDDCN": 1001
  },
  {
    "FGFKIDMEOCK": 100304,
    "MDECHKKJKHH": 1003,
    "DOKAADCLEJJ": true,
    "DGJPJNHCKNH": true,
    "LGDCFGGGGII": [
      {
        "param": ""
      },
      {
        "param": ""
      }
    ],
    "AIMABOCPJEH": [
      {
        "param": ""
      },
      {
        "param": ""
      }
    ],
    "AMLHNFKHPKG": 1789053082,
    "BOGDHDPGDEE": 30099904,
    "GBEGODEDDCN": 1001
  },
  {
    "FGFKIDMEOCK": 100401,
    "MDECHKKJKHH": 1004,
    "DOKAADCLEJJ": true,
    "DGJPJNHCKNH": true,
    "LGDCFGGGGII": [
      {
        "param": ""
      },
      {
        "param": ""
      }
    ],
    "AIMABOCPJEH": [
      {
        "param": ""
      },
      {
        "param": ""
      }
    ],
    "AMLHNFKHPKG": 3874670930,
    "BOGDHDPGDEE": 30119902,
    "APJANNODPDM": 30119929,
    "GBEGODEDDCN": 1001
  },
  {
    "FGFKIDMEOCK": 100402,
    "MDECHKKJKHH": 1004,
    "DOKAADCLEJJ": true,
    "DGJPJNHCKNH": true,
    "LGDCFGGGGII": [
      {
        "param": ""
      },
      {
        "param": ""
      }
    ],
    "HFIPHDJCCEF": true,
    "PAMMHFGBKDA": 100403,
    "AIMABOCPJEH": [
      {
        "type": "INFERENCE_ACTION_UNLOCK_WORD",
        "param": "100406"
      },
      {
        "param": ""
      }
    ],
    "AMLHNFKHPKG": 3381190810,
    "BOGDHDPGDEE": 30119910,
    "APJANNODPDM": 30119929,
    "GBEGODEDDCN": 1001
  },
  {
    "FGFKIDMEOCK": 100403,
    "MDECHKKJKHH": 1004,
    "DOKAADCLEJJ": true,
    "DGJPJNHCKNH": true,
    "LGDCFGGGGII": [
      {
        "param": ""
      },
      {
        "param": ""
      }
    ],
    "AIMABOCPJEH": [
      {
        "param": ""
      },
      {
        "param": ""
      }
    ],
    "AMLHNFKHPKG": 291781914,
    "BOGDHDPGDEE": 30119911,
    "APJANNODPDM": 30119929,
    "GBEGODEDDCN": 1001
  },
  {
    "FGFKIDMEOCK": 100404,
    "MDECHKKJKHH": 1004,
    "DOKAADCLEJJ": true,
    "DGJPJNHCKNH": true,
    "LGDCFGGGGII": [
      {
        "param": ""
      },
      {
        "param": ""
      }
    ],
    "AIMABOCPJEH": [
      {
        "param": ""
      },
      {
        "param": ""
      }
    ],
    "AMLHNFKHPKG": 1421436546,
    "BOGDHDPGDEE": 30119909,
    "APJANNODPDM": 30119929,
    "GBEGODEDDCN": 1001
  },
  {
    "FGFKIDMEOCK": 100405,
    "MDECHKKJKHH": 1004,
    "DOKAADCLEJJ": true,
    "DGJPJNHCKNH": true,
    "LGDCFGGGGII": [
      {
        "param": ""
      },
      {
        "param": ""
      }
    ],
    "AIMABOCPJEH": [
      {
        "param": ""
      },
      {
        "param": ""
      }
    ],
    "AMLHNFKHPKG": 1573282274,
    "BOGDHDPGDEE": 30119907,
    "APJANNODPDM": 30119929,
    "GBEGODEDDCN": 1001
  },
  {
    "FGFKIDMEOCK": 100406,
    "MDECHKKJKHH": 1004,
    "DGJPJNHCKNH": true,
    "LGDCFGGGGII": [
      {
        "param": ""
      },
      {
        "param": ""
      }
    ],
    "AIMABOCPJEH": [
      {
        "param": ""
      },
      {
        "param": ""
      }
    ],
    "AMLHNFKHPKG": 2891310698,
    "BOGDHDPGDEE": 30119919,
    "APJANNODPDM": 30119929,
    "GBEGODEDDCN": 1001
  },
  {
    "FGFKIDMEOCK": 100501,
    "MDECHKKJKHH": 1005,
    "DOKAADCLEJJ": true,
    "DGJPJNHCKNH": true,
    "LGDCFGGGGII": [
      {
        "param": ""
      },
      {
        "param": ""
      }
    ],
    "AIMABOCPJEH": [
      {
        "param": ""
      },
      {
        "param": ""
      }
    ],
    "AMLHNFKHPKG": 2651124554,
    "BOGDHDPGDEE": 30149911,
    "GBEGODEDDCN": 1001
  },
  {
    "FGFKIDMEOCK": 100502,
    "MDECHKKJKHH": 1005,
    "DOKAADCLEJJ": true,
    "DGJPJNHCKNH": true,
    "LGDCFGGGGII": [
      {
        "param": ""
      },
      {
        "param": ""
      }
    ],
    "AIMABOCPJEH": [
      {
        "param": ""
      },
      {
        "param": ""
      }
    ],
    "AMLHNFKHPKG": 3803426810,
    "BOGDHDPGDEE": 30149915,
    "GBEGODEDDCN": 1001
  },
  {
    "FGFKIDMEOCK": 100503,
    "MDECHKKJKHH": 1005,
    "DOKAADCLEJJ": true,
    "DGJPJNHCKNH": true,
    "LGDCFGGGGII": [
      {
        "param": ""
      },
      {
        "param": ""
      }
    ],
    "AIMABOCPJEH": [
      {
        "param": ""
      },
      {
        "param": ""
      }
    ],
    "AMLHNFKHPKG": 1157746386,
    "BOGDHDPGDEE": 30149916,
    "GBEGODEDDCN": 1001
  },
  {
    "FGFKIDMEOCK": 100601,
    "MDECHKKJKHH": 1006,
    "DOKAADCLEJJ": true,
    "DGJPJNHCKNH": true,
    "LGDCFGGGGII": [
      {
        "param": ""
      },
      {
        "param": ""
      }
    ],
    "AIMABOCPJEH": [
      {
        "param": ""
      },
      {
        "param": ""
      }
    ],
    "AMLHNFKHPKG": 25093810,
    "BOGDHDPGDEE": 30149908,
    "APJANNODPDM": 30149928,
    "GBEGODEDDCN": 1001
  },
  {
    "FGFKIDMEOCK": 100602,
    "MDECHKKJKHH": 1006,
    "DOKAADCLEJJ": true,
    "DGJPJNHCKNH": true,
    "LGDCFGGGGII": [
      {
        "param": ""
      },
      {
        "param": ""
      }
    ],
    "AIMABOCPJEH": [
      {
        "param": ""
      },
      {
        "param": ""
      }
    ],
    "AMLHNFKHPKG": 3249816570,
    "BOGDHDPGDEE": 30149906,
    "APJANNODPDM": 30149928,
    "GBEGODEDDCN": 1001
  },
  {
    "FGFKIDMEOCK": 100603,
    "MDECHKKJKHH": 1006,
    "DOKAADCLEJJ": true,
    "DGJPJNHCKNH": true,
    "LGDCFGGGGII": [
      {
        "type": "INFERENCE_ACTION_UNLOCK_WORD",
        "param": "100606"
      },
      {
        "param": ""
      }
    ],
    "AIMABOCPJEH": [
      {
        "param": ""
      },
      {
        "param": ""
      }
    ],
    "AMLHNFKHPKG": 119402930,
    "BOGDHDPGDEE": 30149911,
    "APJANNODPDM": 30149928,
    "GBEGODEDDCN": 1001
  },
  {
    "FGFKIDMEOCK": 100604,
    "MDECHKKJKHH": 1006,
    "DOKAADCLEJJ": true,
    "DGJPJNHCKNH": true,
    "LGDCFGGGGII": [
      {
        "param": ""
      },
      {
        "param": ""
      }
    ],
    "AIMABOCPJEH": [
      {
        "param": ""
      },
      {
        "param": ""
      }
    ],
    "AMLHNFKHPKG": 2918845362,
    "BOGDHDPGDEE": 30149901,
    "APJANNODPDM": 30149928,
    "GBEGODEDDCN": 1001
  },
  {
    "FGFKIDMEOCK": 100605,
    "MDECHKKJKHH": 1006,
    "DOKAADCLEJJ": true,
    "DGJPJNHCKNH": true,
    "LGDCFGGGGII": [
      {
        "param": ""
      },
      {
        "param": ""
      }
    ],
    "HFIPHDJCCEF": true,
    "PAMMHFGBKDA": 100606,
    "AIMABOCPJEH": [
      {
        "type": "INFERENCE_ACTION_UNLOCK_WORD",
        "param": "100607"
      },
      {
        "param": ""
      }
    ],
    "AMLHNFKHPKG": 72972034,
    "BOGDHDPGDEE": 30149907,
    "APJANNODPDM": 30149928,
    "GBEGODEDDCN": 1001
  },
  {
    "FGFKIDMEOCK": 100606,
    "MDECHKKJKHH": 1006,
    "DGJPJNHCKNH": true,
    "LGDCFGGGGII": [
      {
        "param": ""
      },
      {
        "param": ""
      }
    ],
    "AIMABOCPJEH": [
      {
        "param": ""
      },
      {
        "param": ""
      }
    ],
    "AMLHNFKHPKG": 485754346,
    "BOGDHDPGDEE": 30149912,
    "APJANNODPDM": 30149928,
    "GBEGODEDDCN": 1001
  },
  {
    "FGFKIDMEOCK": 100607,
    "MDECHKKJKHH": 1006,
    "DGJPJNHCKNH": true,
    "LGDCFGGGGII": [
      {
        "param": ""
      },
      {
        "param": ""
      }
    ],
    "AIMABOCPJEH": [
      {
        "param": ""
      },
      {
        "param": ""
      }
    ],
    "AMLHNFKHPKG": 428341858,
    "BOGDHDPGDEE": 30149919,
    "APJANNODPDM": 30149928,
    "GBEGODEDDCN": 1001
  },
  {
    "FGFKIDMEOCK": 100701,
    "MDECHKKJKHH": 1007,
    "DOKAADCLEJJ": true,
    "DGJPJNHCKNH": true,
    "LGDCFGGGGII": [
      {
        "param": ""
      },
      {
        "param": ""
      }
    ],
    "AIMABOCPJEH": [
      {
        "param": ""
      },
      {
        "param": ""
      }
    ],
    "AMLHNFKHPKG": 3135866810,
    "BOGDHDPGDEE": 30149920,
    "GBEGODEDDCN": 1001
  },
  {
    "FGFKIDMEOCK": 100702,
    "MDECHKKJKHH": 1007,
    "DOKAADCLEJJ": true,
    "DGJPJNHCKNH": true,
    "LGDCFGGGGII": [
      {
        "param": ""
      },
      {
        "param": ""
      }
    ],
    "AIMABOCPJEH": [
      {
        "param": ""
      },
      {
        "param": ""
      }
    ],
    "AMLHNFKHPKG": 713969546,
    "BOGDHDPGDEE": 30149921,
    "GBEGODEDDCN": 1001
  },
  {
    "FGFKIDMEOCK": 100703,
    "MDECHKKJKHH": 1007,
    "DOKAADCLEJJ": true,
    "DGJPJNHCKNH": true,
    "LGDCFGGGGII": [
      {
        "param": ""
      },
      {
        "param": ""
      }
    ],
    "AIMABOCPJEH": [
      {
        "param": ""
      },
      {
        "param": ""
      }
    ],
    "AMLHNFKHPKG": 3712619506,
    "BOGDHDPGDEE": 30149922,
    "GBEGODEDDCN": 1001
  },
  {
    "FGFKIDMEOCK": 100704,
    "MDECHKKJKHH": 1007,
    "DOKAADCLEJJ": true,
    "DGJPJNHCKNH": true,
    "LGDCFGGGGII": [
      {
        "param": ""
      },
      {
        "param": ""
      }
    ],
    "AIMABOCPJEH": [
      {
        "param": ""
      },
      {
        "param": ""
      }
    ],
    "AMLHNFKHPKG": 1270214818,
    "BOGDHDPGDEE": 30149923,
    "APJANNODPDM": 30149928,
    "GBEGODEDDCN": 1001
  },
  {
    "FGFKIDMEOCK": 100801,
    "MDECHKKJKHH": 1008,
    "DOKAADCLEJJ": true,
    "DGJPJNHCKNH": true,
    "LGDCFGGGGII": [
      {
        "param": ""
      },
      {
        "param": ""
      }
    ],
    "AIMABOCPJEH": [
      {
        "param": ""
      },
      {
        "param": ""
      }
    ],
    "AMLHNFKHPKG": 2289592218,
    "BOGDHDPGDEE": 30149910,
    "APJANNODPDM": 30149928,
    "GBEGODEDDCN": 1001
  },
  {
    "FGFKIDMEOCK": 100802,
    "MDECHKKJKHH": 1008,
    "DOKAADCLEJJ": true,
    "DGJPJNHCKNH": true,
    "LGDCFGGGGII": [
      {
        "type": "INFERENCE_ACTION_UNLOCK_WORD",
        "param": "100806"
      },
      {
        "param": ""
      }
    ],
    "AIMABOCPJEH": [
      {
        "param": ""
      },
      {
        "param": ""
      }
    ],
    "AMLHNFKHPKG": 1184703130,
    "BOGDHDPGDEE": 30149913,
    "APJANNODPDM": 30149928,
    "GBEGODEDDCN": 1001
  },
  {
    "FGFKIDMEOCK": 100803,
    "MDECHKKJKHH": 1008,
    "DOKAADCLEJJ": true,
    "DGJPJNHCKNH": true,
    "LGDCFGGGGII": [
      {
        "param": ""
      },
      {
        "param": ""
      }
    ],
    "AIMABOCPJEH": [
      {
        "param": ""
      },
      {
        "param": ""
      }
    ],
    "AMLHNFKHPKG": 3911825218,
    "BOGDHDPGDEE": 30149903,
    "APJANNODPDM": 30149928,
    "GBEGODEDDCN": 1001
  },
  {
    "FGFKIDMEOCK": 100804,
    "MDECHKKJKHH": 1008,
    "DOKAADCLEJJ": true,
    "DGJPJNHCKNH": true,
    "LGDCFGGGGII": [
      {
        "param": ""
      },
      {
        "param": ""
      }
    ],
    "AIMABOCPJEH": [
      {
        "param": ""
      },
      {
        "param": ""
      }
    ],
    "AMLHNFKHPKG": 2929221666,
    "BOGDHDPGDEE": 30149905,
    "APJANNODPDM": 30149928,
    "GBEGODEDDCN": 1001
  },
  {
    "FGFKIDMEOCK": 100805,
    "MDECHKKJKHH": 1008,
    "DOKAADCLEJJ": true,
    "DGJPJNHCKNH": true,
    "LGDCFGGGGII": [
      {
        "param": ""
      },
      {
        "param": ""
      }
    ],
    "AIMABOCPJEH": [
      {
        "param": ""
      },
      {
        "param": ""
      }
    ],
    "AMLHNFKHPKG": 2843179514,
    "BOGDHDPGDEE": 30149906,
    "APJANNODPDM": 30149928,
    "GBEGODEDDCN": 1001
  },
  {
    "FGFKIDMEOCK": 100806,
    "MDECHKKJKHH": 1008,
    "DGJPJNHCKNH": true,
    "LGDCFGGGGII": [
      {
        "param": ""
      },
      {
        "param": ""
      }
    ],
    "HFIPHDJCCEF": true,
    "PAMMHFGBKDA": 100805,
    "AIMABOCPJEH": [
      {
        "type": "INFERENCE_ACTION_UNLOCK_WORD",
        "param": "100807"
      },
      {
        "param": ""
      }
    ],
    "AMLHNFKHPKG": 739814218,
    "BOGDHDPGDEE": 30149914,
    "APJANNODPDM": 30149928,
    "GBEGODEDDCN": 1001
  },
  {
    "FGFKIDMEOCK": 100807,
    "MDECHKKJKHH": 1008,
    "LGDCFGGGGII": [
      {
        "param": ""
      },
      {
        "param": ""
      }
    ],
    "AIMABOCPJEH": [
      {
        "param": ""
      },
      {
        "param": ""
      }
    ],
    "AMLHNFKHPKG": 3869651266,
    "APJANNODPDM": 30149928,
    "GBEGODEDDCN": 1001
  },
  {
    "FGFKIDMEOCK": 100901,
    "MDECHKKJKHH": 1009,
    "DOKAADCLEJJ": true,
    "DGJPJNHCKNH": true,
    "LGDCFGGGGII": [
      {
        "param": ""
      },
      {
        "param": ""
      }
    ],
    "AIMABOCPJEH": [
      {
        "param": ""
      },
      {
        "param": ""
      }
    ],
    "AMLHNFKHPKG": 3506931538,
    "BOGDHDPGDEE": 30149924,
    "GBEGODEDDCN": 1001
  },
  {
    "FGFKIDMEOCK": 100902,
    "MDECHKKJKHH": 1009,
    "DOKAADCLEJJ": true,
    "DGJPJNHCKNH": true,
    "LGDCFGGGGII": [
      {
        "param": ""
      },
      {
        "param": ""
      }
    ],
    "AIMABOCPJEH": [
      {
        "param": ""
      },
      {
        "param": ""
      }
    ],
    "AMLHNFKHPKG": 3099222514,
    "BOGDHDPGDEE": 30149925,
    "GBEGODEDDCN": 1001
  },
  {
    "FGFKIDMEOCK": 100903,
    "MDECHKKJKHH": 1009,
    "DOKAADCLEJJ": true,
    "DGJPJNHCKNH": true,
    "LGDCFGGGGII": [
      {
        "param": ""
      },
      {
        "param": ""
      }
    ],
    "AIMABOCPJEH": [
      {
        "param": ""
      },
      {
        "param": ""
      }
    ],
    "AMLHNFKHPKG": 951163650,
    "BOGDHDPGDEE": 30149926,
    "GBEGODEDDCN": 1001
  },
  {
    "FGFKIDMEOCK": 101001,
    "MDECHKKJKHH": 1010,
    "DOKAADCLEJJ": true,
    "DGJPJNHCKNH": true,
    "LGDCFGGGGII": [
      {
        "param": ""
      },
      {
        "param": ""
      }
    ],
    "AIMABOCPJEH": [
      {
        "param": ""
      },
      {
        "param": ""
      }
    ],
    "AMLHNFKHPKG": 407922618,
    "BOGDHDPGDEE": 30149912,
    "GBEGODEDDCN": 1001
  },
  {
    "FGFKIDMEOCK": 101002,
    "MDECHKKJKHH": 1010,
    "DOKAADCLEJJ": true,
    "DGJPJNHCKNH": true,
    "LGDCFGGGGII": [
      {
        "param": ""
      },
      {
        "param": ""
      }
    ],
    "AIMABOCPJEH": [
      {
        "param": ""
      },
      {
        "param": ""
      }
    ],
    "AMLHNFKHPKG": 2747601962,
    "BOGDHDPGDEE": 30149908,
    "GBEGODEDDCN": 1001
  },
  {
    "FGFKIDMEOCK": 101003,
    "MDECHKKJKHH": 1010,
    "DOKAADCLEJJ": true,
    "DGJPJNHCKNH": true,
    "LGDCFGGGGII": [
      {
        "param": ""
      },
      {
        "param": ""
      }
    ],
    "AIMABOCPJEH": [
      {
        "param": ""
      },
      {
        "param": ""
      }
    ],
    "AMLHNFKHPKG": 4282645018,
    "BOGDHDPGDEE": 30149903,
    "GBEGODEDDCN": 1001
  },
  {
    "FGFKIDMEOCK": 101101,
    "MDECHKKJKHH": 1011,
    "DOKAADCLEJJ": true,
    "DGJPJNHCKNH": true,
    "LGDCFGGGGII": [
      {
        "param": ""
      },
      {
        "param": ""
      }
    ],
    "AIMABOCPJEH": [
      {
        "param": ""
      },
      {
        "param": ""
      }
    ],
    "AMLHNFKHPKG": 3941698562,
    "BOGDHDPGDEE": 130079917
  },
  {
    "FGFKIDMEOCK": 101102,
    "MDECHKKJKHH": 1011,
    "DOKAADCLEJJ": true,
    "DGJPJNHCKNH": true,
    "LGDCFGGGGII": [
      {
        "param": ""
      },
      {
        "param": ""
      }
    ],
    "AIMABOCPJEH": [
      {
        "param": ""
      },
      {
        "param": ""
      }
    ],
    "AMLHNFKHPKG": 2042070298,
    "BOGDHDPGDEE": 130079918
  },
  {
    "FGFKIDMEOCK": 101103,
    "MDECHKKJKHH": 1011,
    "DOKAADCLEJJ": true,
    "DGJPJNHCKNH": true,
    "LGDCFGGGGII": [
      {
        "param": ""
      },
      {
        "param": ""
      }
    ],
    "AIMABOCPJEH": [
      {
        "param": ""
      },
      {
        "param": ""
      }
    ],
    "AMLHNFKHPKG": 1802173114,
    "BOGDHDPGDEE": 130079919
  },
  {
    "FGFKIDMEOCK": 101104,
    "MDECHKKJKHH": 1011,
    "DOKAADCLEJJ": true,
    "DGJPJNHCKNH": true,
    "LGDCFGGGGII": [
      {
        "param": ""
      },
      {
        "param": ""
      }
    ],
    "AIMABOCPJEH": [
      {
        "param": ""
      },
      {
        "param": ""
      }
    ],
    "AMLHNFKHPKG": 507749746,
    "BOGDHDPGDEE": 130079920
  },
  {
    "FGFKIDMEOCK": 101201,
    "MDECHKKJKHH": 1012,
    "DOKAADCLEJJ": true,
    "DGJPJNHCKNH": true,
    "LGDCFGGGGII": [
      {
        "type": "INFERENCE_ACTION_UNLOCK_WORD",
        "param": "101206"
      },
      {
        "param": ""
      }
    ],
    "AIMABOCPJEH": [
      {
        "param": ""
      },
      {
        "param": ""
      }
    ],
    "AMLHNFKHPKG": 189854010,
    "BOGDHDPGDEE": 130079917
  },
  {
    "FGFKIDMEOCK": 101202,
    "MDECHKKJKHH": 1012,
    "DOKAADCLEJJ": true,
    "DGJPJNHCKNH": true,
    "LGDCFGGGGII": [
      {
        "type": "INFERENCE_ACTION_UNLOCK_WORD",
        "param": "101206"
      },
      {
        "param": ""
      }
    ],
    "AIMABOCPJEH": [
      {
        "param": ""
      },
      {
        "param": ""
      }
    ],
    "AMLHNFKHPKG": 3719528146,
    "BOGDHDPGDEE": 130079918
  },
  {
    "FGFKIDMEOCK": 101203,
    "MDECHKKJKHH": 1012,
    "DOKAADCLEJJ": true,
    "DGJPJNHCKNH": true,
    "LGDCFGGGGII": [
      {
        "param": ""
      },
      {
        "param": ""
      }
    ],
    "AIMABOCPJEH": [
      {
        "param": ""
      },
      {
        "param": ""
      }
    ],
    "AMLHNFKHPKG": 355924730,
    "BOGDHDPGDEE": 130079919
  },
  {
    "FGFKIDMEOCK": 101204,
    "MDECHKKJKHH": 1012,
    "DOKAADCLEJJ": true,
    "DGJPJNHCKNH": true,
    "LGDCFGGGGII": [
      {
        "type": "INFERENCE_ACTION_UNLOCK_WORD",
        "param": "101206"
      },
      {
        "param": ""
      }
    ],
    "AIMABOCPJEH": [
      {
        "param": ""
      },
      {
        "param": ""
      }
    ],
    "AMLHNFKHPKG": 2634684650,
    "BOGDHDPGDEE": 130079920
  },
  {
    "FGFKIDMEOCK": 101205,
    "MDECHKKJKHH": 1012,
    "DOKAADCLEJJ": true,
    "DGJPJNHCKNH": true,
    "LGDCFGGGGII": [
      {
        "param": ""
      },
      {
        "param": ""
      }
    ],
    "AIMABOCPJEH": [
      {
        "param": ""
      },
      {
        "param": ""
      }
    ],
    "AMLHNFKHPKG": 3273445418,
    "BOGDHDPGDEE": 130079921
  },
  {
    "FGFKIDMEOCK": 101206,
    "MDECHKKJKHH": 1012,
    "LGDCFGGGGII": [
      {
        "param": ""
      },
      {
        "param": ""
      }
    ],
    "AIMABOCPJEH": [
      {
        "param": ""
      },
      {
        "param": ""
      }
    ],
    "AMLHNFKHPKG": 3122462930
  },
  {
    "FGFKIDMEOCK": 101301,
    "MDECHKKJKHH": 1013,
    "DOKAADCLEJJ": true,
    "DGJPJNHCKNH": true,
    "LGDCFGGGGII": [
      {
        "param": ""
      },
      {
        "param": ""
      }
    ],
    "AIMABOCPJEH": [
      {
        "param": ""
      },
      {
        "param": ""
      }
    ],
    "AMLHNFKHPKG": 1694571586,
    "BOGDHDPGDEE": 130089910,
    "JEDINLBFALF": true
  },
  {
    "FGFKIDMEOCK": 101302,
    "MDECHKKJKHH": 1013,
    "DOKAADCLEJJ": true,
    "DGJPJNHCKNH": true,
    "LGDCFGGGGII": [
      {
        "param": ""
      },
      {
        "param": ""
      }
    ],
    "AIMABOCPJEH": [
      {
        "param": ""
      },
      {
        "param": ""
      }
    ],
    "AMLHNFKHPKG": 428064474,
    "BOGDHDPGDEE": 130089911,
    "JEDINLBFALF": true
  },
  {
    "FGFKIDMEOCK": 101303,
    "MDECHKKJKHH": 1013,
    "DOKAADCLEJJ": true,
    "DGJPJNHCKNH": true,
    "LGDCFGGGGII": [
      {
        "param": ""
      },
      {
        "param": ""
      }
    ],
    "AIMABOCPJEH": [
      {
        "param": ""
      },
      {
        "param": ""
      }
    ],
    "AMLHNFKHPKG": 534203594,
    "BOGDHDPGDEE": 130089912,
    "JEDINLBFALF": true
  },
  {
    "FGFKIDMEOCK": 101304,
    "MDECHKKJKHH": 1013,
    "DOKAADCLEJJ": true,
    "DGJPJNHCKNH": true,
    "LGDCFGGGGII": [
      {
        "param": ""
      },
      {
        "param": ""
      }
    ],
    "AIMABOCPJEH": [
      {
        "param": ""
      },
      {
        "param": ""
      }
    ],
    "AMLHNFKHPKG": 1520696106,
    "BOGDHDPGDEE": 130089913,
    "JEDINLBFALF": true
  },
  {
    "FGFKIDMEOCK": 101305,
    "MDECHKKJKHH": 1013,
    "DOKAADCLEJJ": true,
    "DGJPJNHCKNH": true,
    "LGDCFGGGGII": [
      {
        "param": ""
      },
      {
        "param": ""
      }
    ],
    "AIMABOCPJEH": [
      {
        "param": ""
      },
      {
        "param": ""
      }
    ],
    "AMLHNFKHPKG": 1938720002,
    "BOGDHDPGDEE": 130089914,
    "JEDINLBFALF": true
  },
  {
    "FGFKIDMEOCK": 101306,
    "MDECHKKJKHH": 1013,
    "DOKAADCLEJJ": true,
    "DGJPJNHCKNH": true,
    "LGDCFGGGGII": [
      {
        "param": ""
      },
      {
        "param": ""
      }
    ],
    "AIMABOCPJEH": [
      {
        "param": ""
      },
      {
        "param": ""
      }
    ],
    "AMLHNFKHPKG": 2101118642,
    "BOGDHDPGDEE": 130089915,
    "JEDINLBFALF": true
  },
  {
    "FGFKIDMEOCK": 101401,
    "MDECHKKJKHH": 1014,
    "DOKAADCLEJJ": true,
    "DGJPJNHCKNH": true,
    "LGDCFGGGGII": [
      {
        "param": ""
      },
      {
        "param": ""
      }
    ],
    "AIMABOCPJEH": [
      {
        "param": ""
      },
      {
        "param": ""
      }
    ],
    "AMLHNFKHPKG": 1360039594,
    "BOGDHDPGDEE": 130089910,
    "JEDINLBFALF": true
  },
  {
    "FGFKIDMEOCK": 101402,
    "MDECHKKJKHH": 1014,
    "DOKAADCLEJJ": true,
    "DGJPJNHCKNH": true,
    "LGDCFGGGGII": [
      {
        "param": ""
      },
      {
        "param": ""
      }
    ],
    "AIMABOCPJEH": [
      {
        "param": ""
      },
      {
        "param": ""
      }
    ],
    "AMLHNFKHPKG": 4039964394,
    "BOGDHDPGDEE": 130089911,
    "JEDINLBFALF": true
  },
  {
    "FGFKIDMEOCK": 101403,
    "MDECHKKJKHH": 1014,
    "DOKAADCLEJJ": true,
    "DGJPJNHCKNH": true,
    "LGDCFGGGGII": [
      {
        "param": ""
      },
      {
        "param": ""
      }
    ],
    "AIMABOCPJEH": [
      {
        "param": ""
      },
      {
        "param": ""
      }
    ],
    "AMLHNFKHPKG": 3246564290,
    "BOGDHDPGDEE": 130089912,
    "JEDINLBFALF": true
  },
  {
    "FGFKIDMEOCK": 101404,
    "MDECHKKJKHH": 1014,
    "DOKAADCLEJJ": true,
    "DGJPJNHCKNH": true,
    "LGDCFGGGGII": [
      {
        "param": ""
      },
      {
        "param": ""
      }
    ],
    "AIMABOCPJEH": [
      {
        "param": ""
      },
      {
        "param": ""
      }
    ],
    "AMLHNFKHPKG": 1036795482,
    "BOGDHDPGDEE": 130089913,
    "JEDINLBFALF": true
  },
  {
    "FGFKIDMEOCK": 101405,
    "MDECHKKJKHH": 1014,
    "DOKAADCLEJJ": true,
    "DGJPJNHCKNH": true,
    "LGDCFGGGGII": [
      {
        "param": ""
      },
      {
        "param": ""
      }
    ],
    "AIMABOCPJEH": [
      {
        "param": ""
      },
      {
        "param": ""
      }
    ],
    "AMLHNFKHPKG": 1553522218,
    "BOGDHDPGDEE": 130089914,
    "JEDINLBFALF": true
  },
  {
    "FGFKIDMEOCK": 101406,
    "MDECHKKJKHH": 1014,
    "DOKAADCLEJJ": true,
    "DGJPJNHCKNH": true,
    "LGDCFGGGGII": [
      {
        "param": ""
      },
      {
        "param": ""
      }
    ],
    "AIMABOCPJEH": [
      {
        "param": ""
      },
      {
        "param": ""
      }
    ],
    "AMLHNFKHPKG": 226487490,
    "BOGDHDPGDEE": 130089915,
    "JEDINLBFALF": true
  },
  {
    "FGFKIDMEOCK": 101501,
    "MDECHKKJKHH": 1015,
    "DOKAADCLEJJ": true,
    "DGJPJNHCKNH": true,
    "LGDCFGGGGII": [
      {
        "param": ""
      },
      {
        "param": ""
      }
    ],
    "AIMABOCPJEH": [
      {
        "param": ""
      },
      {
        "param": ""
      }
    ],
    "AMLHNFKHPKG": 905469546,
    "BOGDHDPGDEE": 130089910,
    "JEDINLBFALF": true
  },
  {
    "FGFKIDMEOCK": 101502,
    "MDECHKKJKHH": 1015,
    "DOKAADCLEJJ": true,
    "DGJPJNHCKNH": true,
    "LGDCFGGGGII": [
      {
        "param": ""
      },
      {
        "param": ""
      }
    ],
    "AIMABOCPJEH": [
      {
        "param": ""
      },
      {
        "param": ""
      }
    ],
    "AMLHNFKHPKG": 940186834,
    "BOGDHDPGDEE": 130089911,
    "JEDINLBFALF": true
  },
  {
    "FGFKIDMEOCK": 101503,
    "MDECHKKJKHH": 1015,
    "DOKAADCLEJJ": true,
    "DGJPJNHCKNH": true,
    "LGDCFGGGGII": [
      {
        "param": ""
      },
      {
        "param": ""
      }
    ],
    "AIMABOCPJEH": [
      {
        "param": ""
      },
      {
        "param": ""
      }
    ],
    "AMLHNFKHPKG": 1975828418,
    "BOGDHDPGDEE": 130089912,
    "JEDINLBFALF": true
  },
  {
    "FGFKIDMEOCK": 101504,
    "MDECHKKJKHH": 1015,
    "DOKAADCLEJJ": true,
    "DGJPJNHCKNH": true,
    "LGDCFGGGGII": [
      {
        "param": ""
      },
      {
        "param": ""
      }
    ],
    "AIMABOCPJEH": [
      {
        "param": ""
      },
      {
        "param": ""
      }
    ],
    "AMLHNFKHPKG": 968255698,
    "BOGDHDPGDEE": 130089913,
    "JEDINLBFALF": true
  },
  {
    "FGFKIDMEOCK": 101505,
    "MDECHKKJKHH": 1015,
    "DOKAADCLEJJ": true,
    "DGJPJNHCKNH": true,
    "LGDCFGGGGII": [
      {
        "param": ""
      },
      {
        "param": ""
      }
    ],
    "AIMABOCPJEH": [
      {
        "param": ""
      },
      {
        "param": ""
      }
    ],
    "AMLHNFKHPKG": 695596786,
    "BOGDHDPGDEE": 130089914,
    "JEDINLBFALF": true
  },
  {
    "FGFKIDMEOCK": 101506,
    "MDECHKKJKHH": 1015,
    "DOKAADCLEJJ": true,
    "DGJPJNHCKNH": true,
    "LGDCFGGGGII": [
      {
        "param": ""
      },
      {
        "param": ""
      }
    ],
    "AIMABOCPJEH": [
      {
        "param": ""
      },
      {
        "param": ""
      }
    ],
    "AMLHNFKHPKG": 2208270170,
    "BOGDHDPGDEE": 130089915,
    "JEDINLBFALF": true
  },
  {
    "FGFKIDMEOCK": 101601,
    "MDECHKKJKHH": 1016,
    "DOKAADCLEJJ": true,
    "DGJPJNHCKNH": true,
    "LGDCFGGGGII": [
      {
        "param": ""
      },
      {
        "param": ""
      }
    ],
    "AIMABOCPJEH": [
      {
        "param": ""
      },
      {
        "param": ""
      }
    ],
    "AMLHNFKHPKG": 1953951002,
    "BOGDHDPGDEE": 130089910,
    "JEDINLBFALF": true
  },
  {
    "FGFKIDMEOCK": 101602,
    "MDECHKKJKHH": 1016,
    "DOKAADCLEJJ": true,
    "DGJPJNHCKNH": true,
    "LGDCFGGGGII": [
      {
        "param": ""
      },
      {
        "param": ""
      }
    ],
    "AIMABOCPJEH": [
      {
        "param": ""
      },
      {
        "param": ""
      }
    ],
    "AMLHNFKHPKG": 3382073810,
    "BOGDHDPGDEE": 130089911,
    "JEDINLBFALF": true
  },
  {
    "FGFKIDMEOCK": 101603,
    "MDECHKKJKHH": 1016,
    "DOKAADCLEJJ": true,
    "DGJPJNHCKNH": true,
    "LGDCFGGGGII": [
      {
        "param": ""
      },
      {
        "param": ""
      }
    ],
    "AIMABOCPJEH": [
      {
        "param": ""
      },
      {
        "param": ""
      }
    ],
    "AMLHNFKHPKG": 3340891050,
    "BOGDHDPGDEE": 130089912,
    "JEDINLBFALF": true
  },
  {
    "FGFKIDMEOCK": 101604,
    "MDECHKKJKHH": 1016,
    "DOKAADCLEJJ": true,
    "DGJPJNHCKNH": true,
    "LGDCFGGGGII": [
      {
        "param": ""
      },
      {
        "param": ""
      }
    ],
    "AIMABOCPJEH": [
      {
        "param": ""
      },
      {
        "param": ""
      }
    ],
    "AMLHNFKHPKG": 3039516002,
    "BOGDHDPGDEE": 130089913,
    "JEDINLBFALF": true
  },
  {
    "FGFKIDMEOCK": 101605,
    "MDECHKKJKHH": 1016,
    "DOKAADCLEJJ": true,
    "DGJPJNHCKNH": true,
    "LGDCFGGGGII": [
      {
        "param": ""
      },
      {
        "param": ""
      }
    ],
    "AIMABOCPJEH": [
      {
        "param": ""
      },
      {
        "param": ""
      }
    ],
    "AMLHNFKHPKG": 1087515434,
    "BOGDHDPGDEE": 130089914,
    "JEDINLBFALF": true
  },
  {
    "FGFKIDMEOCK": 101606,
    "MDECHKKJKHH": 1016,
    "DOKAADCLEJJ": true,
    "DGJPJNHCKNH": true,
    "LGDCFGGGGII": [
      {
        "param": ""
      },
      {
        "param": ""
      }
    ],
    "AIMABOCPJEH": [
      {
        "param": ""
      },
      {
        "param": ""
      }
    ],
    "AMLHNFKHPKG": 3097934962,
    "BOGDHDPGDEE": 130089915,
    "JEDINLBFALF": true
  },
  {
    "FGFKIDMEOCK": 101701,
    "MDECHKKJKHH": 1017,
    "DOKAADCLEJJ": true,
    "DGJPJNHCKNH": true,
    "LGDCFGGGGII": [
      {
        "param": ""
      },
      {
        "param": ""
      }
    ],
    "AIMABOCPJEH": [
      {
        "param": ""
      },
      {
        "param": ""
      }
    ],
    "AMLHNFKHPKG": 747295642,
    "BOGDHDPGDEE": 130089914,
    "JEDINLBFALF": true
  },
  {
    "FGFKIDMEOCK": 101801,
    "MDECHKKJKHH": 1018,
    "DOKAADCLEJJ": true,
    "DGJPJNHCKNH": true,
    "LGDCFGGGGII": [
      {
        "type": "INFERENCE_ACTION_UNLOCK_WORD",
        "param": "101805"
      },
      {
        "param": ""
      }
    ],
    "AIMABOCPJEH": [
      {
        "param": ""
      },
      {
        "param": ""
      }
    ],
    "AMLHNFKHPKG": 623165314,
    "BOGDHDPGDEE": 191539902,
    "APJANNODPDM": 191539908,
    "JEDINLBFALF": true
  },
  {
    "FGFKIDMEOCK": 101802,
    "MDECHKKJKHH": 1018,
    "DOKAADCLEJJ": true,
    "DGJPJNHCKNH": true,
    "LGDCFGGGGII": [
      {
        "param": ""
      },
      {
        "param": ""
      }
    ],
    "AIMABOCPJEH": [
      {
        "param": ""
      },
      {
        "param": ""
      }
    ],
    "AMLHNFKHPKG": 4231621266,
    "BOGDHDPGDEE": 191539903,
    "APJANNODPDM": 191539908,
    "JEDINLBFALF": true
  },
  {
    "FGFKIDMEOCK": 101803,
    "MDECHKKJKHH": 1018,
    "DOKAADCLEJJ": true,
    "DGJPJNHCKNH": true,
    "LGDCFGGGGII": [
      {
        "param": ""
      },
      {
        "param": ""
      }
    ],
    "AIMABOCPJEH": [
      {
        "param": ""
      },
      {
        "param": ""
      }
    ],
    "AMLHNFKHPKG": 3924215250,
    "BOGDHDPGDEE": 191539904,
    "APJANNODPDM": 191539908,
    "JEDINLBFALF": true
  },
  {
    "FGFKIDMEOCK": 101804,
    "MDECHKKJKHH": 1018,
    "DOKAADCLEJJ": true,
    "DGJPJNHCKNH": true,
    "LGDCFGGGGII": [
      {
        "param": ""
      },
      {
        "param": ""
      }
    ],
    "AIMABOCPJEH": [
      {
        "param": ""
      },
      {
        "param": ""
      }
    ],
    "AMLHNFKHPKG": 1248888538,
    "BOGDHDPGDEE": 191539905,
    "APJANNODPDM": 191539908,
    "JEDINLBFALF": true
  },
  {
    "FGFKIDMEOCK": 101805,
    "MDECHKKJKHH": 1018,
    "DGJPJNHCKNH": true,
    "LGDCFGGGGII": [
      {
        "param": ""
      },
      {
        "param": ""
      }
    ],
    "HFIPHDJCCEF": true,
    "PAMMHFGBKDA": 101804,
    "AIMABOCPJEH": [
      {
        "type": "INFERENCE_ACTION_UNLOCK_WORD",
        "param": "101806"
      },
      {
        "param": ""
      }
    ],
    "AMLHNFKHPKG": 1710442778,
    "BOGDHDPGDEE": 191539906,
    "APJANNODPDM": 191539908,
    "JEDINLBFALF": true
  },
  {
    "FGFKIDMEOCK": 101806,
    "MDECHKKJKHH": 1018,
    "LGDCFGGGGII": [
      {
        "param": ""
      },
      {
        "param": ""
      }
    ],
    "AIMABOCPJEH": [
      {
        "param": ""
      },
      {
        "param": ""
      }
    ],
    "AMLHNFKHPKG": 138709346,
    "APJANNODPDM": 191539908,
    "JEDINLBFALF": true
  }
]
