[
  {
    "levelId": 1,
    "LEGPNONBKII": 200100840,
    "NNDAJIEDILA": 20190201,
    "ADCEPKFDICF": "21020201:1,21010101:1,21010301:1,21010201:1"
  },
  {
    "levelId": 2,
    "LEGPNONBKII": 200100840,
    "NNDAJIEDILA": 20190202,
    "ADCEPKFDICF": "21020701:1,20011101:1,21010201:1,21011001:1,20011001:1"
  },
  {
    "levelId": 3,
    "LEGPNONBKII": 200100840,
    "NNDAJIEDILA": 20190203,
    "ADCEPKFDICF": "21020201:1,21020701:1,21010201:1,21010401:1,21010101:1"
  },
  {
    "levelId": 4,
    "LEGPNONBKII": 200100840,
    "NNDAJIEDILA": 20190204,
    "ADCEPKFDICF": "25070101:1,25010201:1,25010701:1,25010401:1,25010601:1"
  },
  {
    "levelId": 5,
    "LEGPNONBKII": 200100840,
    "NNDAJIEDILA": 20190205,
    "ADCEPKFDICF": "20010401:1,20010601:1,20011401:1,20010501:1,20011001:1"
  },
  {
    "levelId": 6,
    "LEGPNONBKII": 200100840,
    "NNDAJIEDILA": 20190206,
    "ADCEPKFDICF": "21020301:1,21030101:1,21010101:1,21010201:1"
  },
  {
    "levelId": 7,
    "LEGPNONBKII": 200100840,
    "NNDAJIEDILA": 20190207,
    "ADCEPKFDICF": "26120101:1,26120301:1,26090101:1,26090201:1,26090501:1,26090401:1"
  },
  {
    "levelId": 8,
    "LEGPNONBKII": 200100840,
    "NNDAJIEDILA": 20190208,
    "ADCEPKFDICF": "21020701:1,21030601:1,21010201:1,21010101:1"
  },
  {
    "levelId": 9,
    "LEGPNONBKII": 200100840,
    "NNDAJIEDILA": 20190209,
    "ADCEPKFDICF": "25210302:1,25210401:1,25210502:1,25210202:1,25310101:1"
  },
  {
    "levelId": 10,
    "LEGPNONBKII": 200100840,
    "NNDAJIEDILA": 20190210,
    "ADCEPKFDICF": "21020201:1,21030101:1,21010501:1,21010201:1"
  },
  {
    "levelId": 11,
    "LEGPNONBKII": 200100840,
    "NNDAJIEDILA": 20190211,
    "ADCEPKFDICF": "26010201:1,20010601:1,20010301:1,20010501:1,20010801:1"
  },
  {
    "levelId": 12,
    "LEGPNONBKII": 200100840,
    "NNDAJIEDILA": 20190212,
    "ADCEPKFDICF": "21020701:1,21020201:1,21010201:1,21010601:1,21010401:1"
  }
]
