[
  {
    "id": 1,
    "sceneID": 3,
    "name": "\u9e64\u89c2\u5927\u8ff7\u96fe",
    "HCOMBHOELJJ": [18],
    "CPKEBPPNDDH": 382,
    "ILICKGHDNKP": "MistOpen"
  },
  {
    "id": 2,
    "sceneID": 3,
    "name": "\u9e64\u89c2\u6559\u5b66\u8ff7\u96fe",
    "HCOMBHOELJJ": [18],
    "CPKEBPPNDDH": 382,
    "ILICKGHDNKP": "MistOpen"
  },
  {
    "id": 3,
    "sceneID": 3,
    "name": "\u9e64\u89c2\u795e\u6bbf\u8ff7\u96fe",
    "HCOMBHOELJJ": [18],
    "CPKEBPPNDDH": 382,
    "ILICKGHDNKP": "MistOpen"
  },
  {
    "id": 4,
    "sceneID": 3,
    "name": "\u9e64\u89c2\u5c71\u8ff7\u96fe",
    "HCOMBHOELJJ": [18],
    "CPKEBPPNDDH": 382,
    "ILICKGHDNKP": "MistOpen"
  },
  {
    "id": 5,
    "sceneID": 3,
    "name": "\u9e64\u89c2\u540e\u5c71\u8ff7\u96fe",
    "HCOMBHOELJJ": [18],
    "CPKEBPPNDDH": 382
  },
  {
    "id": 6,
    "sceneID": 3,
    "name": "\u9e64\u89c2\u72fc\u7a9d\u8ff7\u96fe",
    "HCOMBHOELJJ": [18],
    "CPKEBPPNDDH": 382,
    "ILICKGHDNKP": "MistOpen"
  },
  {
    "id": 7,
    "sceneID": 3,
    "name": "\u9e64\u89c2\u52ab\u96be\u4e4b\u65e5\u5927\u8ff7\u96fe",
    "HCOMBHOELJJ": [18],
    "CPKEBPPNDDH": 382
  },
  {
    "id": 8,
    "sceneID": 3,
    "name": "\u9e64\u89c2\u52ab\u96be\u4e4b\u65e5\u540e\u5c71\u8ff7\u96fe",
    "HCOMBHOELJJ": [18],
    "CPKEBPPNDDH": 382
  },
  {
    "id": 9,
    "sceneID": 3,
    "name": "\u9e64\u89c2\u52ab\u96be\u4e4b\u65e5\u5927\u8ff7\u96fe\u8f7b\u8584",
    "HCOMBHOELJJ": [18],
    "CPKEBPPNDDH": 382
  },
  {
    "id": 10,
    "type": "MAP_AREA_TYPE_EROSION",
    "sceneID": 7,
    "name": "\u4e09\u754c\u8def\u98e8\u796d\u4fb5\u8680\u96be\u5ea6\u533a\u57df1",
    "HCOMBHOELJJ": [210],
    "ILICKGHDNKP": "MistOpen"
  },
  {
    "id": 11,
    "type": "MAP_AREA_TYPE_EROSION",
    "sceneID": 7,
    "name": "\u4e09\u754c\u8def\u98e8\u796d\u4fb5\u8680\u96be\u5ea6\u533a\u57df2",
    "HCOMBHOELJJ": [210],
    "ILICKGHDNKP": "MistOpen"
  },
  {
    "id": 12,
    "type": "MAP_AREA_TYPE_EROSION",
    "sceneID": 7,
    "name": "\u4e09\u754c\u8def\u98e8\u796d\u4fb5\u8680\u96be\u5ea6\u533a\u57df3",
    "HCOMBHOELJJ": [210],
    "ILICKGHDNKP": "MistOpen"
  },
  {
    "id": 13,
    "type": "MAP_AREA_TYPE_EROSION",
    "sceneID": 7,
    "name": "\u4e09\u754c\u8def\u98e8\u796d\u4fb5\u8680\u96be\u5ea6\u533a\u57df4",
    "HCOMBHOELJJ": [210],
    "ILICKGHDNKP": "MistOpen"
  },
  {
    "id": 14,
    "type": "MAP_AREA_TYPE_EROSION",
    "sceneID": 7,
    "name": "\u4e09\u754c\u8def\u98e8\u796d\u4fb5\u8680\u96be\u5ea6\u533a\u57df5",
    "HCOMBHOELJJ": [210],
    "ILICKGHDNKP": "MistOpen"
  },
  {
    "id": 15,
    "type": "MAP_AREA_TYPE_EROSION",
    "sceneID": 7,
    "name": "\u4e09\u754c\u8def\u98e8\u796d\u4fb5\u8680\u96be\u5ea6\u533a\u57df6",
    "HCOMBHOELJJ": [210],
    "ILICKGHDNKP": "MistOpen"
  },
  {
    "id": 16,
    "sceneID": 5,
    "name": "\u6e0a\u4e0b\u5bab\u5730\u56fe\u89e3\u9501",
    "HCOMBHOELJJ": [200],
    "CPKEBPPNDDH": 39
  },
  {
    "id": 17,
    "sceneID": 7,
    "name": "\u4e09\u754c\u8def\u98e8\u796d\u5730\u56fe\u89e3\u9501",
    "HCOMBHOELJJ": [210],
    "ILICKGHDNKP": "MistOpen"
  },
  {
    "id": 18,
    "sceneID": 6,
    "name": "\u4e34\u65f6\u4e3b\u77ff\u9053",
    "HCOMBHOELJJ": [300],
    "CPKEBPPNDDH": 2,
    "ILICKGHDNKP": "MistOpen"
  },
  {
    "id": 20,
    "sceneID": 6,
    "name": "\u5d0e\u5c96\u77f3\u5385",
    "HCOMBHOELJJ": [300],
    "CPKEBPPNDDH": 7,
    "ILICKGHDNKP": "MistOpen"
  },
  {
    "id": 21,
    "sceneID": 6,
    "name": "\u65e0\u540d\u9057\u8ff9",
    "HCOMBHOELJJ": [300],
    "CPKEBPPNDDH": 11,
    "ILICKGHDNKP": "MistOpen"
  },
  {
    "id": 22,
    "sceneID": 6,
    "name": "\u5de8\u86c7\u5ca9\u7a9f",
    "HCOMBHOELJJ": [300],
    "CPKEBPPNDDH": 3,
    "ILICKGHDNKP": "MistOpen"
  },
  {
    "id": 23,
    "sceneID": 6,
    "name": "\u8367\u5149\u66f2\u5f84",
    "HCOMBHOELJJ": [300],
    "CPKEBPPNDDH": 12,
    "ILICKGHDNKP": "MistOpen"
  },
  {
    "id": 24,
    "sceneID": 6,
    "name": "\u5927\u788e\u7247",
    "HCOMBHOELJJ": [300],
    "CPKEBPPNDDH": 13,
    "ILICKGHDNKP": "MistOpen"
  },
  {
    "id": 25,
    "type": "MAP_AREA_TYPE_EROSION",
    "sceneID": 7,
    "name": "\u4e09\u754c\u8def\u98e8\u796d\u4fb5\u8680\u8ff7\u96fe",
    "HCOMBHOELJJ": [210],
    "ILICKGHDNKP": "MistOpen"
  },
  {
    "id": 30,
    "type": "MAP_AREA_TYPE_LEVEL_TAG",
    "sceneID": 9,
    "name": "\u6d77\u5c9bLevelTag\u5207\u6362\u533a\u57df - \u5e03\u4e01\u5c9b",
    "HCOMBHOELJJ": [400],
    "ILICKGHDNKP": "MistOpen"
  },
  {
    "id": 31,
    "type": "MAP_AREA_TYPE_LEVEL_TAG",
    "sceneID": 9,
    "name": "\u6d77\u5c9bLevelTag\u5207\u6362\u533a\u57df - \u53cc\u53cc\u5c9b",
    "HCOMBHOELJJ": [401],
    "ILICKGHDNKP": "MistOpen"
  },
  {
    "id": 32,
    "type": "MAP_AREA_TYPE_LEVEL_TAG",
    "sceneID": 9,
    "name": "\u6d77\u5c9bLevelTag\u5207\u6362\u533a\u57df - \u7834\u7834\u5c9b",
    "HCOMBHOELJJ": [402],
    "ILICKGHDNKP": "MistOpen"
  },
  {
    "id": 33,
    "type": "MAP_AREA_TYPE_LEVEL_TAG",
    "sceneID": 9,
    "name": "\u6d77\u5c9bLevelTag\u5207\u6362\u533a\u57df - \u5371\u5371\u5c9b",
    "HCOMBHOELJJ": [403],
    "ILICKGHDNKP": "MistOpen"
  },
  {
    "id": 34,
    "type": "MAP_AREA_TYPE_LEVEL_TAG",
    "sceneID": 3,
    "name": "\u6c99\u5c18\u66b4\u542f\u52a8",
    "HCOMBHOELJJ": [32],
    "ILICKGHDNKP": "MistOpen"
  },
  {
    "id": 35,
    "type": "MAP_AREA_TYPE_LEVEL_TAG",
    "sceneID": 3,
    "name": "\u6c99\u5c18\u66b4\u5e38\u9a7b\u5173\u95ed",
    "HCOMBHOELJJ": [32],
    "ILICKGHDNKP": "MistOpen"
  },
  {
    "id": 36,
    "type": "MAP_AREA_TYPE_LEVEL_TAG",
    "sceneID": 3,
    "name": "\u6d41\u6c99\u5751\u533a\u57df\u5207\u6362",
    "HCOMBHOELJJ": [26],
    "ILICKGHDNKP": "MistOpen"
  },
  {
    "id": 37,
    "type": "MAP_AREA_TYPE_LEVEL_TAG",
    "sceneID": 3,
    "name": "\u5723\u663e\u5385\u533a\u57df\u5207\u6362",
    "HCOMBHOELJJ": [26],
    "ILICKGHDNKP": "MistOpen"
  },
  {
    "id": 38,
    "type": "MAP_AREA_TYPE_LEVEL_TAG",
    "sceneID": 3,
    "name": "\u8d64\u738b\u9675\u533a\u57df\u5207\u6362",
    "HCOMBHOELJJ": [27],
    "ILICKGHDNKP": "MistOpen"
  },
  {
    "id": 39,
    "type": "MAP_AREA_TYPE_LEVEL_TAG",
    "sceneID": 3,
    "name": "\u8d64\u738b\u9675\u540e\u65b9\u5730\u6d1e\u533a\u57df\u5207\u6362",
    "HCOMBHOELJJ": [27],
    "ILICKGHDNKP": "MistOpen"
  },
  {
    "id": 40,
    "sceneID": 3,
    "name": "\u673a\u5668\u4ebaA\u70b9",
    "HCOMBHOELJJ": [32],
    "ILICKGHDNKP": "MistOpen"
  },
  {
    "id": 41,
    "sceneID": 3,
    "name": "\u673a\u5668\u4ebaB\u70b9",
    "HCOMBHOELJJ": [32]
  },
  {
    "id": 42,
    "sceneID": 3,
    "name": "\u673a\u5668\u4ebaC\u70b9",
    "HCOMBHOELJJ": [32]
  },
  {
    "id": 43,
    "sceneID": 3,
    "name": "\u673a\u5668\u4ebaD\u70b9",
    "HCOMBHOELJJ": [32]
  },
  {
    "id": 44,
    "sceneID": 3,
    "name": "\u795e\u4e4b\u68cb\u76d8",
    "HCOMBHOELJJ": [32]
  },
  {
    "id": 45,
    "sceneID": 3,
    "name": "\u837c\u6ce5\u9ed1\u6e0a\u6811\u58f31",
    "HCOMBHOELJJ": [30]
  },
  {
    "id": 46,
    "sceneID": 3,
    "name": "\u837c\u6ce5\u9ed1\u6e0a\u6811\u58f32",
    "HCOMBHOELJJ": [30]
  },
  {
    "id": 47,
    "sceneID": 3,
    "name": "\u837c\u6ce5\u9ed1\u6e0a\u6811\u58f33",
    "HCOMBHOELJJ": [30]
  },
  {
    "id": 48,
    "sceneID": 3,
    "name": "\u837c\u6ce5\u9ed1\u6e0a\u6811\u58f34",
    "HCOMBHOELJJ": [30]
  },
  {
    "id": 49,
    "sceneID": 3,
    "name": "\u837c\u6ce5\u9ed1\u6e0a\u6811\u58f35",
    "HCOMBHOELJJ": [30]
  },
  {
    "id": 50,
    "sceneID": 3,
    "name": "\u837c\u6ce5\u9ed1\u6e0a\u6700\u7ec8\u53d8\u5316",
    "HCOMBHOELJJ": [30]
  }
]
