[
  {
    "activityID": 2011,
    "descTextMapHash": 2818846756,
    "NENIIKJIHHA": 1487680087,
    "DLKPEKCCONL": 2317756804,
    "rewardPreviewID": 33331,
    "pushTipsID": 6052,
    "OKPGIEABIHO": 20112001,
    "IPOEKBAGNAH": 100.0,
    "ACLKMMPNIFI": 160.0,
    "DNGAAICHGKG": 50,
    "FANHDOHHFFA": 200908,
    "CLNNNFOEJFN": 4004717,
    "MJCIPIAOAMJ": 4005116,
    "DAPKDNFFJOP": {
      "40060": 2,
      "10031": 1,
      "72233": 2,
      "10055": 1,
      "40061": 2,
      "10059": 1
    },
    "OCJAPKBDMLB": [40060, 10031, 72233, 10055, 40061, 10059]
  }
]
