[
  {
    "id": 1,
    "playType": "MP_PLAY_CRUCIBLE",
    "playNameTextMapHash": 1391810210,
    "playDescTextMapHash": 4078540324,
    "isAutoMatch": true,
    "minPlayers": 2,
    "maxPlayers": 4,
    "isAllowInAnyTime": true,
    "isMatchNecessary": true,
    "settleType": "MP_PLAY_SETTLE_OLD",
    "buffList": [],
    "pushTipsId": 6001,
    "bgImage": "ART/UI/Atlas/ActivitySignImg/UI_Icon_CrucibleBg"
  },
  {
    "id": 2,
    "playType": "MP_PLAY_ASTER",
    "playNameTextMapHash": 3235082754,
    "playDescTextMapHash": 3873872452,
    "isAutoMatch": true,
    "minPlayers": 2,
    "maxPlayers": 4,
    "isAllowInAnyTime": true,
    "settleType": "MP_PLAY_SETTLE_OLD",
    "buffList": [1, 2],
    "pushTipsId": 9002,
    "bgImage": "ART/UI/Atlas/ActivitySignImg/UI_Icon_SettlementBg_Aster"
  },
  {
    "id": 3,
    "playType": "MP_PLAY_DRAGON_SPINE",
    "playNameTextMapHash": 285503954,
    "playDescTextMapHash": 3660674564,
    "isAutoMatch": true,
    "minPlayers": 2,
    "maxPlayers": 4,
    "isAllowInAnyTime": true,
    "settleType": "MP_PLAY_SETTLE_OLD",
    "buffList": [],
    "pushTipsId": 9003,
    "bgImage": "ART/UI/Atlas/ActivitySignImg/UI_Icon_SettlementBg_Dragonspine",
    "FFOJAECBGAK": true
  },
  {
    "id": 4,
    "playType": "MP_PLAY_WATER_SPRITE",
    "playNameTextMapHash": 968835426,
    "playDescTextMapHash": 326086028,
    "isAutoMatch": true,
    "minPlayers": 2,
    "maxPlayers": 4,
    "isAllowInAnyTime": true,
    "settleType": "MP_PLAY_SETTLE_OLD",
    "buffList": [],
    "bgImage": "ART/UI/Atlas/ActivitySignImg/UI_Icon_SettlementBg_Common",
    "FFOJAECBGAK": true
  },
  {
    "id": 5,
    "playType": "MP_PLAY_WINTER_CAMP",
    "playNameTextMapHash": 865127498,
    "playDescTextMapHash": 932380964,
    "isAutoMatch": true,
    "minPlayers": 2,
    "maxPlayers": 4,
    "isAllowInAnyTime": true,
    "settleType": "MP_PLAY_SETTLE_CARD",
    "DADNFPOFLJB": 10901,
    "buffList": [],
    "pushTipsId": 6038,
    "bgImage": "ART/UI/Atlas/ActivitySignImg/UI_Icon_SettlementBg_Common",
    "FFOJAECBGAK": true
  }
]
