[
  {
    "offeringId": 1,
    "level": 1,
    "actionVec": [{}, {}],
    "rewardId": 311101,
    "JMHOKOJDNAB": [
      {
        "param": ""
      },
      {
        "param": ""
      }
    ]
  },
  {
    "offeringId": 1,
    "level": 2,
    "actionVec": [
      {
        "id": 107010,
        "count": 10
      },
      {}
    ],
    "rewardId": 311102,
    "JMHOKOJDNAB": [
      {
        "param": ""
      },
      {
        "actionType": "OFFERING_ACTION_NOTIFY_GROUP",
        "param": "133008191"
      }
    ],
    "OFBPMMODJLN": 18
  },
  {
    "offeringId": 1,
    "level": 3,
    "actionVec": [
      {
        "id": 107010,
        "count": 10
      },
      {}
    ],
    "rewardId": 311103,
    "JMHOKOJDNAB": [
      {
        "param": ""
      },
      {
        "actionType": "OFFERING_ACTION_NOTIFY_GROUP",
        "param": "133008191"
      }
    ],
    "OFBPMMODJLN": 18
  },
  {
    "offeringId": 1,
    "level": 4,
    "actionVec": [
      {
        "id": 107010,
        "count": 10
      },
      {}
    ],
    "rewardId": 311104,
    "JMHOKOJDNAB": [
      {
        "param": ""
      },
      {
        "actionType": "OFFERING_ACTION_NOTIFY_GROUP",
        "param": "133008191"
      }
    ],
    "OFBPMMODJLN": 18
  },
  {
    "offeringId": 1,
    "level": 5,
    "actionVec": [
      {
        "id": 107010,
        "count": 10
      },
      {}
    ],
    "rewardId": 311105,
    "JMHOKOJDNAB": [
      {
        "param": ""
      },
      {
        "actionType": "OFFERING_ACTION_NOTIFY_GROUP",
        "param": "133008191"
      }
    ],
    "OFBPMMODJLN": 18
  },
  {
    "offeringId": 1,
    "level": 6,
    "actionVec": [
      {
        "id": 107010,
        "count": 10
      },
      {}
    ],
    "rewardId": 311106,
    "JMHOKOJDNAB": [
      {
        "param": ""
      },
      {
        "actionType": "OFFERING_ACTION_NOTIFY_GROUP",
        "param": "133008191"
      }
    ],
    "OFBPMMODJLN": 18
  },
  {
    "offeringId": 1,
    "level": 7,
    "actionVec": [
      {
        "id": 107010,
        "count": 10
      },
      {}
    ],
    "rewardId": 311107,
    "JMHOKOJDNAB": [
      {
        "param": ""
      },
      {
        "actionType": "OFFERING_ACTION_NOTIFY_GROUP",
        "param": "133008191"
      }
    ],
    "OFBPMMODJLN": 18
  },
  {
    "offeringId": 1,
    "level": 8,
    "actionVec": [
      {
        "id": 107010,
        "count": 10
      },
      {}
    ],
    "rewardId": 311108,
    "JMHOKOJDNAB": [
      {
        "actionType": "OFFERING_ACTION_OPEN_ROUTINE",
        "param": "ROUTINE_SNOW_MOUNTAIN"
      },
      {
        "actionType": "OFFERING_ACTION_NOTIFY_GROUP",
        "param": "133008191"
      }
    ],
    "OFBPMMODJLN": 19
  },
  {
    "offeringId": 1,
    "level": 9,
    "actionVec": [
      {
        "id": 107010,
        "count": 10
      },
      {}
    ],
    "rewardId": 311109,
    "JMHOKOJDNAB": [
      {
        "param": ""
      },
      {
        "actionType": "OFFERING_ACTION_NOTIFY_GROUP",
        "param": "133008191"
      }
    ],
    "OFBPMMODJLN": 20
  },
  {
    "offeringId": 1,
    "level": 10,
    "actionVec": [
      {
        "id": 107010,
        "count": 10
      },
      {}
    ],
    "rewardId": 311110,
    "JMHOKOJDNAB": [
      {
        "param": ""
      },
      {
        "actionType": "OFFERING_ACTION_NOTIFY_GROUP",
        "param": "133008191"
      }
    ],
    "OFBPMMODJLN": 20
  },
  {
    "offeringId": 1,
    "level": 11,
    "actionVec": [
      {
        "id": 107010,
        "count": 10
      },
      {}
    ],
    "rewardId": 311111,
    "JMHOKOJDNAB": [
      {
        "param": ""
      },
      {
        "actionType": "OFFERING_ACTION_NOTIFY_GROUP",
        "param": "133008191"
      }
    ],
    "OFBPMMODJLN": 20
  },
  {
    "offeringId": 1,
    "level": 12,
    "actionVec": [
      {
        "id": 107010,
        "count": 10
      },
      {}
    ],
    "rewardId": 311112,
    "JMHOKOJDNAB": [
      {
        "actionType": "OFFERING_ACTION_CLOSE_ROUTINE",
        "param": "ROUTINE_SNOW_MOUNTAIN"
      },
      {
        "actionType": "OFFERING_ACTION_NOTIFY_GROUP",
        "param": "133008191"
      }
    ],
    "OFBPMMODJLN": 21
  },
  {
    "offeringId": 2,
    "actionVec": [{}, {}],
    "JMHOKOJDNAB": [
      {
        "param": ""
      },
      {
        "param": ""
      }
    ]
  },
  {
    "offeringId": 2,
    "level": 1,
    "actionVec": [
      {
        "id": 304,
        "count": 25
      },
      {}
    ],
    "rewardId": 211001,
    "JMHOKOJDNAB": [
      {
        "param": ""
      },
      {
        "param": ""
      }
    ]
  },
  {
    "offeringId": 2,
    "level": 2,
    "actionVec": [
      {
        "id": 304,
        "count": 25
      },
      {}
    ],
    "rewardId": 211002,
    "JMHOKOJDNAB": [
      {
        "param": ""
      },
      {
        "param": ""
      }
    ]
  },
  {
    "offeringId": 2,
    "level": 3,
    "actionVec": [
      {
        "id": 304,
        "count": 25
      },
      {}
    ],
    "rewardId": 211003,
    "JMHOKOJDNAB": [
      {
        "actionType": "OFFERING_ACTION_SET_GADGET_CHAIN_LEVEL",
        "param": "100002,2"
      },
      {
        "actionType": "OFFERING_ACTION_NOTIFY_GROUP",
        "param": "133220200"
      }
    ]
  },
  {
    "offeringId": 2,
    "level": 4,
    "actionVec": [
      {
        "id": 304,
        "count": 25
      },
      {}
    ],
    "rewardId": 211004,
    "JMHOKOJDNAB": [
      {
        "param": ""
      },
      {
        "param": ""
      }
    ]
  },
  {
    "offeringId": 2,
    "level": 5,
    "actionVec": [
      {
        "id": 304,
        "count": 25
      },
      {}
    ],
    "rewardId": 211005,
    "JMHOKOJDNAB": [
      {
        "param": ""
      },
      {
        "param": ""
      }
    ]
  },
  {
    "offeringId": 2,
    "level": 6,
    "actionVec": [
      {
        "id": 304,
        "count": 25
      },
      {}
    ],
    "rewardId": 211006,
    "JMHOKOJDNAB": [
      {
        "param": ""
      },
      {
        "param": ""
      }
    ]
  },
  {
    "offeringId": 2,
    "level": 7,
    "actionVec": [
      {
        "id": 304,
        "count": 25
      },
      {}
    ],
    "rewardId": 211007,
    "JMHOKOJDNAB": [
      {
        "actionType": "OFFERING_ACTION_SET_GADGET_CHAIN_LEVEL",
        "param": "100002,3"
      },
      {
        "actionType": "OFFERING_ACTION_NOTIFY_GROUP",
        "param": "133220200"
      }
    ]
  },
  {
    "offeringId": 2,
    "level": 8,
    "actionVec": [
      {
        "id": 304,
        "count": 25
      },
      {}
    ],
    "rewardId": 211008,
    "JMHOKOJDNAB": [
      {
        "param": ""
      },
      {
        "param": ""
      }
    ]
  },
  {
    "offeringId": 2,
    "level": 9,
    "actionVec": [
      {
        "id": 304,
        "count": 25
      },
      {}
    ],
    "rewardId": 211009,
    "JMHOKOJDNAB": [
      {
        "param": ""
      },
      {
        "param": ""
      }
    ]
  },
  {
    "offeringId": 2,
    "level": 10,
    "actionVec": [
      {
        "id": 304,
        "count": 25
      },
      {}
    ],
    "rewardId": 211010,
    "JMHOKOJDNAB": [
      {
        "actionType": "OFFERING_ACTION_SET_GADGET_CHAIN_LEVEL",
        "param": "100002,4"
      },
      {
        "actionType": "OFFERING_ACTION_NOTIFY_GROUP",
        "param": "133220200"
      }
    ]
  },
  {
    "offeringId": 2,
    "level": 11,
    "actionVec": [
      {
        "id": 304,
        "count": 25
      },
      {}
    ],
    "rewardId": 211011,
    "JMHOKOJDNAB": [
      {
        "param": ""
      },
      {
        "param": ""
      }
    ]
  },
  {
    "offeringId": 2,
    "level": 12,
    "actionVec": [
      {
        "id": 304,
        "count": 25
      },
      {}
    ],
    "rewardId": 211012,
    "JMHOKOJDNAB": [
      {
        "param": ""
      },
      {
        "param": ""
      }
    ]
  },
  {
    "offeringId": 2,
    "level": 13,
    "actionVec": [
      {
        "id": 304,
        "count": 25
      },
      {}
    ],
    "rewardId": 211013,
    "JMHOKOJDNAB": [
      {
        "actionType": "OFFERING_ACTION_SET_GADGET_CHAIN_LEVEL",
        "param": "100002,5"
      },
      {
        "actionType": "OFFERING_ACTION_NOTIFY_GROUP",
        "param": "133220200"
      }
    ]
  },
  {
    "offeringId": 2,
    "level": 14,
    "actionVec": [
      {
        "id": 304,
        "count": 25
      },
      {}
    ],
    "rewardId": 211014,
    "JMHOKOJDNAB": [
      {
        "param": ""
      },
      {
        "param": ""
      }
    ]
  },
  {
    "offeringId": 2,
    "level": 15,
    "actionVec": [
      {
        "id": 304,
        "count": 25
      },
      {}
    ],
    "rewardId": 211015,
    "JMHOKOJDNAB": [
      {
        "param": ""
      },
      {
        "param": ""
      }
    ]
  },
  {
    "offeringId": 2,
    "level": 16,
    "actionVec": [
      {
        "id": 304,
        "count": 25
      },
      {}
    ],
    "rewardId": 211016,
    "JMHOKOJDNAB": [
      {
        "param": ""
      },
      {
        "param": ""
      }
    ]
  },
  {
    "offeringId": 2,
    "level": 17,
    "actionVec": [
      {
        "id": 304,
        "count": 25
      },
      {}
    ],
    "rewardId": 211017,
    "JMHOKOJDNAB": [
      {
        "actionType": "OFFERING_ACTION_SET_GADGET_CHAIN_LEVEL",
        "param": "100002,6"
      },
      {
        "actionType": "OFFERING_ACTION_NOTIFY_GROUP",
        "param": "133220200"
      }
    ]
  },
  {
    "offeringId": 2,
    "level": 18,
    "actionVec": [
      {
        "id": 304,
        "count": 25
      },
      {}
    ],
    "rewardId": 211018,
    "JMHOKOJDNAB": [
      {
        "param": ""
      },
      {
        "param": ""
      }
    ]
  },
  {
    "offeringId": 2,
    "level": 19,
    "actionVec": [
      {
        "id": 304,
        "count": 25
      },
      {}
    ],
    "rewardId": 211019,
    "JMHOKOJDNAB": [
      {
        "param": ""
      },
      {
        "param": ""
      }
    ]
  },
  {
    "offeringId": 2,
    "level": 20,
    "actionVec": [
      {
        "id": 304,
        "count": 25
      },
      {}
    ],
    "rewardId": 211020,
    "JMHOKOJDNAB": [
      {
        "actionType": "OFFERING_ACTION_SET_GADGET_CHAIN_LEVEL",
        "param": "100002,7"
      },
      {
        "actionType": "OFFERING_ACTION_NOTIFY_GROUP",
        "param": "133220200"
      }
    ]
  },
  {
    "offeringId": 2,
    "level": 21,
    "actionVec": [
      {
        "id": 304,
        "count": 25
      },
      {}
    ],
    "rewardId": 211021,
    "JMHOKOJDNAB": [
      {
        "param": ""
      },
      {
        "param": ""
      }
    ]
  },
  {
    "offeringId": 2,
    "level": 22,
    "actionVec": [
      {
        "id": 304,
        "count": 25
      },
      {}
    ],
    "rewardId": 211022,
    "JMHOKOJDNAB": [
      {
        "param": ""
      },
      {
        "param": ""
      }
    ]
  },
  {
    "offeringId": 2,
    "level": 23,
    "actionVec": [
      {
        "id": 304,
        "count": 25
      },
      {}
    ],
    "rewardId": 211023,
    "JMHOKOJDNAB": [
      {
        "actionType": "OFFERING_ACTION_SET_GADGET_CHAIN_LEVEL",
        "param": "100002,8"
      },
      {
        "actionType": "OFFERING_ACTION_NOTIFY_GROUP",
        "param": "133220200"
      }
    ]
  },
  {
    "offeringId": 2,
    "level": 24,
    "actionVec": [
      {
        "id": 304,
        "count": 25
      },
      {}
    ],
    "rewardId": 211024,
    "JMHOKOJDNAB": [
      {
        "param": ""
      },
      {
        "param": ""
      }
    ]
  },
  {
    "offeringId": 2,
    "level": 25,
    "actionVec": [
      {
        "id": 304,
        "count": 25
      },
      {}
    ],
    "rewardId": 211025,
    "JMHOKOJDNAB": [
      {
        "param": ""
      },
      {
        "param": ""
      }
    ]
  },
  {
    "offeringId": 2,
    "level": 26,
    "actionVec": [
      {
        "id": 304,
        "count": 25
      },
      {}
    ],
    "rewardId": 211026,
    "JMHOKOJDNAB": [
      {
        "param": ""
      },
      {
        "param": ""
      }
    ]
  },
  {
    "offeringId": 2,
    "level": 27,
    "actionVec": [
      {
        "id": 304,
        "count": 25
      },
      {}
    ],
    "rewardId": 211027,
    "JMHOKOJDNAB": [
      {
        "actionType": "OFFERING_ACTION_SET_GADGET_CHAIN_LEVEL",
        "param": "100002,9"
      },
      {
        "actionType": "OFFERING_ACTION_NOTIFY_GROUP",
        "param": "133220200"
      }
    ]
  },
  {
    "offeringId": 2,
    "level": 28,
    "actionVec": [
      {
        "id": 304,
        "count": 25
      },
      {}
    ],
    "rewardId": 211028,
    "JMHOKOJDNAB": [
      {
        "param": ""
      },
      {
        "param": ""
      }
    ]
  },
  {
    "offeringId": 2,
    "level": 29,
    "actionVec": [
      {
        "id": 304,
        "count": 25
      },
      {}
    ],
    "rewardId": 211029,
    "JMHOKOJDNAB": [
      {
        "param": ""
      },
      {
        "param": ""
      }
    ]
  },
  {
    "offeringId": 2,
    "level": 30,
    "cutSceneId": true,
    "actionVec": [
      {
        "id": 304,
        "count": 25
      },
      {}
    ],
    "rewardId": 211030,
    "JMHOKOJDNAB": [
      {
        "actionType": "OFFERING_ACTION_SET_GADGET_CHAIN_LEVEL",
        "param": "100002,10"
      },
      {
        "actionType": "OFFERING_ACTION_NOTIFY_GROUP",
        "param": "133220200"
      }
    ]
  },
  {
    "offeringId": 2,
    "level": 31,
    "actionVec": [
      {
        "id": 304,
        "count": 25
      },
      {}
    ],
    "rewardId": 211031,
    "JMHOKOJDNAB": [
      {
        "param": ""
      },
      {
        "param": ""
      }
    ]
  },
  {
    "offeringId": 2,
    "level": 32,
    "actionVec": [
      {
        "id": 304,
        "count": 25
      },
      {}
    ],
    "rewardId": 211032,
    "JMHOKOJDNAB": [
      {
        "param": ""
      },
      {
        "param": ""
      }
    ]
  },
  {
    "offeringId": 2,
    "level": 33,
    "actionVec": [
      {
        "id": 304,
        "count": 25
      },
      {}
    ],
    "rewardId": 211033,
    "JMHOKOJDNAB": [
      {
        "actionType": "OFFERING_ACTION_SET_GADGET_CHAIN_LEVEL",
        "param": "100002,11"
      },
      {
        "actionType": "OFFERING_ACTION_NOTIFY_GROUP",
        "param": "133220200"
      }
    ]
  },
  {
    "offeringId": 2,
    "level": 34,
    "actionVec": [
      {
        "id": 304,
        "count": 25
      },
      {}
    ],
    "rewardId": 211034,
    "JMHOKOJDNAB": [
      {
        "param": ""
      },
      {
        "param": ""
      }
    ]
  },
  {
    "offeringId": 2,
    "level": 35,
    "actionVec": [
      {
        "id": 304,
        "count": 25
      },
      {}
    ],
    "rewardId": 211035,
    "JMHOKOJDNAB": [
      {
        "param": ""
      },
      {
        "param": ""
      }
    ]
  },
  {
    "offeringId": 2,
    "level": 36,
    "actionVec": [
      {
        "id": 304,
        "count": 25
      },
      {}
    ],
    "rewardId": 211036,
    "JMHOKOJDNAB": [
      {
        "param": ""
      },
      {
        "param": ""
      }
    ]
  },
  {
    "offeringId": 2,
    "level": 37,
    "actionVec": [
      {
        "id": 304,
        "count": 25
      },
      {}
    ],
    "rewardId": 211037,
    "JMHOKOJDNAB": [
      {
        "actionType": "OFFERING_ACTION_SET_GADGET_CHAIN_LEVEL",
        "param": "100002,12"
      },
      {
        "actionType": "OFFERING_ACTION_NOTIFY_GROUP",
        "param": "133220200"
      }
    ]
  },
  {
    "offeringId": 2,
    "level": 38,
    "actionVec": [
      {
        "id": 304,
        "count": 25
      },
      {}
    ],
    "rewardId": 211038,
    "JMHOKOJDNAB": [
      {
        "param": ""
      },
      {
        "param": ""
      }
    ]
  },
  {
    "offeringId": 2,
    "level": 39,
    "actionVec": [
      {
        "id": 304,
        "count": 25
      },
      {}
    ],
    "rewardId": 211039,
    "JMHOKOJDNAB": [
      {
        "param": ""
      },
      {
        "param": ""
      }
    ]
  },
  {
    "offeringId": 2,
    "level": 40,
    "actionVec": [
      {
        "id": 304,
        "count": 25
      },
      {}
    ],
    "rewardId": 211040,
    "JMHOKOJDNAB": [
      {
        "actionType": "OFFERING_ACTION_SET_GADGET_CHAIN_LEVEL",
        "param": "100002,13"
      },
      {
        "actionType": "OFFERING_ACTION_NOTIFY_GROUP",
        "param": "133220200"
      }
    ]
  },
  {
    "offeringId": 2,
    "level": 41,
    "actionVec": [
      {
        "id": 304,
        "count": 25
      },
      {}
    ],
    "rewardId": 211041,
    "JMHOKOJDNAB": [
      {
        "param": ""
      },
      {
        "param": ""
      }
    ]
  },
  {
    "offeringId": 2,
    "level": 42,
    "actionVec": [
      {
        "id": 304,
        "count": 25
      },
      {}
    ],
    "rewardId": 211042,
    "JMHOKOJDNAB": [
      {
        "param": ""
      },
      {
        "param": ""
      }
    ]
  },
  {
    "offeringId": 2,
    "level": 43,
    "actionVec": [
      {
        "id": 304,
        "count": 25
      },
      {}
    ],
    "rewardId": 211043,
    "JMHOKOJDNAB": [
      {
        "actionType": "OFFERING_ACTION_SET_GADGET_CHAIN_LEVEL",
        "param": "100002,14"
      },
      {
        "actionType": "OFFERING_ACTION_NOTIFY_GROUP",
        "param": "133220200"
      }
    ]
  },
  {
    "offeringId": 2,
    "level": 44,
    "actionVec": [
      {
        "id": 304,
        "count": 25
      },
      {}
    ],
    "rewardId": 211044,
    "JMHOKOJDNAB": [
      {
        "param": ""
      },
      {
        "param": ""
      }
    ]
  },
  {
    "offeringId": 2,
    "level": 45,
    "actionVec": [
      {
        "id": 304,
        "count": 25
      },
      {}
    ],
    "rewardId": 211045,
    "JMHOKOJDNAB": [
      {
        "param": ""
      },
      {
        "param": ""
      }
    ]
  },
  {
    "offeringId": 2,
    "level": 46,
    "actionVec": [
      {
        "id": 304,
        "count": 25
      },
      {}
    ],
    "rewardId": 211046,
    "JMHOKOJDNAB": [
      {
        "param": ""
      },
      {
        "param": ""
      }
    ]
  },
  {
    "offeringId": 2,
    "level": 47,
    "actionVec": [
      {
        "id": 304,
        "count": 25
      },
      {}
    ],
    "rewardId": 211047,
    "JMHOKOJDNAB": [
      {
        "actionType": "OFFERING_ACTION_SET_GADGET_CHAIN_LEVEL",
        "param": "100002,15"
      },
      {
        "actionType": "OFFERING_ACTION_NOTIFY_GROUP",
        "param": "133220200"
      }
    ]
  },
  {
    "offeringId": 2,
    "level": 48,
    "actionVec": [
      {
        "id": 304,
        "count": 25
      },
      {}
    ],
    "rewardId": 211048,
    "JMHOKOJDNAB": [
      {
        "param": ""
      },
      {
        "param": ""
      }
    ]
  },
  {
    "offeringId": 2,
    "level": 49,
    "actionVec": [
      {
        "id": 304,
        "count": 25
      },
      {}
    ],
    "rewardId": 211049,
    "JMHOKOJDNAB": [
      {
        "param": ""
      },
      {
        "param": ""
      }
    ]
  },
  {
    "offeringId": 2,
    "level": 50,
    "actionVec": [
      {
        "id": 304,
        "count": 25
      },
      {}
    ],
    "rewardId": 211050,
    "JMHOKOJDNAB": [
      {
        "param": ""
      },
      {
        "param": ""
      }
    ]
  },
  {
    "offeringId": 3,
    "actionVec": [{}, {}],
    "JMHOKOJDNAB": [
      {
        "param": ""
      },
      {
        "param": ""
      }
    ]
  },
  {
    "offeringId": 3,
    "level": 1,
    "actionVec": [
      {
        "id": 107016,
        "count": 8
      },
      {}
    ],
    "rewardId": 312001,
    "JMHOKOJDNAB": [
      {
        "actionType": "OFFERING_ACTION_SET_GADGET_CHAIN_LEVEL",
        "param": "100003,1"
      },
      {
        "param": ""
      }
    ],
    "IIBJMEBMADI": true
  },
  {
    "offeringId": 3,
    "level": 2,
    "actionVec": [
      {
        "id": 107016,
        "count": 8
      },
      {
        "id": 101644,
        "count": 1
      }
    ],
    "rewardId": 312002,
    "JMHOKOJDNAB": [
      {
        "actionType": "OFFERING_ACTION_SET_GADGET_CHAIN_LEVEL",
        "param": "100003,2"
      },
      {
        "param": ""
      }
    ],
    "IIBJMEBMADI": true
  },
  {
    "offeringId": 3,
    "level": 3,
    "actionVec": [
      {
        "id": 107016,
        "count": 8
      },
      {}
    ],
    "rewardId": 312003,
    "JMHOKOJDNAB": [
      {
        "actionType": "OFFERING_ACTION_SET_GADGET_CHAIN_LEVEL",
        "param": "100003,3"
      },
      {
        "param": ""
      }
    ],
    "IIBJMEBMADI": true
  },
  {
    "offeringId": 3,
    "level": 4,
    "actionVec": [
      {
        "id": 107016,
        "count": 8
      },
      {}
    ],
    "rewardId": 312004,
    "JMHOKOJDNAB": [
      {
        "actionType": "OFFERING_ACTION_SET_GADGET_CHAIN_LEVEL",
        "param": "100003,4"
      },
      {
        "param": ""
      }
    ],
    "IIBJMEBMADI": true
  },
  {
    "offeringId": 3,
    "level": 5,
    "actionVec": [
      {
        "id": 107016,
        "count": 8
      },
      {}
    ],
    "rewardId": 312005,
    "JMHOKOJDNAB": [
      {
        "actionType": "OFFERING_ACTION_SET_GADGET_CHAIN_LEVEL",
        "param": "100003,5"
      },
      {
        "param": ""
      }
    ],
    "IIBJMEBMADI": true
  },
  {
    "offeringId": 3,
    "level": 6,
    "actionVec": [
      {
        "id": 107016,
        "count": 8
      },
      {
        "id": 101644,
        "count": 1
      }
    ],
    "rewardId": 312006,
    "JMHOKOJDNAB": [
      {
        "actionType": "OFFERING_ACTION_SET_GADGET_CHAIN_LEVEL",
        "param": "100003,6"
      },
      {
        "param": ""
      }
    ],
    "IIBJMEBMADI": true
  },
  {
    "offeringId": 3,
    "level": 7,
    "actionVec": [
      {
        "id": 107016,
        "count": 8
      },
      {}
    ],
    "rewardId": 312007,
    "JMHOKOJDNAB": [
      {
        "actionType": "OFFERING_ACTION_SET_GADGET_CHAIN_LEVEL",
        "param": "100003,7"
      },
      {
        "param": ""
      }
    ],
    "IIBJMEBMADI": true
  },
  {
    "offeringId": 3,
    "level": 8,
    "actionVec": [
      {
        "id": 107016,
        "count": 8
      },
      {
        "id": 101644,
        "count": 1
      }
    ],
    "rewardId": 312008,
    "JMHOKOJDNAB": [
      {
        "actionType": "OFFERING_ACTION_SET_GADGET_CHAIN_LEVEL",
        "param": "100003,8"
      },
      {
        "param": ""
      }
    ],
    "IIBJMEBMADI": true
  },
  {
    "offeringId": 3,
    "level": 9,
    "actionVec": [
      {
        "id": 107016,
        "count": 8
      },
      {}
    ],
    "rewardId": 312009,
    "JMHOKOJDNAB": [
      {
        "actionType": "OFFERING_ACTION_SET_GADGET_CHAIN_LEVEL",
        "param": "100003,9"
      },
      {
        "param": ""
      }
    ],
    "IIBJMEBMADI": true
  },
  {
    "offeringId": 3,
    "level": 10,
    "actionVec": [
      {
        "id": 107016,
        "count": 8
      },
      {}
    ],
    "rewardId": 312010,
    "JMHOKOJDNAB": [
      {
        "actionType": "OFFERING_ACTION_SET_GADGET_CHAIN_LEVEL",
        "param": "100003,10"
      },
      {
        "param": ""
      }
    ],
    "IIBJMEBMADI": true
  },
  {
    "offeringId": 4,
    "actionVec": [{}, {}],
    "JMHOKOJDNAB": [
      {
        "param": ""
      },
      {
        "param": ""
      }
    ]
  },
  {
    "offeringId": 4,
    "level": 1,
    "actionVec": [
      {
        "id": 101692,
        "count": 80
      },
      {}
    ],
    "rewardId": 3037101,
    "JMHOKOJDNAB": [
      {
        "param": ""
      },
      {
        "param": ""
      }
    ]
  },
  {
    "offeringId": 4,
    "level": 2,
    "actionVec": [
      {
        "id": 101692,
        "count": 80
      },
      {}
    ],
    "rewardId": 3037102,
    "JMHOKOJDNAB": [
      {
        "param": ""
      },
      {
        "param": ""
      }
    ]
  },
  {
    "offeringId": 4,
    "level": 3,
    "actionVec": [
      {
        "id": 101692,
        "count": 80
      },
      {}
    ],
    "rewardId": 3037103,
    "JMHOKOJDNAB": [
      {
        "param": ""
      },
      {
        "param": ""
      }
    ]
  },
  {
    "offeringId": 4,
    "level": 4,
    "actionVec": [
      {
        "id": 101692,
        "count": 80
      },
      {}
    ],
    "rewardId": 3037104,
    "JMHOKOJDNAB": [
      {
        "param": ""
      },
      {
        "param": ""
      }
    ]
  },
  {
    "offeringId": 4,
    "level": 5,
    "actionVec": [
      {
        "id": 101692,
        "count": 80
      },
      {}
    ],
    "rewardId": 3037105,
    "JMHOKOJDNAB": [
      {
        "param": ""
      },
      {
        "param": ""
      }
    ]
  },
  {
    "offeringId": 4,
    "level": 6,
    "actionVec": [
      {
        "id": 101692,
        "count": 100
      },
      {}
    ],
    "rewardId": 3037106,
    "JMHOKOJDNAB": [
      {
        "param": ""
      },
      {
        "param": ""
      }
    ]
  },
  {
    "offeringId": 4,
    "level": 7,
    "actionVec": [
      {
        "id": 101692,
        "count": 100
      },
      {}
    ],
    "rewardId": 3037107,
    "JMHOKOJDNAB": [
      {
        "param": ""
      },
      {
        "param": ""
      }
    ]
  },
  {
    "offeringId": 4,
    "level": 8,
    "actionVec": [
      {
        "id": 101692,
        "count": 100
      },
      {}
    ],
    "rewardId": 3037108,
    "JMHOKOJDNAB": [
      {
        "param": ""
      },
      {
        "param": ""
      }
    ]
  },
  {
    "offeringId": 4,
    "level": 9,
    "actionVec": [
      {
        "id": 101692,
        "count": 100
      },
      {}
    ],
    "rewardId": 3037109,
    "JMHOKOJDNAB": [
      {
        "param": ""
      },
      {
        "param": ""
      }
    ]
  },
  {
    "offeringId": 4,
    "level": 10,
    "actionVec": [
      {
        "id": 101692,
        "count": 100
      },
      {}
    ],
    "rewardId": 3037110,
    "JMHOKOJDNAB": [
      {
        "param": ""
      },
      {
        "param": ""
      }
    ]
  },
  {
    "offeringId": 4,
    "level": 11,
    "actionVec": [
      {
        "id": 101692,
        "count": 120
      },
      {}
    ],
    "rewardId": 3037111,
    "JMHOKOJDNAB": [
      {
        "param": ""
      },
      {
        "param": ""
      }
    ]
  },
  {
    "offeringId": 4,
    "level": 12,
    "actionVec": [
      {
        "id": 101692,
        "count": 120
      },
      {}
    ],
    "rewardId": 3037112,
    "JMHOKOJDNAB": [
      {
        "param": ""
      },
      {
        "param": ""
      }
    ]
  },
  {
    "offeringId": 4,
    "level": 13,
    "actionVec": [
      {
        "id": 101692,
        "count": 120
      },
      {}
    ],
    "rewardId": 3037113,
    "JMHOKOJDNAB": [
      {
        "param": ""
      },
      {
        "param": ""
      }
    ]
  },
  {
    "offeringId": 4,
    "level": 14,
    "actionVec": [
      {
        "id": 101692,
        "count": 120
      },
      {}
    ],
    "rewardId": 3037114,
    "JMHOKOJDNAB": [
      {
        "param": ""
      },
      {
        "param": ""
      }
    ]
  },
  {
    "offeringId": 4,
    "level": 15,
    "actionVec": [
      {
        "id": 101692,
        "count": 120
      },
      {}
    ],
    "rewardId": 3037115,
    "JMHOKOJDNAB": [
      {
        "param": ""
      },
      {
        "param": ""
      }
    ]
  },
  {
    "offeringId": 5,
    "actionVec": [{}, {}],
    "JMHOKOJDNAB": [
      {
        "param": ""
      },
      {
        "param": ""
      }
    ]
  },
  {
    "offeringId": 5,
    "level": 1,
    "actionVec": [
      {
        "id": 303,
        "count": 35
      },
      {}
    ],
    "rewardId": 211101,
    "JMHOKOJDNAB": [
      {
        "actionType": "OFFERING_ACTION_NOTIFY_GROUP",
        "param": "133301220"
      },
      {
        "param": ""
      }
    ],
    "OFBPMMODJLN": 88
  },
  {
    "offeringId": 5,
    "level": 2,
    "actionVec": [
      {
        "id": 303,
        "count": 35
      },
      {}
    ],
    "rewardId": 211102,
    "JMHOKOJDNAB": [
      {
        "actionType": "OFFERING_ACTION_NOTIFY_GROUP",
        "param": "133301220"
      },
      {
        "param": ""
      }
    ],
    "OFBPMMODJLN": 88
  },
  {
    "offeringId": 5,
    "level": 3,
    "actionVec": [
      {
        "id": 303,
        "count": 35
      },
      {}
    ],
    "rewardId": 211103,
    "JMHOKOJDNAB": [
      {
        "actionType": "OFFERING_ACTION_NOTIFY_GROUP",
        "param": "133301220"
      },
      {
        "param": ""
      }
    ],
    "OFBPMMODJLN": 88
  },
  {
    "offeringId": 5,
    "level": 4,
    "actionVec": [
      {
        "id": 303,
        "count": 35
      },
      {}
    ],
    "rewardId": 211104,
    "JMHOKOJDNAB": [
      {
        "actionType": "OFFERING_ACTION_NOTIFY_GROUP",
        "param": "133301220"
      },
      {
        "param": ""
      }
    ],
    "OFBPMMODJLN": 88
  },
  {
    "offeringId": 5,
    "level": 5,
    "actionVec": [
      {
        "id": 303,
        "count": 35
      },
      {}
    ],
    "rewardId": 211105,
    "JMHOKOJDNAB": [
      {
        "actionType": "OFFERING_ACTION_NOTIFY_GROUP",
        "param": "133301220"
      },
      {
        "param": ""
      }
    ],
    "OFBPMMODJLN": 88
  },
  {
    "offeringId": 5,
    "level": 6,
    "actionVec": [
      {
        "id": 303,
        "count": 35
      },
      {}
    ],
    "rewardId": 211106,
    "JMHOKOJDNAB": [
      {
        "actionType": "OFFERING_ACTION_NOTIFY_GROUP",
        "param": "133301220"
      },
      {
        "param": ""
      }
    ],
    "OFBPMMODJLN": 88
  },
  {
    "offeringId": 5,
    "level": 7,
    "actionVec": [
      {
        "id": 303,
        "count": 35
      },
      {}
    ],
    "rewardId": 211107,
    "JMHOKOJDNAB": [
      {
        "actionType": "OFFERING_ACTION_NOTIFY_GROUP",
        "param": "133301220"
      },
      {
        "param": ""
      }
    ],
    "OFBPMMODJLN": 88
  },
  {
    "offeringId": 5,
    "level": 8,
    "actionVec": [
      {
        "id": 303,
        "count": 35
      },
      {}
    ],
    "rewardId": 211108,
    "JMHOKOJDNAB": [
      {
        "actionType": "OFFERING_ACTION_NOTIFY_GROUP",
        "param": "133301220"
      },
      {
        "param": ""
      }
    ],
    "OFBPMMODJLN": 88
  },
  {
    "offeringId": 5,
    "level": 9,
    "actionVec": [
      {
        "id": 303,
        "count": 35
      },
      {}
    ],
    "rewardId": 211109,
    "JMHOKOJDNAB": [
      {
        "actionType": "OFFERING_ACTION_NOTIFY_GROUP",
        "param": "133301220"
      },
      {
        "param": ""
      }
    ],
    "OFBPMMODJLN": 88
  },
  {
    "offeringId": 5,
    "level": 10,
    "actionVec": [
      {
        "id": 303,
        "count": 35
      },
      {}
    ],
    "rewardId": 211110,
    "JMHOKOJDNAB": [
      {
        "actionType": "OFFERING_ACTION_NOTIFY_GROUP",
        "param": "133301220"
      },
      {
        "param": ""
      }
    ],
    "OFBPMMODJLN": 88
  },
  {
    "offeringId": 5,
    "level": 11,
    "actionVec": [
      {
        "id": 303,
        "count": 35
      },
      {}
    ],
    "rewardId": 211111,
    "JMHOKOJDNAB": [
      {
        "actionType": "OFFERING_ACTION_NOTIFY_GROUP",
        "param": "133301220"
      },
      {
        "param": ""
      }
    ],
    "OFBPMMODJLN": 88
  },
  {
    "offeringId": 5,
    "level": 12,
    "actionVec": [
      {
        "id": 303,
        "count": 35
      },
      {}
    ],
    "rewardId": 211112,
    "JMHOKOJDNAB": [
      {
        "actionType": "OFFERING_ACTION_NOTIFY_GROUP",
        "param": "133301220"
      },
      {
        "param": ""
      }
    ],
    "OFBPMMODJLN": 88
  },
  {
    "offeringId": 5,
    "level": 13,
    "actionVec": [
      {
        "id": 303,
        "count": 35
      },
      {}
    ],
    "rewardId": 211113,
    "JMHOKOJDNAB": [
      {
        "actionType": "OFFERING_ACTION_NOTIFY_GROUP",
        "param": "133301220"
      },
      {
        "param": ""
      }
    ],
    "OFBPMMODJLN": 88
  },
  {
    "offeringId": 5,
    "level": 14,
    "actionVec": [
      {
        "id": 303,
        "count": 35
      },
      {}
    ],
    "rewardId": 211114,
    "JMHOKOJDNAB": [
      {
        "actionType": "OFFERING_ACTION_NOTIFY_GROUP",
        "param": "133301220"
      },
      {
        "param": ""
      }
    ],
    "OFBPMMODJLN": 88
  },
  {
    "offeringId": 5,
    "level": 15,
    "actionVec": [
      {
        "id": 303,
        "count": 35
      },
      {}
    ],
    "rewardId": 211115,
    "JMHOKOJDNAB": [
      {
        "actionType": "OFFERING_ACTION_NOTIFY_GROUP",
        "param": "133301220"
      },
      {
        "param": ""
      }
    ],
    "OFBPMMODJLN": 88
  },
  {
    "offeringId": 5,
    "level": 16,
    "actionVec": [
      {
        "id": 303,
        "count": 35
      },
      {}
    ],
    "rewardId": 211116,
    "JMHOKOJDNAB": [
      {
        "actionType": "OFFERING_ACTION_NOTIFY_GROUP",
        "param": "133301220"
      },
      {
        "param": ""
      }
    ],
    "OFBPMMODJLN": 88
  },
  {
    "offeringId": 5,
    "level": 17,
    "actionVec": [
      {
        "id": 303,
        "count": 35
      },
      {}
    ],
    "rewardId": 211117,
    "JMHOKOJDNAB": [
      {
        "actionType": "OFFERING_ACTION_NOTIFY_GROUP",
        "param": "133301220"
      },
      {
        "param": ""
      }
    ],
    "OFBPMMODJLN": 88
  },
  {
    "offeringId": 5,
    "level": 18,
    "actionVec": [
      {
        "id": 303,
        "count": 35
      },
      {}
    ],
    "rewardId": 211118,
    "JMHOKOJDNAB": [
      {
        "actionType": "OFFERING_ACTION_NOTIFY_GROUP",
        "param": "133301220"
      },
      {
        "param": ""
      }
    ],
    "OFBPMMODJLN": 88
  },
  {
    "offeringId": 5,
    "level": 19,
    "actionVec": [
      {
        "id": 303,
        "count": 35
      },
      {}
    ],
    "rewardId": 211119,
    "JMHOKOJDNAB": [
      {
        "actionType": "OFFERING_ACTION_NOTIFY_GROUP",
        "param": "133301220"
      },
      {
        "param": ""
      }
    ],
    "OFBPMMODJLN": 88
  },
  {
    "offeringId": 5,
    "level": 20,
    "actionVec": [
      {
        "id": 303,
        "count": 35
      },
      {}
    ],
    "rewardId": 211120,
    "JMHOKOJDNAB": [
      {
        "actionType": "OFFERING_ACTION_NOTIFY_GROUP",
        "param": "133301220"
      },
      {
        "param": ""
      }
    ],
    "OFBPMMODJLN": 88
  },
  {
    "offeringId": 5,
    "level": 21,
    "actionVec": [
      {
        "id": 303,
        "count": 35
      },
      {}
    ],
    "rewardId": 211121,
    "JMHOKOJDNAB": [
      {
        "actionType": "OFFERING_ACTION_NOTIFY_GROUP",
        "param": "133301220"
      },
      {
        "param": ""
      }
    ],
    "OFBPMMODJLN": 88
  },
  {
    "offeringId": 5,
    "level": 22,
    "actionVec": [
      {
        "id": 303,
        "count": 35
      },
      {}
    ],
    "rewardId": 211122,
    "JMHOKOJDNAB": [
      {
        "actionType": "OFFERING_ACTION_NOTIFY_GROUP",
        "param": "133301220"
      },
      {
        "param": ""
      }
    ],
    "OFBPMMODJLN": 88
  },
  {
    "offeringId": 5,
    "level": 23,
    "actionVec": [
      {
        "id": 303,
        "count": 35
      },
      {}
    ],
    "rewardId": 211123,
    "JMHOKOJDNAB": [
      {
        "actionType": "OFFERING_ACTION_NOTIFY_GROUP",
        "param": "133301220"
      },
      {
        "param": ""
      }
    ],
    "OFBPMMODJLN": 88
  },
  {
    "offeringId": 5,
    "level": 24,
    "actionVec": [
      {
        "id": 303,
        "count": 35
      },
      {}
    ],
    "rewardId": 211124,
    "JMHOKOJDNAB": [
      {
        "actionType": "OFFERING_ACTION_NOTIFY_GROUP",
        "param": "133301220"
      },
      {
        "param": ""
      }
    ],
    "OFBPMMODJLN": 88
  },
  {
    "offeringId": 5,
    "level": 25,
    "actionVec": [
      {
        "id": 303,
        "count": 35
      },
      {}
    ],
    "rewardId": 211125,
    "JMHOKOJDNAB": [
      {
        "actionType": "OFFERING_ACTION_NOTIFY_GROUP",
        "param": "133301220"
      },
      {
        "param": ""
      }
    ],
    "OFBPMMODJLN": 88
  },
  {
    "offeringId": 5,
    "level": 26,
    "actionVec": [
      {
        "id": 303,
        "count": 35
      },
      {}
    ],
    "rewardId": 211126,
    "JMHOKOJDNAB": [
      {
        "actionType": "OFFERING_ACTION_NOTIFY_GROUP",
        "param": "133301220"
      },
      {
        "param": ""
      }
    ],
    "OFBPMMODJLN": 88
  },
  {
    "offeringId": 5,
    "level": 27,
    "actionVec": [
      {
        "id": 303,
        "count": 35
      },
      {}
    ],
    "rewardId": 211127,
    "JMHOKOJDNAB": [
      {
        "actionType": "OFFERING_ACTION_NOTIFY_GROUP",
        "param": "133301220"
      },
      {
        "param": ""
      }
    ],
    "OFBPMMODJLN": 88
  },
  {
    "offeringId": 5,
    "level": 28,
    "actionVec": [
      {
        "id": 303,
        "count": 35
      },
      {}
    ],
    "rewardId": 211128,
    "JMHOKOJDNAB": [
      {
        "actionType": "OFFERING_ACTION_NOTIFY_GROUP",
        "param": "133301220"
      },
      {
        "param": ""
      }
    ],
    "OFBPMMODJLN": 88
  },
  {
    "offeringId": 5,
    "level": 29,
    "actionVec": [
      {
        "id": 303,
        "count": 35
      },
      {}
    ],
    "rewardId": 211129,
    "JMHOKOJDNAB": [
      {
        "actionType": "OFFERING_ACTION_NOTIFY_GROUP",
        "param": "133301220"
      },
      {
        "param": ""
      }
    ],
    "OFBPMMODJLN": 88
  },
  {
    "offeringId": 5,
    "level": 30,
    "cutSceneId": true,
    "actionVec": [
      {
        "id": 303,
        "count": 35
      },
      {}
    ],
    "rewardId": 211130,
    "JMHOKOJDNAB": [
      {
        "actionType": "OFFERING_ACTION_NOTIFY_GROUP",
        "param": "133301220"
      },
      {
        "param": ""
      }
    ],
    "OFBPMMODJLN": 88
  },
  {
    "offeringId": 5,
    "level": 31,
    "actionVec": [
      {
        "id": 303,
        "count": 35
      },
      {}
    ],
    "rewardId": 211131,
    "JMHOKOJDNAB": [
      {
        "actionType": "OFFERING_ACTION_NOTIFY_GROUP",
        "param": "133301220"
      },
      {
        "param": ""
      }
    ],
    "OFBPMMODJLN": 88
  },
  {
    "offeringId": 5,
    "level": 32,
    "actionVec": [
      {
        "id": 303,
        "count": 35
      },
      {}
    ],
    "rewardId": 211132,
    "JMHOKOJDNAB": [
      {
        "actionType": "OFFERING_ACTION_NOTIFY_GROUP",
        "param": "133301220"
      },
      {
        "param": ""
      }
    ],
    "OFBPMMODJLN": 88
  },
  {
    "offeringId": 5,
    "level": 33,
    "actionVec": [
      {
        "id": 303,
        "count": 35
      },
      {}
    ],
    "rewardId": 211133,
    "JMHOKOJDNAB": [
      {
        "actionType": "OFFERING_ACTION_NOTIFY_GROUP",
        "param": "133301220"
      },
      {
        "param": ""
      }
    ],
    "OFBPMMODJLN": 88
  },
  {
    "offeringId": 5,
    "level": 34,
    "actionVec": [
      {
        "id": 303,
        "count": 35
      },
      {}
    ],
    "rewardId": 211134,
    "JMHOKOJDNAB": [
      {
        "actionType": "OFFERING_ACTION_NOTIFY_GROUP",
        "param": "133301220"
      },
      {
        "param": ""
      }
    ],
    "OFBPMMODJLN": 88
  },
  {
    "offeringId": 5,
    "level": 35,
    "actionVec": [
      {
        "id": 303,
        "count": 35
      },
      {}
    ],
    "rewardId": 211135,
    "JMHOKOJDNAB": [
      {
        "actionType": "OFFERING_ACTION_NOTIFY_GROUP",
        "param": "133301220"
      },
      {
        "param": ""
      }
    ],
    "OFBPMMODJLN": 88
  },
  {
    "offeringId": 5,
    "level": 36,
    "actionVec": [
      {
        "id": 303,
        "count": 35
      },
      {}
    ],
    "rewardId": 211136,
    "JMHOKOJDNAB": [
      {
        "actionType": "OFFERING_ACTION_NOTIFY_GROUP",
        "param": "133301220"
      },
      {
        "param": ""
      }
    ],
    "OFBPMMODJLN": 88
  },
  {
    "offeringId": 5,
    "level": 37,
    "actionVec": [
      {
        "id": 303,
        "count": 35
      },
      {}
    ],
    "rewardId": 211137,
    "JMHOKOJDNAB": [
      {
        "actionType": "OFFERING_ACTION_NOTIFY_GROUP",
        "param": "133301220"
      },
      {
        "param": ""
      }
    ],
    "OFBPMMODJLN": 88
  },
  {
    "offeringId": 5,
    "level": 38,
    "actionVec": [
      {
        "id": 303,
        "count": 35
      },
      {}
    ],
    "rewardId": 211138,
    "JMHOKOJDNAB": [
      {
        "actionType": "OFFERING_ACTION_NOTIFY_GROUP",
        "param": "133301220"
      },
      {
        "param": ""
      }
    ],
    "OFBPMMODJLN": 88
  },
  {
    "offeringId": 5,
    "level": 39,
    "actionVec": [
      {
        "id": 303,
        "count": 35
      },
      {}
    ],
    "rewardId": 211139,
    "JMHOKOJDNAB": [
      {
        "actionType": "OFFERING_ACTION_NOTIFY_GROUP",
        "param": "133301220"
      },
      {
        "param": ""
      }
    ],
    "OFBPMMODJLN": 88
  },
  {
    "offeringId": 5,
    "level": 40,
    "actionVec": [
      {
        "id": 303,
        "count": 35
      },
      {}
    ],
    "rewardId": 211140,
    "JMHOKOJDNAB": [
      {
        "actionType": "OFFERING_ACTION_NOTIFY_GROUP",
        "param": "133301220"
      },
      {
        "param": ""
      }
    ],
    "OFBPMMODJLN": 88
  },
  {
    "offeringId": 5,
    "level": 41,
    "actionVec": [
      {
        "id": 303,
        "count": 35
      },
      {}
    ],
    "rewardId": 211141,
    "JMHOKOJDNAB": [
      {
        "actionType": "OFFERING_ACTION_NOTIFY_GROUP",
        "param": "133301220"
      },
      {
        "param": ""
      }
    ],
    "OFBPMMODJLN": 88
  },
  {
    "offeringId": 5,
    "level": 42,
    "actionVec": [
      {
        "id": 303,
        "count": 35
      },
      {}
    ],
    "rewardId": 211142,
    "JMHOKOJDNAB": [
      {
        "actionType": "OFFERING_ACTION_NOTIFY_GROUP",
        "param": "133301220"
      },
      {
        "param": ""
      }
    ],
    "OFBPMMODJLN": 88
  },
  {
    "offeringId": 5,
    "level": 43,
    "actionVec": [
      {
        "id": 303,
        "count": 35
      },
      {}
    ],
    "rewardId": 211143,
    "JMHOKOJDNAB": [
      {
        "actionType": "OFFERING_ACTION_NOTIFY_GROUP",
        "param": "133301220"
      },
      {
        "param": ""
      }
    ],
    "OFBPMMODJLN": 88
  },
  {
    "offeringId": 5,
    "level": 44,
    "actionVec": [
      {
        "id": 303,
        "count": 35
      },
      {}
    ],
    "rewardId": 211144,
    "JMHOKOJDNAB": [
      {
        "actionType": "OFFERING_ACTION_NOTIFY_GROUP",
        "param": "133301220"
      },
      {
        "param": ""
      }
    ],
    "OFBPMMODJLN": 88
  },
  {
    "offeringId": 5,
    "level": 45,
    "actionVec": [
      {
        "id": 303,
        "count": 35
      },
      {}
    ],
    "rewardId": 211145,
    "JMHOKOJDNAB": [
      {
        "actionType": "OFFERING_ACTION_NOTIFY_GROUP",
        "param": "133301220"
      },
      {
        "param": ""
      }
    ],
    "OFBPMMODJLN": 88
  },
  {
    "offeringId": 5,
    "level": 46,
    "actionVec": [
      {
        "id": 303,
        "count": 35
      },
      {}
    ],
    "rewardId": 211146,
    "JMHOKOJDNAB": [
      {
        "actionType": "OFFERING_ACTION_NOTIFY_GROUP",
        "param": "133301220"
      },
      {
        "param": ""
      }
    ],
    "OFBPMMODJLN": 88
  },
  {
    "offeringId": 5,
    "level": 47,
    "actionVec": [
      {
        "id": 303,
        "count": 35
      },
      {}
    ],
    "rewardId": 211147,
    "JMHOKOJDNAB": [
      {
        "actionType": "OFFERING_ACTION_NOTIFY_GROUP",
        "param": "133301220"
      },
      {
        "param": ""
      }
    ],
    "OFBPMMODJLN": 88
  },
  {
    "offeringId": 5,
    "level": 48,
    "actionVec": [
      {
        "id": 303,
        "count": 35
      },
      {}
    ],
    "rewardId": 211148,
    "JMHOKOJDNAB": [
      {
        "actionType": "OFFERING_ACTION_NOTIFY_GROUP",
        "param": "133301220"
      },
      {
        "param": ""
      }
    ],
    "OFBPMMODJLN": 88
  },
  {
    "offeringId": 5,
    "level": 49,
    "actionVec": [
      {
        "id": 303,
        "count": 35
      },
      {}
    ],
    "rewardId": 211149,
    "JMHOKOJDNAB": [
      {
        "actionType": "OFFERING_ACTION_NOTIFY_GROUP",
        "param": "133301220"
      },
      {
        "param": ""
      }
    ],
    "OFBPMMODJLN": 88
  },
  {
    "offeringId": 5,
    "level": 50,
    "actionVec": [
      {
        "id": 303,
        "count": 35
      },
      {}
    ],
    "rewardId": 211150,
    "JMHOKOJDNAB": [
      {
        "actionType": "OFFERING_ACTION_NOTIFY_GROUP",
        "param": "133301220"
      },
      {
        "param": ""
      }
    ],
    "OFBPMMODJLN": 88
  },
  {
    "offeringId": 6,
    "actionVec": [{}, {}],
    "JMHOKOJDNAB": [
      {
        "param": ""
      },
      {
        "param": ""
      }
    ]
  },
  {
    "offeringId": 6,
    "level": 1,
    "actionVec": [
      {
        "id": 107022,
        "count": 6
      },
      {}
    ],
    "JMHOKOJDNAB": [
      {
        "actionType": "OFFERING_ACTION_NOTIFY_GROUP",
        "param": "133317140"
      },
      {
        "param": ""
      }
    ],
    "OFBPMMODJLN": 118,
    "IIBJMEBMADI": true,
    "consumeItemConfig": 1
  },
  {
    "offeringId": 6,
    "level": 2,
    "actionVec": [
      {
        "id": 107022,
        "count": 6
      },
      {}
    ],
    "JMHOKOJDNAB": [
      {
        "actionType": "OFFERING_ACTION_NOTIFY_GROUP",
        "param": "133317140"
      },
      {
        "param": ""
      }
    ],
    "OFBPMMODJLN": 118,
    "IIBJMEBMADI": true,
    "consumeItemConfig": 1
  },
  {
    "offeringId": 6,
    "level": 3,
    "actionVec": [
      {
        "id": 107022,
        "count": 6
      },
      {}
    ],
    "JMHOKOJDNAB": [
      {
        "actionType": "OFFERING_ACTION_NOTIFY_GROUP",
        "param": "133317140"
      },
      {
        "param": ""
      }
    ],
    "OFBPMMODJLN": 118,
    "IIBJMEBMADI": true,
    "consumeItemConfig": 1
  },
  {
    "offeringId": 6,
    "level": 4,
    "actionVec": [
      {
        "id": 107022,
        "count": 6
      },
      {}
    ],
    "JMHOKOJDNAB": [
      {
        "actionType": "OFFERING_ACTION_NOTIFY_GROUP",
        "param": "133317140"
      },
      {
        "param": ""
      }
    ],
    "OFBPMMODJLN": 118,
    "IIBJMEBMADI": true,
    "consumeItemConfig": 1
  },
  {
    "offeringId": 6,
    "level": 5,
    "actionVec": [
      {
        "id": 107022,
        "count": 6
      },
      {}
    ],
    "JMHOKOJDNAB": [
      {
        "actionType": "OFFERING_ACTION_NOTIFY_GROUP",
        "param": "133317140"
      },
      {
        "param": ""
      }
    ],
    "OFBPMMODJLN": 118,
    "IIBJMEBMADI": true,
    "consumeItemConfig": 1
  },
  {
    "offeringId": 6,
    "level": 6,
    "actionVec": [
      {
        "id": 107022,
        "count": 6
      },
      {}
    ],
    "JMHOKOJDNAB": [
      {
        "actionType": "OFFERING_ACTION_NOTIFY_GROUP",
        "param": "133317140"
      },
      {
        "param": ""
      }
    ],
    "OFBPMMODJLN": 119,
    "IIBJMEBMADI": true,
    "consumeItemConfig": 1
  }
]
