[
  {
    "id": 1,
    "titleTextMapHash": 4066796818,
    "chapterId": 2009,
    "startQuestId": 1020001,
    "avatarId": 10000029,
    "preQuestId": [45406, 46618],
    "startTime": "",
    "descTextMapHash": 2849570262,
    "sortOrder": 1
  },
  {
    "id": 2,
    "titleTextMapHash": 2336825786,
    "chapterId": 2006,
    "startQuestId": 48601,
    "avatarId": 10000003,
    "preQuestId": [39604, 1020204],
    "startTime": "",
    "descTextMapHash": 2144613238,
    "sortOrder": 2
  },
  {
    "id": 3,
    "titleTextMapHash": 2667970042,
    "chapterId": 2013,
    "startQuestId": 1011001,
    "avatarId": 10000022,
    "preQuestId": [39604, 1020204],
    "startTime": "",
    "descTextMapHash": 583534958,
    "sortOrder": 3
  },
  {
    "id": 4,
    "titleTextMapHash": 667042426,
    "chapterId": 2010,
    "startQuestId": 1050007,
    "avatarId": 10000041,
    "preQuestId": [46618, 1020204],
    "startTime": "2020-10-26 04:00:00",
    "descTextMapHash": 1399816414,
    "sortOrder": 4
  },
  {
    "id": 6,
    "titleTextMapHash": 3951731410,
    "chapterId": 2014,
    "startQuestId": 1102001,
    "avatarId": 10000030,
    "preQuestId": [102510],
    "startTime": "2020-12-01 04:00:00",
    "descTextMapHash": 3597499902,
    "sortOrder": 6
  },
  {
    "id": 7,
    "titleTextMapHash": 1304007330,
    "chapterId": 2012,
    "startQuestId": 1101001,
    "avatarId": 10000033,
    "preQuestId": [102510, 1200309],
    "startTime": "2020-11-10 00:00:00",
    "descTextMapHash": 2987560774,
    "sortOrder": 8
  },
  {
    "id": 8,
    "titleTextMapHash": 1816673994,
    "chapterId": 2016,
    "startQuestId": 1103001,
    "avatarId": 10000037,
    "preQuestId": [102510],
    "startTime": "2021-01-12 18:00:00",
    "descTextMapHash": 1839116870,
    "sortOrder": 9
  },
  {
    "id": 9,
    "titleTextMapHash": 854305178,
    "chapterId": 2017,
    "startQuestId": 1104001,
    "avatarId": 10000038,
    "preQuestId": [38406],
    "startTime": "2021-01-12 04:00:00",
    "descTextMapHash": 4220746734,
    "sortOrder": 10
  },
  {
    "id": 10,
    "titleTextMapHash": 1783730258,
    "chapterId": 2011,
    "startQuestId": 1110009,
    "avatarId": 10000026,
    "preQuestId": [101801],
    "startTime": "2021-03-07 04:00:00",
    "descTextMapHash": 227185262,
    "sortOrder": 11
  },
  {
    "id": 11,
    "titleTextMapHash": 1692266882,
    "chapterId": 2018,
    "startQuestId": 1111001,
    "avatarId": 10000046,
    "preQuestId": [101609],
    "startTime": "2021-03-02 18:00:00",
    "descTextMapHash": 2639148086,
    "sortOrder": 12
  },
  {
    "id": 12,
    "titleTextMapHash": 3981653346,
    "chapterId": 2020,
    "startQuestId": 1112001,
    "avatarId": 10000030,
    "preQuestId": [1102402, 800311],
    "startTime": "2021-04-27 00:00:00",
    "descTextMapHash": 3974934246,
    "sortOrder": 7
  },
  {
    "id": 13,
    "titleTextMapHash": 4047160194,
    "chapterId": 2019,
    "startQuestId": 1012001,
    "avatarId": 10000051,
    "preQuestId": [39604],
    "startTime": "2021-05-18 18:00:00",
    "descTextMapHash": 4017666022,
    "sortOrder": 13
  },
  {
    "id": 14,
    "titleTextMapHash": 4150240458,
    "chapterId": 2023,
    "startQuestId": 1201501,
    "avatarId": 10000052,
    "preQuestId": [202102],
    "startTime": "2021-08-31 04:00:00",
    "descTextMapHash": 709524406,
    "sortOrder": 14
  },
  {
    "id": 15,
    "titleTextMapHash": 3325346298,
    "chapterId": 2024,
    "startQuestId": 1202001,
    "avatarId": 10000054,
    "preQuestId": [1201812],
    "startTime": "2021-09-21 18:00:00",
    "descTextMapHash": 3169507318,
    "sortOrder": 15
  },
  {
    "id": 16,
    "titleTextMapHash": 2452284218,
    "chapterId": 2026,
    "startQuestId": 1200901,
    "avatarId": 10000057,
    "preQuestId": [1202405],
    "startTime": "2021-12-14 18:00:00",
    "descTextMapHash": 3646585678,
    "sortOrder": 16
  },
  {
    "id": 17,
    "titleTextMapHash": 263495682,
    "chapterId": 2025,
    "startQuestId": 1202801,
    "avatarId": 10000058,
    "preQuestId": [1204209],
    "startTime": "2022-02-15 00:00:00",
    "descTextMapHash": 4181224302,
    "sortOrder": 17
  },
  {
    "id": 18,
    "titleTextMapHash": 3650799674,
    "chapterId": 2027,
    "startQuestId": 1204002,
    "avatarId": 10000052,
    "preQuestId": [1201812],
    "startTime": "2022-02-15 00:00:00",
    "descTextMapHash": 1021366198,
    "sortOrder": 18
  },
  {
    "id": 19,
    "titleTextMapHash": 1108576882,
    "chapterId": 2028,
    "startQuestId": 1203301,
    "avatarId": 10000066,
    "preQuestId": [200711, 1201812, 7280705],
    "startTime": "2022-03-29 04:00:00",
    "descTextMapHash": 717521486,
    "sortOrder": 19
  },
  {
    "id": 20,
    "titleTextMapHash": 158285234,
    "chapterId": 2029,
    "startQuestId": 1101801,
    "avatarId": 10000060,
    "preQuestId": [103106, 1103204],
    "startTime": "2022-05-30 04:00:00",
    "descTextMapHash": 3456806990,
    "sortOrder": 20
  },
  {
    "id": 21,
    "titleTextMapHash": 3255699522,
    "chapterId": 2031,
    "startQuestId": 1203701,
    "avatarId": 10000047,
    "preQuestId": [1201812],
    "startTime": "2022-07-12 04:00:00",
    "descTextMapHash": 698598878,
    "sortOrder": 21
  },
  {
    "id": 22,
    "titleTextMapHash": 3422003338,
    "chapterId": 2030,
    "startQuestId": 1300001,
    "avatarId": 10000069,
    "preQuestId": [301301],
    "startTime": "2022-08-23 04:00:00",
    "descTextMapHash": 1649168374,
    "sortOrder": 22
  },
  {
    "id": 23,
    "titleTextMapHash": 1701809538,
    "chapterId": 2032,
    "startQuestId": 1300901,
    "avatarId": 10000071,
    "preQuestId": [302110],
    "startTime": "2022-09-27 04:00:00",
    "descTextMapHash": 1750119510,
    "sortOrder": 23
  },
  {
    "id": 24,
    "titleTextMapHash": 58046082,
    "chapterId": 2033,
    "startQuestId": 1300601,
    "avatarId": 10000070,
    "preQuestId": [301301],
    "startTime": "2022-10-14 18:00:00",
    "descTextMapHash": 3455280342,
    "sortOrder": 24
  },
  {
    "id": 25,
    "titleTextMapHash": 1398383042,
    "chapterId": 2034,
    "startQuestId": 1301301,
    "avatarId": 10000073,
    "preQuestId": [302617],
    "startTime": "2022-11-01 04:00:00",
    "descTextMapHash": 2835555726,
    "sortOrder": 25
  },
  {
    "id": 26,
    "titleTextMapHash": 3125472490,
    "chapterId": 2035,
    "startQuestId": 1302001,
    "avatarId": 10000078,
    "preQuestId": [302617],
    "startTime": "2023-01-17 04:00:00",
    "descTextMapHash": 125317718,
    "sortOrder": 27
  },
  {
    "id": 27,
    "titleTextMapHash": 3279760898,
    "chapterId": 2036,
    "startQuestId": 1302401,
    "avatarId": 10000079,
    "preQuestId": [302617],
    "startTime": "2023-02-28 04:00:00",
    "descTextMapHash": 561295390,
    "sortOrder": 28
  },
  {
    "id": 28,
    "titleTextMapHash": 2243149218,
    "chapterId": 2039,
    "startQuestId": 1301901,
    "avatarId": 10000073,
    "preQuestId": [1301504],
    "startTime": "2023-04-11 04:00:00",
    "descTextMapHash": 297215102,
    "sortOrder": 26
  },
  {
    "id": 29,
    "titleTextMapHash": 3680750226,
    "chapterId": 2037,
    "startQuestId": 1102701,
    "avatarId": 10000082,
    "preQuestId": [102510, 1110311, 1111307],
    "startTime": "2023-05-02 18:00:00",
    "descTextMapHash": 2326294134,
    "sortOrder": 29
  }
]
