[
  {
    "id": 101,
    "GBEONILEOBA": true,
    "nameTextMapHash": 2001792858,
    "descTextMapHash": 3263186236,
    "LOKIGMKDFOE": "UI_OnmyoMaze_Symbol_3_1",
    "GEBFBBLLIDG": "UI_Img_OnmyoMaze_Symbol2T",
    "BEELGNHLOOO": "UI_Img_OnmyoMaze_Symbol2B",
    "NBEDBOKHGLL": "UI_Img_Symbol_Icon2",
    "FOFCJFJEKMK": 3,
    "elementType": 1,
    "abilityName": "Activity_RogueDungeon_Skill_Rune_Fire"
  },
  {
    "id": 102,
    "GBEONILEOBA": true,
    "nameTextMapHash": 2930585978,
    "descTextMapHash": 4172413292,
    "LOKIGMKDFOE": "UI_OnmyoMaze_Symbol_3_2",
    "GEBFBBLLIDG": "UI_Img_OnmyoMaze_Symbol2T",
    "BEELGNHLOOO": "UI_Img_OnmyoMaze_Symbol2B",
    "NBEDBOKHGLL": "UI_Img_Symbol_Icon2",
    "FOFCJFJEKMK": 3,
    "elementType": 4,
    "abilityName": "Activity_RogueDungeon_Skill_Rune_Electric"
  },
  {
    "id": 103,
    "GBEONILEOBA": true,
    "nameTextMapHash": 3974186562,
    "descTextMapHash": 2600094780,
    "LOKIGMKDFOE": "UI_OnmyoMaze_Symbol_3_3",
    "GEBFBBLLIDG": "UI_Img_OnmyoMaze_Symbol2T",
    "BEELGNHLOOO": "UI_Img_OnmyoMaze_Symbol2B",
    "NBEDBOKHGLL": "UI_Img_Symbol_Icon2",
    "FOFCJFJEKMK": 3,
    "elementType": 7,
    "abilityName": "Activity_RogueDungeon_Skill_Rune_Wind"
  },
  {
    "id": 104,
    "GBEONILEOBA": true,
    "nameTextMapHash": 1748493410,
    "descTextMapHash": 175255836,
    "LOKIGMKDFOE": "UI_OnmyoMaze_Symbol_1_1",
    "GEBFBBLLIDG": "UI_Img_OnmyoMaze_Symbol1T",
    "BEELGNHLOOO": "UI_Img_OnmyoMaze_Symbol1B",
    "NBEDBOKHGLL": "UI_Img_Symbol_Icon1",
    "FOFCJFJEKMK": 3,
    "elementType": 2,
    "abilityName": "Activity_RogueDungeon_Skill_Creature_Water"
  },
  {
    "id": 105,
    "GBEONILEOBA": true,
    "nameTextMapHash": 1963898858,
    "descTextMapHash": 1870457364,
    "LOKIGMKDFOE": "UI_OnmyoMaze_Symbol_1_2",
    "GEBFBBLLIDG": "UI_Img_OnmyoMaze_Symbol1T",
    "BEELGNHLOOO": "UI_Img_OnmyoMaze_Symbol1B",
    "NBEDBOKHGLL": "UI_Img_Symbol_Icon1",
    "FOFCJFJEKMK": 3,
    "elementType": 5,
    "abilityName": "Activity_RogueDungeon_Skill_Creature_Ice"
  },
  {
    "id": 106,
    "GBEONILEOBA": true,
    "nameTextMapHash": 1263298474,
    "descTextMapHash": 867407444,
    "LOKIGMKDFOE": "UI_OnmyoMaze_Symbol_1_3",
    "GEBFBBLLIDG": "UI_Img_OnmyoMaze_Symbol1T",
    "BEELGNHLOOO": "UI_Img_OnmyoMaze_Symbol1B",
    "NBEDBOKHGLL": "UI_Img_Symbol_Icon1",
    "FOFCJFJEKMK": 3,
    "elementType": 7,
    "abilityName": "Activity_RogueDungeon_Skill_Creature_Wind"
  },
  {
    "id": 107,
    "GBEONILEOBA": true,
    "nameTextMapHash": 32819210,
    "descTextMapHash": 4231680196,
    "LOKIGMKDFOE": "UI_OnmyoMaze_Symbol_2_1",
    "GEBFBBLLIDG": "UI_Img_OnmyoMaze_Symbol3T",
    "BEELGNHLOOO": "UI_Img_OnmyoMaze_Symbol3B",
    "NBEDBOKHGLL": "UI_Img_Symbol_Icon3_1",
    "FOFCJFJEKMK": 3,
    "elementType": 2,
    "abilityName": "Activity_RogueDungeon_Skill_Spell_Water"
  },
  {
    "id": 108,
    "GBEONILEOBA": true,
    "nameTextMapHash": 2315984138,
    "descTextMapHash": 2718989988,
    "LOKIGMKDFOE": "UI_OnmyoMaze_Symbol_2_3",
    "GEBFBBLLIDG": "UI_Img_OnmyoMaze_Symbol3T",
    "BEELGNHLOOO": "UI_Img_OnmyoMaze_Symbol3B",
    "NBEDBOKHGLL": "UI_Img_Symbol_Icon3_3",
    "FOFCJFJEKMK": 3,
    "elementType": 8,
    "abilityName": "Activity_RogueDungeon_Skill_Spell_Rock"
  },
  {
    "id": 109,
    "GBEONILEOBA": true,
    "nameTextMapHash": 3961233650,
    "descTextMapHash": 187327796,
    "LOKIGMKDFOE": "UI_OnmyoMaze_Symbol_2_2",
    "GEBFBBLLIDG": "UI_Img_OnmyoMaze_Symbol3T",
    "BEELGNHLOOO": "UI_Img_OnmyoMaze_Symbol3B",
    "NBEDBOKHGLL": "UI_Img_Symbol_Icon3_2",
    "FOFCJFJEKMK": 3,
    "elementType": 4,
    "abilityName": "Activity_RogueDungeon_Skill_Spell_Elec"
  }
]
