[
  {
    "CEMHNBPOFIB": 1,
    "type": "SORUSH_TRIAL_STAGE_DETAIL_TYPE_QUEST",
    "refId": 1,
    "tutorialId": 13060
  },
  {
    "CEMHNBPOFIB": 2,
    "DMKBFDJFIOC": 1,
    "type": "SORUSH_TRIAL_STAGE_DETAIL_TYPE_HITMAN",
    "refId": 1,
    "tutorialId": 13061
  },
  {
    "CEMHNBPOFIB": 3,
    "DMKBFDJFIOC": 2,
    "type": "SORUSH_TRIAL_STAGE_DETAIL_TYPE_PHOTOMATCH",
    "refId": 1,
    "tutorialId": 13063
  },
  {
    "CEMHNBPOFIB": 4,
    "DMKBFDJFIOC": 3,
    "type": "SORUSH_TRIAL_STAGE_DETAIL_TYPE_QUEST",
    "refId": 2,
    "tutorialId": 13060
  },
  {
    "CEMHNBPOFIB": 5,
    "DMKBFDJFIOC": 4,
    "type": "SORUSH_TRIAL_STAGE_DETAIL_TYPE_QUEST",
    "refId": 3,
    "tutorialId": 13060
  },
  {
    "CEMHNBPOFIB": 6,
    "DMKBFDJFIOC": 5,
    "type": "SORUSH_TRIAL_STAGE_DETAIL_TYPE_RACE",
    "refId": 1,
    "tutorialId": 13062
  },
  {
    "CEMHNBPOFIB": 7,
    "DMKBFDJFIOC": 6,
    "type": "SORUSH_TRIAL_STAGE_DETAIL_TYPE_PHOTOMATCH",
    "refId": 2,
    "tutorialId": 13063
  },
  {
    "CEMHNBPOFIB": 8,
    "DMKBFDJFIOC": 7,
    "type": "SORUSH_TRIAL_STAGE_DETAIL_TYPE_QUEST",
    "refId": 4,
    "tutorialId": 13060
  },
  {
    "CEMHNBPOFIB": 9,
    "DMKBFDJFIOC": 8,
    "type": "SORUSH_TRIAL_STAGE_DETAIL_TYPE_QUEST",
    "refId": 5,
    "tutorialId": 13060
  },
  {
    "CEMHNBPOFIB": 10,
    "DMKBFDJFIOC": 9,
    "type": "SORUSH_TRIAL_STAGE_DETAIL_TYPE_HITMAN",
    "refId": 2,
    "tutorialId": 13061
  },
  {
    "CEMHNBPOFIB": 11,
    "DMKBFDJFIOC": 10,
    "type": "SORUSH_TRIAL_STAGE_DETAIL_TYPE_PHOTOMATCH",
    "refId": 3,
    "tutorialId": 13063
  },
  {
    "CEMHNBPOFIB": 12,
    "DMKBFDJFIOC": 11,
    "type": "SORUSH_TRIAL_STAGE_DETAIL_TYPE_QUEST",
    "refId": 6,
    "tutorialId": 13060
  },
  {
    "CEMHNBPOFIB": 13,
    "DMKBFDJFIOC": 12,
    "type": "SORUSH_TRIAL_STAGE_DETAIL_TYPE_QUEST",
    "refId": 7,
    "tutorialId": 13060
  },
  {
    "CEMHNBPOFIB": 14,
    "DMKBFDJFIOC": 13,
    "type": "SORUSH_TRIAL_STAGE_DETAIL_TYPE_RACE",
    "refId": 2,
    "tutorialId": 13062
  },
  {
    "CEMHNBPOFIB": 15,
    "DMKBFDJFIOC": 14,
    "type": "SORUSH_TRIAL_STAGE_DETAIL_TYPE_PHOTOMATCH",
    "refId": 4,
    "tutorialId": 13063
  },
  {
    "CEMHNBPOFIB": 16,
    "DMKBFDJFIOC": 15,
    "type": "SORUSH_TRIAL_STAGE_DETAIL_TYPE_QUEST",
    "refId": 8,
    "tutorialId": 13060
  },
  {
    "CEMHNBPOFIB": 17,
    "DMKBFDJFIOC": 16,
    "type": "SORUSH_TRIAL_STAGE_DETAIL_TYPE_QUEST",
    "refId": 9,
    "tutorialId": 13060
  },
  {
    "CEMHNBPOFIB": 18,
    "DMKBFDJFIOC": 17,
    "type": "SORUSH_TRIAL_STAGE_DETAIL_TYPE_HITMAN",
    "refId": 3,
    "tutorialId": 13061
  },
  {
    "CEMHNBPOFIB": 19,
    "DMKBFDJFIOC": 18,
    "type": "SORUSH_TRIAL_STAGE_DETAIL_TYPE_PHOTOMATCH",
    "refId": 5,
    "tutorialId": 13063
  },
  {
    "CEMHNBPOFIB": 20,
    "DMKBFDJFIOC": 19,
    "type": "SORUSH_TRIAL_STAGE_DETAIL_TYPE_QUEST",
    "refId": 10,
    "tutorialId": 13060
  },
  {
    "CEMHNBPOFIB": 21,
    "DMKBFDJFIOC": 20,
    "type": "SORUSH_TRIAL_STAGE_DETAIL_TYPE_QUEST",
    "refId": 11,
    "tutorialId": 13060
  },
  {
    "CEMHNBPOFIB": 22,
    "DMKBFDJFIOC": 21,
    "type": "SORUSH_TRIAL_STAGE_DETAIL_TYPE_RACE",
    "refId": 3,
    "tutorialId": 13062
  },
  {
    "CEMHNBPOFIB": 23,
    "DMKBFDJFIOC": 22,
    "type": "SORUSH_TRIAL_STAGE_DETAIL_TYPE_PHOTOMATCH",
    "refId": 6,
    "tutorialId": 13063
  },
  {
    "CEMHNBPOFIB": 24,
    "DMKBFDJFIOC": 23,
    "type": "SORUSH_TRIAL_STAGE_DETAIL_TYPE_QUEST",
    "refId": 12,
    "tutorialId": 13060
  }
]
