[
  {
    "scheduleId": 5116001,
    "IGGAKJJFNIH": [22000, 8000, 4000, 2000],
    "LPOOEDICIKP": 742,
    "baseScore": 500,
    "HNHKKPNFBHL": 0.02199999988079071,
    "GCJGDIFIIAN": 500.0,
    "KFONCMHKFIH": 300,
    "EMEBACCIPKC": 3,
    "DDACPMBIIHC": 2,
    "EDMPBGLHFFB": "Activity_TeamChain_LockedAvatar",
    "CNENMLEPFNH": 200601,
    "NOCDJECFAKO": 3063001,
    "KPCNDCFCLHL": [1511621, 1511622]
  }
]
