[
  {
    "ID": 10011,
    "NGGEFNONDKA": 3160031319,
    "JBIACLIKKCG": 1793916363,
    "abilityName": "Vehicle_Skiff_FireCannon_Small",
    "skillIcon": "Btn_Vehicle_Skiff_CannonFire_Small",
    "OJMGDFDFIIF": 1.0,
    "DNPNPMLBLHG": 1,
    "lockShape": "CircleLockEnemyR50H30HC",
    "lockWeightParams": [1.0, 1.0, 0.10000000149011612, 0.0],
    "globalValueKey": ""
  },
  {
    "ID": 10012,
    "NGGEFNONDKA": 2681213991,
    "JBIACLIKKCG": 3413724019,
    "abilityName": "Vehicle_Skiff_FireCannon_Big",
    "skillIcon": "Btn_Vehicle_Skiff_CannonFire_Big",
    "OJMGDFDFIIF": 15.0,
    "DNPNPMLBLHG": 1,
    "lockShape": "CircleLockEnemyR50H30HC",
    "lockWeightParams": [1.0, 1.0, 0.10000000149011612, 0.0],
    "globalValueKey": ""
  },
  {
    "ID": 10101,
    "NGGEFNONDKA": 919125991,
    "JBIACLIKKCG": 1400400699,
    "abilityName": "Vehicle_Skiff_Normal_BurstSprint",
    "skillIcon": "Skill_SummerTimeV2_03",
    "OJMGDFDFIIF": 1.0,
    "DNPNPMLBLHG": 1,
    "lockShape": "CircleLockEnemyR5H6HC",
    "lockWeightParams": [1.0, 1.0, 0.10000000149011612, 0.0],
    "globalValueKey": "_ABILITY_Skiff_SprintValue",
    "AEFOMGGBGIN": 10,
    "OBNNNFKPEHP": 30,
    "DCOPAEIHGIN": "Point"
  },
  {
    "ID": 10102,
    "NGGEFNONDKA": 3696565551,
    "JBIACLIKKCG": 891269963,
    "abilityName": "Vehicle_Skiff_Normal_WindHole",
    "skillIcon": "Skill_SummerTimeV2_02",
    "OJMGDFDFIIF": 3.0,
    "DNPNPMLBLHG": 1,
    "lockShape": "CircleLockEnemyR5H6HC",
    "lockWeightParams": [1.0, 1.0, 0.10000000149011612, 0.0],
    "globalValueKey": ""
  },
  {
    "ID": 10104,
    "NGGEFNONDKA": 127506431,
    "JBIACLIKKCG": 3804483835,
    "abilityName": "Vehicle_Skiff_LanV3BoatGame_Fog",
    "skillIcon": "Skill_LanV3_Icon04",
    "OJMGDFDFIIF": 1.0,
    "DNPNPMLBLHG": 1,
    "lockShape": "CircleLockEnemyR5H6HC",
    "lockWeightParams": [1.0, 1.0, 0.10000000149011612, 0.0],
    "globalValueKey": "_ABILITY_LanV3BoatGame_Skill_Energy",
    "AEFOMGGBGIN": 100,
    "OBNNNFKPEHP": 100
  },
  {
    "ID": 10105,
    "NGGEFNONDKA": 2508142215,
    "JBIACLIKKCG": 2141115963,
    "abilityName": "Vehicle_Skiff_LanV3BoatGame_Coin_Absorb",
    "skillIcon": "Skill_SummerTimeV2_02",
    "OJMGDFDFIIF": 1.0,
    "DNPNPMLBLHG": 1,
    "lockShape": "CircleLockEnemyR5H6HC",
    "lockWeightParams": [1.0, 1.0, 0.10000000149011612, 0.0],
    "globalValueKey": "_ABILITY_LanV3BoatGame_Skill_Energy",
    "AEFOMGGBGIN": 100,
    "OBNNNFKPEHP": 100
  },
  {
    "ID": 10106,
    "NGGEFNONDKA": 2461853359,
    "JBIACLIKKCG": 711127403,
    "abilityName": "Vehicle_Skiff_LanV3BoatGame_Shield",
    "skillIcon": "Skill_LanV3_Icon02",
    "OJMGDFDFIIF": 1.0,
    "DNPNPMLBLHG": 1,
    "lockShape": "CircleLockEnemyR5H6HC",
    "lockWeightParams": [1.0, 1.0, 0.10000000149011612, 0.0],
    "globalValueKey": "_ABILITY_LanV3BoatGame_Skill_Energy",
    "AEFOMGGBGIN": 100,
    "OBNNNFKPEHP": 100
  },
  {
    "ID": 10107,
    "NGGEFNONDKA": 2496904943,
    "JBIACLIKKCG": 3970103419,
    "abilityName": "Vehicle_Skiff_LanV3BoatGame_Vortex",
    "skillIcon": "Skill_LanV3_Icon03",
    "OJMGDFDFIIF": 1.0,
    "DNPNPMLBLHG": 1,
    "lockShape": "CircleLockEnemyR5H6HC",
    "lockWeightParams": [1.0, 1.0, 0.10000000149011612, 0.0],
    "globalValueKey": "_ABILITY_LanV3BoatGame_Skill_Energy",
    "AEFOMGGBGIN": 100,
    "OBNNNFKPEHP": 100
  },
  {
    "ID": 10108,
    "NGGEFNONDKA": 2862261279,
    "JBIACLIKKCG": 763121707,
    "abilityName": "Vehicle_Skiff_LanV3BoatGame_RushMove",
    "skillIcon": "Skill_SummerTimeV2_03",
    "OJMGDFDFIIF": 1.0,
    "DNPNPMLBLHG": 1,
    "lockShape": "CircleLockEnemyR5H6HC",
    "lockWeightParams": [1.0, 1.0, 0.10000000149011612, 0.0],
    "globalValueKey": "_ABILITY_LanV3BoatGame_Skill_Energy",
    "AEFOMGGBGIN": 100,
    "OBNNNFKPEHP": 100
  },
  {
    "ID": 10109,
    "NGGEFNONDKA": 3302742303,
    "JBIACLIKKCG": 2841245579,
    "abilityName": "Vehicle_Skiff_LanV3BoatGame_Stamina_Recover",
    "skillIcon": "Skill_LanV3_Icon01",
    "OJMGDFDFIIF": 1.0,
    "DNPNPMLBLHG": 1,
    "lockShape": "CircleLockEnemyR5H6HC",
    "lockWeightParams": [1.0, 1.0, 0.10000000149011612, 0.0],
    "globalValueKey": "_ABILITY_LanV3BoatGame_Skill_Energy",
    "AEFOMGGBGIN": 100,
    "OBNNNFKPEHP": 100
  },
  {
    "ID": 10201,
    "NGGEFNONDKA": 893069895,
    "JBIACLIKKCG": 1120026595,
    "abilityName": "",
    "skillIcon": "Btn_Sorush_Interactive",
    "OJMGDFDFIIF": 1.0,
    "DNPNPMLBLHG": 1,
    "lockShape": "CircleLockEnemyR5H6HC",
    "lockWeightParams": [1.0, 1.0, 0.10000000149011612, 0.0],
    "globalValueKey": ""
  },
  {
    "ID": 10202,
    "NGGEFNONDKA": 385910151,
    "JBIACLIKKCG": 1628397555,
    "abilityName": "Vehicle_Sorush_ChargeSkill",
    "skillIcon": "Btn_Sorush_Bomb",
    "OJMGDFDFIIF": 1.0,
    "DNPNPMLBLHG": 1,
    "lockShape": "CircleLockEnemyR5H6HC",
    "lockWeightParams": [1.0, 1.0, 0.10000000149011612, 0.0],
    "globalValueKey": "_ABILITY_Sorush_ChargeSkillValue",
    "AEFOMGGBGIN": 10,
    "OBNNNFKPEHP": 80,
    "DCOPAEIHGIN": "Slider"
  },
  {
    "ID": 10301,
    "NGGEFNONDKA": 440941895,
    "JBIACLIKKCG": 3391501483,
    "abilityName": "ActivityAbility_Hitman_Sorush_FireBomb",
    "skillIcon": "Btn_Sorush_Bomb",
    "OJMGDFDFIIF": 1.0,
    "DNPNPMLBLHG": 1,
    "lockShape": "CircleLockEnemyR5H6HC",
    "lockWeightParams": [1.0, 1.0, 0.10000000149011612, 0.0],
    "globalValueKey": ""
  }
]
