{
    "abilities": [
        {
            "abilityID": "",
            "abilityName": "Avatar_Baizhuer_ExtraAttack"
        },
        {
            "abilityID": "",
            "abilityName": "Avatar_Baizhuer_Attack01"
        },
        {
            "abilityID": "",
            "abilityName": "Avatar_Baizhuer_Attack02"
        },
        {
            "abilityID": "",
            "abilityName": "Avatar_Baizhuer_Attack03"
        },
        {
            "abilityID": "",
            "abilityName": "Avatar_Baizhuer_Attack04"
        },
        {
            "abilityID": "",
            "abilityName": "Avatar_Baizhuer_HideWeaponControl"
        },
        {
            "abilityID": "",
            "abilityName": "Avatar_Baizhuer_ElementalArt"
        },
        {
            "abilityID": "",
            "abilityName": "Avatar_Baizhuer_ElementalBurst"
        },
        {
            "abilityID": "",
            "abilityName": "Avatar_Baizhuer_ElementalBurst_Funnel_Handler"
        },
        {
            "abilityID": "",
            "abilityName": "Avatar_Baizhuer_ElementalBurst_Funnel_Shoot"
        },
        {
            "abilityID": "",
            "abilityName": "Avatar_Baizhuer_Heal_ControlAbiilty"
        },
        {
            "abilityID": "",
            "abilityName": "Avatar_Baizhuer_HealWhenGather"
        },
        {
            "abilityID": "",
            "abilityName": "Avatar_Baizhuer_FallingAnthem"
        }
    ]
}