[
  ////////////////////////////////////////////////////////////////
  //
  //  转向
  //	StreeController
  //
  ////////////////////////////////////////////////////////////////

  {
    "Default": {
      "$type": "ConfigAbility",
      "abilityName": "Monster_Eremite_Female_Standard_Dancer_StreeController",
      "abilityMixins": [
        {
          "$type": "SteerAttackMixin",
          "steerStateIDs": ["Turn"],
          "startNormalizedTime": 0,
          "endNormalizedTime": 1,
          "angularSpeed": 150,
          "attackTrigger": "",
          "attackDistance": 2
        },
        {
          "$type": "SteerAttackMixin",
          "steerStateIDs": ["MeleeAttack01"],
          "startNormalizedTime": 0,
          "endNormalizedTime": 1,
          "angularSpeed": 90,
          "attackTrigger": "",
          "attackDistance": 2
        },
        // {
        // 	"$type": "SteerAttackMixin",
        // 	"steerStateIDs": ["NormalAttack01"],
        // 	"startNormalizedTime" : 0,
        // 	"endNormalizedTime" : 1,
        // 	"angularSpeed" : 90,
        // 	"attackTrigger" : "",
        // 	"attackDistance" : 2,
        // },
        {
          "$type": "SteerAttackMixin",
          "steerStateIDs": ["RangeAttack01"],
          "startNormalizedTime": 0,
          "endNormalizedTime": 0.37,
          "angularSpeed": 150,
          "attackTrigger": "",
          "attackDistance": 2
        },
        {
          "$type": "SteerAttackMixin",
          "steerStateIDs": ["RangeAttack01"],
          "startNormalizedTime": 0.7,
          "endNormalizedTime": 1,
          "angularSpeed": 150,
          "attackTrigger": "",
          "attackDistance": 2
        },
        {
          "$type": "SteerAttackMixin",
          "steerStateIDs": ["Blink_RangeAttack01"],
          "startNormalizedTime": 0,
          "endNormalizedTime": 0.37,
          "angularSpeed": 150,
          "attackTrigger": "",
          "attackDistance": 2
        },
        {
          "$type": "SteerAttackMixin",
          "steerStateIDs": ["Blink_RangeAttack01"],
          "startNormalizedTime": 0.7,
          "endNormalizedTime": 1,
          "angularSpeed": 150,
          "attackTrigger": "",
          "attackDistance": 2
        },
        {
          "$type": "SteerAttackMixin",
          "steerStateIDs": ["NormalAttack01"],
          "startNormalizedTime": 0,
          "endNormalizedTime": 0.1,
          "angularSpeed": 180,
          "attackTrigger": "",
          "attackDistance": 2
        },
        {
          "$type": "SteerAttackMixin",
          "steerStateIDs": ["NormalAttack01"],
          "startNormalizedTime": 0.44,
          "endNormalizedTime": 0.57,
          "angularSpeed": 180,
          "attackTrigger": "",
          "attackDistance": 2
        },
        {
          "$type": "SteerAttackMixin",
          "steerStateIDs": ["NormalAttack01_01"],
          "startNormalizedTime": 0,
          "endNormalizedTime": 0.8,
          "angularSpeed": 125,
          "attackTrigger": "",
          "attackDistance": 2
        },
        {
          "$type": "SteerAttackMixin",
          "steerStateIDs": ["NormalAttack01_02"],
          "startNormalizedTime": 0,
          "endNormalizedTime": 0.1,
          "angularSpeed": 125,
          "attackTrigger": "",
          "attackDistance": 2
        },
        {
          "$type": "SteerAttackMixin",
          "steerStateIDs": ["Blink"],
          "startNormalizedTime": 0,
          "endNormalizedTime": 1,
          "angularSpeed": 180,
          "attackTrigger": "",
          "attackDistance": 2
        },
        {
          "$type": "SteerAttackMixin",
          "steerStateIDs": ["Improve_Blink"],
          "startNormalizedTime": 0,
          "endNormalizedTime": 1,
          "angularSpeed": 180,
          "attackTrigger": "",
          "attackDistance": 2
        },
        {
          "$type": "SteerAttackMixin",
          "steerStateIDs": ["BlinkAttack_BS"],
          "startNormalizedTime": 0,
          "endNormalizedTime": 1,
          "angularSpeed": 180,
          "attackTrigger": "",
          "attackDistance": 2
        },
        {
          "$type": "SteerAttackMixin",
          "steerStateIDs": ["ComboAttack01"],
          "startNormalizedTime": 0,
          "endNormalizedTime": 1,
          "angularSpeed": 180,
          "attackTrigger": "",
          "attackDistance": 2
        }
      ]
    }
  },

  ////////////////////////////////////////////////////////////////
  //
  //  状态控制
  //	StateController
  //
  ////////////////////////////////////////////////////////////////

  {
    "Default": {
      "$type": "ConfigAbility",
      "abilityName": "Monster_Eremite_Female_Standard_Dancer_FightControl",
      "abilityMixins": [
        {
          "$type": "AttachToPoseIDMixin",
          "poseIDs": [
            1, //free
            2,
            901,
            902,
            903 //reborn
          ],
          "modifierName": "Eremite_OutFightState"
        },
        {
          "$type": "AttachToPoseIDMixin",
          "poseIDs": [
            101, //FightNormal
            102, //FightNormal_OutImproved
            111, //ForceImprove
            201, //FightImproved
            301 //FightWeak
          ],
          "modifierName": "Eremite_InFightState"
        }
      ],
      "onAdded": [
        //强化状态
        {
          "$type": "SetGlobalValue",
          "key": "_MONSTER_EREMITE_IMPROVED_",
          "minValue": 0,
          "maxValue": 1,
          "useLimitRange": true,
          "value": 0
        },
        //设置强化次数
        {
          "$type": "SetGlobalValue",
          "key": "_EREMITE_WEAK_TIMES_",
          "minValue": 0,
          "maxValue": 100,
          "useLimitRange": true,
          "value": 0
        },
        //判定是否是从Weak出来后的普通状态

        {
          "$type": "SetGlobalValue",
          "key": "_MONSTER_EREMITE_OUTIMPROVED",
          "minValue": 0,
          "maxValue": 1,
          "useLimitRange": true,
          "value": 0
        },
        //强化次数
        {
          "$type": "SetGlobalValue",
          "key": "_MONSTER_EREMITE_IMPROVED_COUNT_",
          "minValue": 0,
          "maxValue": 99,
          "useLimitRange": true,
          "value": 0
        },
        //是否入战
        {
          "$type": "SetGlobalValue",
          "key": "_MONSTER_EREMITE_ISINFIGHT_",
          "minValue": 0,
          "maxValue": 1,
          "useLimitRange": true,
          "value": 0
        },
        //虚弱状态
        {
          "$type": "SetGlobalValue",
          "key": "_MONSTER_EREMITE_WEAK_",
          "minValue": 0,
          "maxValue": 1,
          "useLimitRange": true,
          "value": 0
        },
        //是否处于重生状态
        {
          "$type": "SetGlobalValue",
          "key": "_MONSTER_EREMITE_RETURNTOBORN_",
          "value": 0,
          "useLimitRange": true,
          "maxValue": 1,
          "minValue": 0
        }
      ],
      "modifiers": {
        "Eremite_OutFightState": {
          "onAdded": [
            {
              "$type": "AddGlobalValue",
              "key": "_MONSTER_EREMITE_ISINFIGHT_",
              "value": -10,
              "useLimitRange": true,
              "maxValue": 1,
              "minValue": 0
            }, // out fight
            {
              "$type": "RemoveModifier",
              "modifierName": "Eremite_InFightState"
            } //remove in fight
          ]
        },
        "Eremite_InFightState": {
          "onAdded": [
            {
              "$type": "AddGlobalValue",
              "key": "_MONSTER_EREMITE_ISINFIGHT_",
              "value": 10,
              "useLimitRange": true,
              "maxValue": 1,
              "minValue": 0
            }, // in fight
            {
              "$type": "RemoveModifier",
              "modifierName": "Eremite_OutFightState"
            } //remove out fight
          ]
        }
      }
    }
  },
  // Alert
  {
    "Default": {
      "$type": "ConfigAbility",
      "abilityName": "Monster_Eremite_Female_Standard_Dancer_Alert",
      "onAbilityStart": [
        {
          "$type": "SetPoseInt",
          "intID": "FreePoseMark",
          "value": 0
        }
      ]
    }
  },

  ////////////////////////////////////////////////////////////////
  //
  //  转阶段与召唤飞蛇
  //	Improve and Summon
  //
  ////////////////////////////////////////////////////////////////

  {
    "Default": {
      "$type": "ConfigAbility",
      "abilityName": "Monster_Eremite_Female_Standard_Dancer_Improve",
      "abilityMixins": [
        {
          "$type": "AttachModifierToSelfGlobalValueMixin",
          "globalValueKey": "_MONSTER_EREMITE_IMPROVED_",
          "defaultGlobalValueOnCreate": 0,
          "valueSteps": [-0.5, 0.5, 1.5],
          "removeAppliedModifier": true,
          "modifierNameSteps": ["Eremite_NormalState", "Eremite_ImproveState"]
        }, //强化状态判定
        {
          "$type": "AttachModifierToSelfGlobalValueMixin",
          "globalValueKey": "_MONSTER_EREMITE_WEAK_",
          "defaultGlobalValueOnCreate": 0,
          "valueSteps": [-0.5, 0.5, 1.5],
          "removeAppliedModifier": true,
          "modifierNameSteps": ["Eremite_IsNotWeak", "Eremite_IsWeak"]
        }, //虚弱状态判定
        {
          "$type": "AttachModifierToSelfGlobalValueMixin",
          "globalValueKey": "_EREMITE_SLAVE_DIE_",
          "defaultGlobalValueOnCreate": 0,
          "valueSteps": [-0.5, 0.5, 1.5],
          "removeAppliedModifier": true,
          "modifierNameSteps": ["Empty", "Eremite_RemoveImprove"]
        }, //飞蛇死亡
        {
          "$type": "AttachModifierToSelfGlobalValueMixin",
          "globalValueKey": "_MONSTER_EREMITE_OUTIMPROVED",
          "defaultGlobalValueOnCreate": 0,
          "valueSteps": [-0.5, 0.5, 1.5],
          "removeAppliedModifier": true,
          "modifierNameSteps": [
            "Eremite_ISNotOutImproved",
            "Eremite_IsOutImproved"
          ]
        }, //从强化状态退出后的普通状态判定
        {
          "$type": "AttachModifierToHPPercentMixin",
          "valueSteps": [0.7],
          "modifierNameSteps": [
            "Empty",
            "UNIQUE_Eremite_Dancer_Force_ImproveState"
          ]
        }, //强制进行强化
        {
          "$type": "AttachToStateIDMixin",
          "stateIDs": ["Improve"],
          "modifierName": "Improve_AddEndure"
        }, //转阶段霸体
        {
          "$type": "AttachToPoseIDMixin",
          "poseIDs": [111, 201],
          "modifierName": "Improve_AddEndure"
        }, //强化阶段霸体
        {
          "$type": "DoActionByStateIDMixin",
          "stateIDs": ["Die", "Die_RagDoll"],
          "enterActions": [
            {
              "$type": "RemoveModifier",
              "modifierName": "Eremite_Improve_Effect"
            }
          ]
        }, //死亡移除强化特效
        {
          "$type": "AttachToPoseIDMixin",
          "poseIDs": [102],
          "modifierName": "WeakEnd_AddEndureHandle"
        } //退出强化后的霸体跟体重状态
      ],
      "onAdded": [],
      "modifiers": {
        "Improve_AddEndure": {
          "properties": {
            "Actor_EndureDelta": 0,
            "Entity_WeightRatio": 5.0
          }
        },
        "Empty": {},
        "Eremite_RemoveImprove": {
          "onAdded": [
            {
              "$type": "RemoveUniqueModifier",
              "modifierName": "UNIQUE_Eremite_Dancer_ImproveState_Properties"
            }
          ]
        },
        "UNIQUE_Eremite_Dancer_Force_ImproveState": {
          "stacking": "Unique",
          "isUnique": true,
          "onAdded": [
            {
              "$type": "SetPoseBool",
              "boolID": "ForceImprove",
              "value": true,
              "canBeHandledOnRecover": true,
              "predicates": [
                {
                  "$type": "ByTargetGlobalValue",
                  "target": "Self",
                  "key": "_MONSTER_EREMITE_IMPROVED_COUNT_",
                  "value": 0,
                  "compareType": "NoneOrEqual"
                }
              ]
            },
            {
              "$type": "SetAISkillCDAvailableNow",
              "skillIDs": [401]
            } //重置cd
          ],
          "onRemoved": [
            {
              "$type": "SetPoseBool",
              "boolID": "ForceImprove",
              "value": false
            }
          ]
        },
        "Eremite_NormalState": {
          "onAdded": [
            {
              "$type": "SetPoseBool",
              "boolID": "ImproveState",
              "value": false,
              "canBeHandledOnRecover": true
            },
            {
              "$type": "RemoveModifier",
              "modifierName": "Eremite_ImproveState"
            }
          ]
        },
        "Eremite_ImproveState": {
          "onAdded": [
            {
              "$type": "SetPoseBool",
              "boolID": "ImproveState",
              "value": true,
              "canBeHandledOnRecover": true
            },
            {
              "$type": "RemoveModifier",
              "modifierName": "Eremite_NormalState"
            }
          ]
        },
        "Eremite_IsNotWeak": {
          "onAdded": [
            {
              "$type": "SetPoseBool",
              "boolID": "WeakState",
              "value": false,
              "canBeHandledOnRecover": true
            },
            {
              "$type": "RemoveModifier",
              "modifierName": "Eremite_IsWeak"
            }
          ]
        },
        "Eremite_IsWeak": {
          "onAdded": [
            {
              "$type": "SetPoseBool",
              "boolID": "WeakState",
              "value": true,
              "canBeHandledOnRecover": true
            },
            {
              "$type": "RemoveModifier",
              "modifierName": "Eremite_IsNotWeak"
            }
          ]
        },
        "Eremite_IsOutImproved": {
          "onAdded": [
            {
              "$type": "SetPoseBool",
              "boolID": "OutImproved",
              "value": true,
              "canBeHandledOnRecover": true
            },
            {
              "$type": "RemoveModifier",
              "modifierName": "Eremite_ISNotOutImproved"
            }
          ]
        },
        "Eremite_ISNotOutImproved": {
          "onAdded": [
            {
              "$type": "SetPoseBool",
              "boolID": "OutImproved",
              "value": false,
              "canBeHandledOnRecover": true
            },
            {
              "$type": "RemoveModifier",
              "modifierName": "Eremite_IsOutImproved"
            }
          ]
        },
        "UNIQUE_Eremite_Dancer_ImproveState_Properties": {
          "isUnique": true,
          "stacking": "Unique",
          "properties": {
            //体重增加
            "Actor_EndureDelta": 0.0,
            "Entity_WeightRatio": 5.0,
            //全抗+0.5
            "Actor_PhysicalSubHurtDelta": 0.5,
            "Actor_FireSubHurtDelta": 0.5,
            "Actor_ElecSubHurtDelta": 0.5,
            "Actor_WaterSubHurtDelta": 0.5,
            "Actor_GrassSubHurtDelta": 0.5,
            "Actor_WindSubHurtDelta": 0.5,
            "Actor_IceSubHurtDelta": 0.5,
            "Actor_RockSubHurtDelta": 0.5
          },
          "onAdded": [
            // 进入强化状态
            {
              "$type": "AddGlobalValue",
              "key": "_MONSTER_EREMITE_IMPROVED_",
              "value": 10,
              "useLimitRange": true,
              "maxValue": 1,
              "minValue": 0,
              "canBeHandledOnRecover": true
            },
            //强化次数+1
            {
              "$type": "AddGlobalValue",
              "key": "_MONSTER_EREMITE_RECOVER_",
              "value": -10,
              "useLimitRange": true,
              "maxValue": 1,
              "minValue": 0,
              "canBeHandledOnRecover": true
            },
            //重置恢复状态为0
            {
              "$type": "AddGlobalValue",
              "key": "_MONSTER_EREMITE_IMPROVED_COUNT_",
              "minValue": 0,
              "maxValue": 99,
              "useLimitRange": true,
              "value": 1
            },
            {
              "$type": "AttachModifier",
              "modifierName": "Eremite_Improve_Effect"
            },
            {
              "$type": "SetAISkillGCD",
              "value": 5
            }
          ],
          "onRemoved": [
            {
              "$type": "RemoveModifier",
              "modifierName": "Eremite_Improve_Effect"
            },
            {
              "$type": "KillSelf",
              "otherTargets": {
                "$type": "SelectTargetsByChildren",
                "configID": 25110401,
                "sortType": "Default"
              }
            },
            {
              "$type": "AddGlobalValue",
              "key": "_EREMITE_WEAK_TIMES_",
              "value": 1,
              "maxValue": 100,
              "minValue": 0,
              "useLimitRange": true,
              "canBeHandledOnRecover": true
            },
            {
              "$type": "SetAnimatorTrigger",
              "triggerID": "Weak",
              "doOffStage": true,
              "predicates": [
                {
                  "$type": "ByTargetGlobalValue",
                  "key": "_MONSTER_EREMITE_RETURNTOBORN_",
                  "value": 0,
                  "target": "Self",
                  "compareType": "Equal"
                }
              ]
            },
            {
              "$type": "ApplyModifier",
              "modifierName": "Eremite_Out_Imporve"
            },
            {
              "$type": "RemoveUniqueModifier",
              "modifierName": "UNIQUE_Eremite_Dancer_Force_ImproveState"
            } //移除强制进入强化状态的状态
          ]
        },
        "Eremite_Improve_Effect": {
          "onAdded": [
            {
              "$type": "AttachEffect",
              "effectPattern": "Eff_Monster_Eremite_Female_Standard_Dancer_Grass_Improve_Loop_01"
            }
          ]
        },
        "Eremite_Out_Imporve": {
          "duration": 1,
          "onAdded": [
            {
              "$type": "SetGlobalValue",
              "key": "_MONSTER_EREMITE_OUTIMPROVED",
              "minValue": 0,
              "maxValue": 1,
              "useLimitRange": true,
              "value": 1
            },
            {
              "$type": "AddGlobalValue",
              "key": "_MONSTER_EREMITE_IMPROVED_",
              "value": -10,
              "useLimitRange": true,
              "maxValue": 1,
              "minValue": 0,
              "canBeHandledOnRecover": true
            }, // 退出强化状态
            {
              "$type": "AddGlobalValue",
              "key": "_MONSTER_EREMITE_WEAK_",
              "value": 10,
              "useLimitRange": true,
              "maxValue": 1,
              "minValue": 0,
              "canBeHandledOnRecover": true
            } // 进入虚弱状态
          ]
        },
        "WeakEnd_AddEndureHandle": {
          "properties": {
            "Actor_EndureDelta": 5
          }
        }
      },
      "onAbilityStart": [
        {
          "$type": "AttachModifier",
          "modifierName": "UNIQUE_Eremite_Dancer_ImproveState_Properties"
        } //进入强化状态
      ]
    }
  },
  {
    "Default": {
      "$type": "ConfigAbility",
      "abilityName": "Monster_Eremite_Female_Standard_Dancer_Summon",
      "onAbilityStart": [
        {
          "$type": "ApplyModifier",
          "modifierName": "Summon_Eremite_Chrysopelea_Grass_01"
        } //释放草蛇
      ],
      "modifiers": {
        "Summon_Eremite_Chrysopelea_Grass_01": {
          "duration": 1,
          "onAdded": [
            {
              "$type": "Summon",
              "aliveByOwner": true,
              "summonTag": 25110401,
              "monsterID": 25110401,
              "sightGroupWithOwner": true,
              "hasDrop": false,
              "born": {
                "$type": "ConfigBornBySelf"
              }
            }
          ]
        }
      }
    }
  },

  ////////////////////////////////////////////////////////////////
  //
  //  虚弱
  //	Weak
  //
  ////////////////////////////////////////////////////////////////

  {
    "Default": {
      "$type": "ConfigAbility",
      "abilityName": "Monster_Eremite_Female_Standard_Dancer_Weak",
      "onAdded": [],
      "abilityMixins": [
        {
          "$type": "AttachToPoseIDMixin",
          "poseIDs": [301],
          "modifierName": "WeakState"
        },
        {
          "$type": "AttachModifierToSelfGlobalValueMixin",
          "globalValueKey": "_MONSTER_EREMITE_RECOVER_",
          "defaultGlobalValueOnCreate": 0,
          "valueSteps": [-0.5, 0.5, 1.5],
          "removeAppliedModifier": true,
          "modifierNameSteps": ["Empty", "Recover"]
        }
      ],
      "modifiers": {
        "WeakState": {
          "duration": 10,
          "properties": {
            "Actor_EndureDelta": 0,
            "Entity_WeightRatio": 5.0,
            "Actor_GrassSubHurtDelta": -0.6 //草抗性降低
          },
          "onAdded": [
            {
              "$type": "AttachEffect",
              "effectPattern": "Eff_Avatar_Properties_Defense_Down"
            },
            {
              "$type": "ApplyModifier",
              "modifierName": "WeakState_Damage",
              "target": "Self",
              "predicates": [
                {
                  "$type": "ByTargetGlobalValue",
                  "target": "Self",
                  "key": "_EREMITE_WEAK_TIMES_",
                  "value": 1,
                  "compareType": "Equal"
                }
              ]
            }, //对自身造成35%d当前生命值的伤害
            {
              "$type": "AddGlobalValue",
              "key": "_MONSTER_EREMITE_WEAK_",
              "minValue": 0,
              "maxValue": 1,
              "useLimitRange": true,
              "value": 10,
              "canBeHandledOnRecover": true
            }, //进入虚弱状态
            {
              "$type": "AddGlobalValue",
              "key": "_MONSTER_EREMITE_RECOVER_",
              "value": -10,
              "useLimitRange": true,
              "maxValue": 1,
              "minValue": 0,
              "canBeHandledOnRecover": true
            } //未进入恢复状态
          ],
          "onRemoved": [
            {
              "$type": "AddGlobalValue",
              "key": "_MONSTER_EREMITE_WEAK_",
              "minValue": 0,
              "maxValue": 1,
              "useLimitRange": true,
              "value": -10,
              "canBeHandledOnRecover": true
            }, //退出虚弱状态
            {
              "$type": "AddGlobalValue",
              "key": "_MONSTER_EREMITE_RECOVER_",
              "value": 10,
              "useLimitRange": true,
              "maxValue": 1,
              "minValue": 0,
              "canBeHandledOnRecover": true
            } //进入恢复状态
          ]
        },
        "Empty": {},
        "Recover": {
          "onAdded": [
            {
              "$type": "SetAnimatorTrigger",
              "triggerID": "Recover"
            }
          ]
        },
        "WeakState_Damage": {
          "duration": 1,
          "onAdded": [
            {
              "$type": "GetFightProperty",
              "fightPropSourceTarget": "Self",
              "fightProp": "FIGHT_PROP_CUR_HP",
              "globalValueKey": "_MONSTER_CUR_HP_",
              "doOffStage": true
            }, //获取当前生命值
            {
              "$type": "SetGlobalValueToOverrideMap",
              "globalValueKey": "_MONSTER_CUR_HP_",
              "overrideMapKey": "Eremite_Cur_HP",
              "doOffStage": true
            }, //设置overridemapkey
            {
              "$type": "DamageByAttackValue",
              "target": "Self",
              "attacker": "Caster",
              "attackInfo": {
                "$type": "ConfigAttackInfo",
                "attackProperty": {
                  "$type": "ConfigAttackProperty",
                  "ignoreAttackerProperty": true,
                  "trueDamage": true,
                  "damageExtra": "0.375*%Eremite_Cur_HP",
                  "damagePercentage": 0,
                  "attackType": "Default",
                  "elementType": "Grass",
                  "enBreak": 0,
                  "strikeType": "None"
                }
              }
            },
            {
              "$type": "FireEffect",
              "effectPattern": "Eff_Monster_Eremite_Female_Standard_Dancer_Grass_Weak_BS"
            } //受击特效
          ]
        }
      },
      "abilitySpecials": {
        "Eremite_Cur_HP": 0
      }
    }
  },
  ////////////////////////////////////////////////////////////////
  //
  //  脱战
  //	ReturnToBorn
  //
  ////////////////////////////////////////////////////////////////

  {
    "Default": {
      "$type": "ConfigAbility",
      "abilityName": "Monster_Eremite_Female_Standard_Dancer_ReturnToBorn",
      "abilityMixins": [
        {
          "$type": "AttachToPoseIDMixin",
          "poseIDs": [901],
          "modifierName": "ReturnToBorn_Start"
        },
        {
          "$type": "AttachToAnimatorStateIDMixin",
          "stateIDs": ["SheathWeapon"],
          "modifierName": "ReturnToBornHandler"
        }
      ],
      "modifiers": {
        "ReturnToBorn_Start": {
          "onAdded": [
            {
              "$type": "SetAnimatorTrigger",
              "triggerID": "SheathWeaponTrigger"
            }
          ]
        },
        "ReturnToBornHandler": {
          "onAdded": [
            //强化状态
            {
              "$type": "SetGlobalValue",
              "key": "_MONSTER_EREMITE_IMPROVED_",
              "minValue": 0,
              "maxValue": 1,
              "useLimitRange": true,
              "value": 0
            },
            {
              "$type": "SetGlobalValue",
              "key": "_MONSTER_EREMITE_RETURNTOBORN_",
              "minValue": 0,
              "maxValue": 1,
              "useLimitRange": true,
              "value": 1
            },
            {
              "$type": "SetGlobalValue",
              "key": "_MONSTER_EREMITE_WEAK_",
              "minValue": 0,
              "maxValue": 1,
              "useLimitRange": true,
              "value": 0
            },
            {
              "$type": "SetGlobalValue",
              "key": "_MONSTER_EREMITE_IMPROVED_COUNT_",
              "minValue": 0,
              "maxValue": 99,
              "useLimitRange": true,
              "value": 0
            },
            {
              "$type": "RemoveUniqueModifier",
              "modifierName": "UNIQUE_Eremite_Dancer_ImproveState_Properties"
            },
            {
              "$type": "RemoveUniqueModifier",
              "modifierName": "UNIQUE_Eremite_Dancer_Force_ImproveState"
            }
          ],
          "onRemoved": [
            //强化状态
            {
              "$type": "SetGlobalValue",
              "key": "_MONSTER_EREMITE_IMPROVED_",
              "minValue": 0,
              "maxValue": 1,
              "useLimitRange": true,
              "value": 0
            },
            //重置虚弱次数为0
            {
              "$type": "SetGlobalValue",
              "key": "_EREMITE_WEAK_TIMES_",
              "minValue": 0,
              "maxValue": 100,
              "useLimitRange": true,
              "value": 0
            },
            //强化次数
            {
              "$type": "SetGlobalValue",
              "key": "_MONSTER_EREMITE_IMPROVED_COUNT_",
              "minValue": 0,
              "maxValue": 99,
              "useLimitRange": true,
              "value": 0
            },
            //是否入战
            {
              "$type": "SetGlobalValue",
              "key": "_MONSTER_EREMITE_ISINFIGHT_",
              "minValue": 0,
              "maxValue": 1,
              "useLimitRange": true,
              "value": 0
            },
            //虚弱状态
            {
              "$type": "SetGlobalValue",
              "key": "_MONSTER_EREMITE_WEAK_",
              "minValue": 0,
              "maxValue": 1,
              "useLimitRange": true,
              "value": 0
            },
            //是否处于重生状态
            {
              "$type": "SetGlobalValue",
              "key": "_MONSTER_EREMITE_RETURNTOBORN_",
              "value": 0,
              "useLimitRange": true,
              "maxValue": 1,
              "minValue": 0
            },
            //判定是否是从Weak出来后的普通状态
            {
              "$type": "SetGlobalValue",
              "key": "_MONSTER_EREMITE_OUTIMPROVED",
              "minValue": 0,
              "maxValue": 1,
              "useLimitRange": true,
              "value": 0
            },
            {
              "$type": "ApplyModifier",
              "modifierName": "Slave_ReturnToBorn",
              "otherTargets": {
                "$type": "SelectTargetsByChildren",
                "configID": 25110401,
                "sortType": "Default"
              }
            }, //将给秃鹫的GV设置为返回重生
            {
              "$type": "KillSelf",
              "otherTargets": {
                "$type": "SelectTargetsByChildren",
                "configID": 25110401,
                "sortType": "Default"
              }
            }, //杀死秃鹫
            {
              "$type": "SetGlobalValue",
              "key": "_EREMITE_SLAVE_DIE_",
              "minValue": 0,
              "maxValue": 1,
              "useLimitRange": true,
              "value": 0
            }
          ]
        },
        "Slave_ReturnToBorn": {
          "duration": 1,
          "onAdded": [
            {
              "$type": "AddGlobalValue",
              "key": "_EREMITE_SLAVE_RETURNTOBORN_",
              "value": 1,
              "maxValue": 1,
              "minValue": 0,
              "useLimitRange": true
            }
          ]
        }
      },
      "onAbilityStart": [
        {
          "$type": "ApplyModifier",
          "modifierName": "Slave_ReturnToBorn",
          "otherTargets": {
            "$type": "SelectTargetsByChildren",
            "configID": 25110401,
            "sortType": "Default"
          }
        }, //将给秃鹫的GV设置为返回重生
        {
          "$type": "KillSelf",
          "otherTargets": {
            "$type": "SelectTargetsByChildren",
            "configID": 25110401,
            "sortType": "Default"
          }
        } //杀死秃鹫
      ]
    }
  },

  ////////////////////////////////////////////////////////////////
  //
  //  闪现突进  闪现回旋镖
  //	Blink Attack
  //
  ////////////////////////////////////////////////////////////////

  //找到传送位置,线性位置  -  靠近目标
  {
    "Default": {
      "$type": "ConfigAbility",
      "abilityName": "Monster_Eremite_Female_Standard_Dancer_FindBlinkPoint",
      "onAbilityStart": [
        {
          "$type": "ApplyModifier",
          "modifierName": "Monster_Eremite_Female_Standard_Dancer_FindBlinkPoint"
        }
      ],
      "modifiers": {
        "Monster_Eremite_Female_Standard_Dancer_FindBlinkPoint": {
          "duration": 1,
          "onAdded": [
            //找到一个传送位置
            {
              "$type": "TryFindBlinkPointByBorn",
              "target": "SelfAttackTarget",
              "hitSceneTest": true,
              "hitSceneType": "BlinkHitSceneTestByThreeSegments",
              "limitY": 2.5,
              "born": {
                "$type": "ConfigBornByTargetLinearPoint",
                "linearOffset": -2.0,
                "baseOnTarget": true,
                "linearXZ": true,
                "linearMax": 25,
                "offset": {
                  "x": 0.0,
                  "y": 0.0,
                  "z": 0.0
                },
                "onGround": true
              },
              "ignoreWater": true
            },
            // 优先以玩家连线后撤，如果找点失败则随机找点
            {
              "$type": "Predicated",
              "target": "Self",
              "targetPredicates": [
                {
                  "$type": "ByFindBlinkPointSuccess",
                  "findPointSuccess": false
                }
              ],
              "successActions": [
                {
                  "$type": "TryFindBlinkPointByBorn",
                  "hitSceneTest": true,
                  "hitSceneType": "BlinkHitSceneTestByThreeSegments",
                  "target": "Self",
                  "born": {
                    "$type": "ConfigBornByTarget",
                    "bornRandom": {
                      "$type": "BornRandomFromCenter",
                      "minRandomRange": 1,
                      "maxRandomRange": 2
                    },
                    "onGround": true
                  },
                  "ignoreWater": true
                }
              ]
            }
          ]
        }
      }
    }
  },
  //找到传送位置,线性位置  -  远离目标
  {
    "Default": {
      "$type": "ConfigAbility",
      "abilityName": "Monster_Eremite_Female_Standard_Dancer_FindBlinkPoint_Away",
      "onAbilityStart": [
        {
          "$type": "ApplyModifier",
          "modifierName": "Monster_Eremite_Female_Standard_Dancer_FindBlinkPoint_Away"
        }
      ],
      "abilityMixins": [],
      "modifiers": {
        "Monster_Eremite_Female_Standard_Dancer_FindBlinkPoint_Away": {
          "duration": 1,
          "onAdded": [
            //找到一个传送位置
            {
              "$type": "TryFindBlinkPointByBorn",
              "target": "SelfAttackTarget",
              "hitSceneTest": true,
              "hitSceneType": "BlinkHitSceneTestByThreeSegments",
              "limitY": 2.5,
              "born": {
                "$type": "ConfigBornByTargetLinearPoint",
                "linearOffset": -10,
                "bornRandom": {
                  "$type": "BornRandomFromCenter",
                  "maxRandomRange": 0,
                  "minRandomRange": -3
                },
                "baseOnTarget": true,
                "linearXZ": true,
                "offset": {
                  "x": 0.0,
                  "y": 0.0,
                  "z": 0.0
                },
                "onGround": true
              },
              "ignoreWater": true
            },
            // 优先以玩家连线后撤，如果找点失败则随机找点
            {
              "$type": "Predicated",
              "target": "Self",
              "targetPredicates": [
                {
                  "$type": "ByFindBlinkPointSuccess",
                  "findPointSuccess": false
                }
              ],
              "successActions": [
                {
                  "$type": "TryFindBlinkPointByBorn",
                  "hitSceneTest": true,
                  "hitSceneType": "BlinkHitSceneTestByThreeSegments",
                  "target": "Self",
                  "born": {
                    "$type": "ConfigBornByTarget",
                    "bornRandom": {
                      "$type": "BornRandomFromCenter",
                      "minRandomRange": 10,
                      "maxRandomRange": 12
                    },
                    "onGround": true
                  },
                  "ignoreWater": true
                }
              ]
            }
          ]
        }
      }
    }
  },
  //隐藏自身
  {
    "Default": {
      "$type": "ConfigAbility",
      "abilityName": "Monster_Eremite_Female_Standard_Dancer_Invisable",
      "abilityMixins": [
        //保底，移除隐藏状态
        {
          "$type": "AttachToStateIDMixin",
          "stateIDs": ["Blink", "Improve_Blink"],
          "modifierName": "Monster_Eremite_Female_Standard_Dancer_Visable"
        }
        // {
        // 	"$type": "AttachToNormalizedTimeMixin",
        // 	"stateID": "Blink",
        // 	"normalizeStart": 0.625,
        // 	"normalizeEnd": 0.72,
        // 	"modifierName": "Monster_Eremite_Female_Standard_Dancer_Blink_Dither",
        // },
        // {
        // 	"$type": "AttachToNormalizedTimeMixin",
        // 	"stateID": "Improve_Blink",
        // 	"normalizeStart": 0.625,
        // 	"normalizeEnd": 0.72,
        // 	"modifierName": "Monster_Eremite_Female_Standard_Dancer_Blink_Dither",
        // },
      ],
      "onAbilityStart": [
        //隐藏自身
        {
          "$type": "ApplyModifier",
          "modifierName": "UNIQUE_Monster_Eremite_Female_Standard_Dancer_Invisable"
        },
        //清除锁定
        {
          "$type": "ClearLockTarget",
          "target": "CurLocalAvatar"
        }
      ],
      "modifiers": {
        "Monster_Eremite_Female_Standard_Dancer_Visable": {
          "onRemoved": [
            {
              "$type": "RemoveUniqueModifier",
              "modifierName": "UNIQUE_Monster_Eremite_Female_Standard_Dancer_Invisable"
            }
          ]
        },
        "Monster_Eremite_Female_Standard_Dancer_Blink_Dither": {
          "onAdded": [
            {
              "$type": "StartDither",
              "duration": 0.25
            }
          ]
        },
        "UNIQUE_Monster_Eremite_Female_Standard_Dancer_Invisable": {
          "isUnique": true,
          "onAdded": [
            {
              "$type": "AttachModifier",
              "modifierName": "Blink_Invincible",
              "target": "Self"
            },
            {
              "$type": "AttachModifier",
              "modifierName": "Blink_DenyLockOn",
              "target": "Self"
            },
            {
              "$type": "HideUIBillBoard",
              "hide": true,
              "target": "Self"
            },
            {
              "$type": "EnableHitBoxByName",
              "hitBoxNames": ["HitBox", "HeadBox"],
              "setEnable": false
            },
            {
              "$type": "EnablePushColliderName",
              "pushColliderNames": ["PushCollider"],
              "setEnable": false
            },
            {
              "$type": "TriggerSetVisible",
              "visible": false,
              "target": "Self"
            },
            {
              "$type": "StartDither",
              "duration": 0.25
            }
          ],
          "onRemoved": [
            {
              "$type": "EnableHitBoxByName",
              "hitBoxNames": ["HitBox", "HeadBox"],
              "setEnable": true
            },
            {
              "$type": "EnablePushColliderName",
              "pushColliderNames": ["PushCollider"],
              "setEnable": true
            },
            {
              "$type": "TriggerSetVisible",
              "visible": true,
              "target": "Self"
            },
            {
              "$type": "HideUIBillBoard",
              "hide": false,
              "target": "Self"
            }
            //隐藏特效
            // {
            // 	"$type": "FireEffect",
            // 	"effectPattern": "Eff_Monster_Eremite_Female_Standard_Dancer_Grass_Blink_AS",
            // },
          ]
        },
        "Blink_Invincible": {
          "state": "Invincible"
        },
        "Blink_DenyLockOn": {
          "state": "DenyLockOn"
        }
      }
    }
  },
  //传送
  {
    "Default": {
      "$type": "ConfigAbility",
      "abilityName": "Monster_Eremite_Female_Standard_Dancer_DoBlink",
      "onAbilityStart": [
        {
          "$type": "DoBlink"
        },
        {
          "$type": "FireEffect",
          "effectPattern": "Eff_Monster_Eremite_Female_Standard_Dancer_Grass_Blink_AS",
          "born": {
            "$type": "ConfigBornByTeleportToPoint"
          }
        },
        {
          "$type": "TurnDirectionToPos",
          "target": "SelfAttackTarget",
          "toPos": {
            "$type": "ConfigBornByTarget"
          }
        }
      ]
    }
  },
  //显示自身
  {
    "Default": {
      "$type": "ConfigAbility",
      "abilityName": "Monster_Eremite_Female_Standard_Dancer_Visable",
      "onAbilityStart": [
        //退出隐身
        {
          "$type": "RemoveUniqueModifier",
          "modifierName": "UNIQUE_Monster_Eremite_Female_Standard_Dancer_Invisable"
        }
      ]
    }
  },

  ////////////////////////////////////////////////////////////////
  //
  // 武器隐藏与显示 特效显示与隐藏
  // WeaponHide UnHide Effect Hide
  //
  ////////////////////////////////////////////////////////////////

  //隐藏自身武器
  {
    "Default": {
      "$type": "ConfigAbility",
      "abilityName": "Monster_Eremite_Female_Standard_Dancer_WeaponHide",
      "abilityMixins": [
        {
          "$type": "AttachModifierToSelfGlobalValueMixin",
          "globalValueKey": "_MONSTER_EREMITE_DANCER_WEAPONHIDE",
          "defaultGlobalValueOnCreate": 0,
          "valueSteps": [-0.5, 0.5, 1.5],
          "removeAppliedModifier": true,
          "modifierNameSteps": ["WeaponUnHide", "WeaponHide"]
        }, //强化状态判定
        {
          "$type": "AttachToStateIDMixin",
          "stateIDs": ["MeleeAttack01", "RangeAttack01"],
          "modifierName": "Monster_Eremite_Female_Standard_Dancer_WeaponHide"
        }
      ],
      "onAdded": [
        {
          "$type": "SetGlobalValue",
          "value": 0,
          "key": "_MONSTER_EREMITE_DANCER_WEAPONHIDE"
        }
      ],
      "onAbilityStart": [
        {
          "$type": "SetGlobalValue",
          "value": 1,
          "key": "_MONSTER_EREMITE_DANCER_WEAPONHIDE"
        }
      ],
      "modifiers": {
        "Monster_Eremite_Female_Standard_Dancer_WeaponHide": {
          "onRemoved": [
            {
              "$type": "SetGlobalValue",
              "value": 0,
              "key": "_MONSTER_EREMITE_DANCER_WEAPONHIDE",
              "canBeHandledOnRecover": true
            }
          ]
        },
        "WeaponHide": {
          "onAdded": [
            {
              "$type": "TriggerSetRenderersEnable",
              "renderNames": ["MonEquip_Eremite_Dancer_01_Model"],
              "setEnable": false
            }
          ]
        },
        "WeaponUnHide": {
          "onAdded": [
            {
              "$type": "TriggerSetRenderersEnable",
              "renderNames": ["MonEquip_Eremite_Dancer_01_Model"],
              "setEnable": true
            }
          ]
        }
      }
    }
  },
  //显示自身武器部件
  {
    "Default": {
      "$type": "ConfigAbility",
      "abilityName": "Monster_Eremite_Female_Standard_Dancer_WeaponUnHide",
      "onAbilityStart": [
        {
          "$type": "SetGlobalValue",
          "value": 0,
          "key": "_MONSTER_EREMITE_DANCER_WEAPONHIDE"
        }
      ]
    }
  },

  ////////////////////////////////////////////////////////////////
  //
  //  武器特效的显示与隐藏
  //	Effect Handle
  //
  ////////////////////////////////////////////////////////////////

  {
    "Default": {
      "$type": "ConfigAbility",
      "abilityName": "Monster_Eremite_Female_Standard_Dancer_WeaponEffect_Open",
      "abilityMixins": [
        {
          "$type": "AttachModifierToSelfGlobalValueMixin",
          "globalValueKey": "_EREMITE_DANCER_OPEN_WEAPONEFFECT_",
          "valueSteps": [-0.5, 0.5, 1.5],
          "removeAppliedModifier": true,
          "modifierNameSteps": ["Closed_WeaponEffect", "Open_WeaponEffect"]
        }
      ],
      "onAdded": [
        {
          "$type": "SetGlobalValue",
          "key": "_EREMITE_DANCER_OPEN_WEAPONEFFECT_",
          "value": 0,
          "maxValue": 1,
          "minValue": 0,
          "useLimitRange": true
        }
      ],
      "onAbilityStart": [
        {
          "$type": "AttachModifier",
          "modifierName": "UNIQUE_Eremite_Dancer_WeaponEffect"
        }
      ],
      "modifiers": {
        "Closed_WeaponEffect": {
          "onAdded": [
            {
              "$type": "SendEffectTrigger",
              "effectPattern": "Eff_Monster_Eremite_Female_Standard_Dancer_Grass_Weapon",
              "type": "Bool",
              "parameter": "ON",
              "value": 0
            }
          ]
        },
        "Open_WeaponEffect": {
          "onAdded": [
            {
              "$type": "SendEffectTrigger",
              "effectPattern": "Eff_Monster_Eremite_Female_Standard_Dancer_Grass_Weapon",
              "type": "Bool",
              "parameter": "ON",
              "value": 1
            }
          ]
        },
        "UNIQUE_Eremite_Dancer_WeaponEffect": {
          "isUnique": true,
          "stacking": "Unique",
          "onAdded": [
            {
              "$type": "AttachEffect",
              "effectPattern": "Eff_Monster_Eremite_Female_Standard_Dancer_Grass_Weapon"
            },
            {
              "$type": "AddGlobalValue",
              "key": "_EREMITE_DANCER_OPEN_WEAPONEFFECT_",
              "value": 1,
              "maxValue": 1,
              "minValue": 0,
              "useLimitRange": true
            }
          ],
          "onRemoved": [
            {
              "$type": "AddGlobalValue",
              "key": "_EREMITE_DANCER_OPEN_WEAPONEFFECT_",
              "value": -10,
              "maxValue": 1,
              "minValue": 0,
              "useLimitRange": true
            }
          ]
        }
      }
    }
  },
  {
    "Default": {
      "$type": "ConfigAbility",
      "abilityName": "Monster_Eremite_Female_Standard_Dancer_WeaponEffect_Close",
      "abilityMixins": [
        {
          "$type": "AttachToStateIDMixin",
          "stateIDs": [
            "NormalAttack01",
            "NormalAttack01_01",
            "NormalAttack01_02",
            "BlinkAttack01"
          ],
          "modifierName": "Remove_WeaponEffect"
        }
      ],
      "onAbilityStart": [
        {
          "$type": "RemoveUniqueModifier",
          "modifierName": "UNIQUE_Eremite_Dancer_WeaponEffect"
        }
      ],
      "modifiers": {
        "Remove_WeaponEffect": {
          "onRemoved": [
            {
              "$type": "RemoveUniqueModifier",
              "modifierName": "UNIQUE_Eremite_Dancer_WeaponEffect"
            }
          ]
        }
      }
    }
  },
  ////////////////////////////////////////////////////////////////
  //
  //  回旋镖
  //	RangeAttack01
  //
  ////////////////////////////////////////////////////////////////

  //发射回旋镖
  {
    "Default": {
      "$type": "ConfigAbility",
      "abilityName": "Monster_Eremite_Female_Standard_Dancer_RangeAttack01",
      "onAbilityStart": [
        {
          "$type": "TriggerBullet",
          "bulletID": 42560001,
          "lifeByOwnerV2": true,
          "trackTarget": "Self",
          "born": {
            "$type": "ConfigBornBySelf",
            "offset": {
              "x": 0.602,
              "y": 1.431,
              "z": 0
            },
            "direction": {
              "$type": "ConfigDirectionByDefault",
              "angleOffset": {
                "x": 0.0,
                "y": 0.0,
                "z": 0.0
              }
            }
          }
        },
        {
          "$type": "TriggerAbility",
          "abilityName": "Monster_Eremite_Female_Standard_Dancer_WeaponHide"
        }
      ]
    }
  },
  //回旋镖逻辑
  {
    "Default": {
      "$type": "ConfigAbility",
      "abilityName": "Monster_Eremite_Female_Standard_Dancer_BoomerangLogic",
      "onAdded": [
        {
          "$type": "AttachModifier",
          "modifierName": "UNIQUE_Eremite_Female_Standard_Dancer_Boomerang_Effect"
        },
        {
          "$type": "ApplyModifier",
          "modifierName": "Bullet_Move_Handler"
        } //转向配置
      ],
      "onAbilityStart": [
        {
          "$type": "TriggerAttackEvent",
          "targetType": "Enemy",
          "attackEvent": {
            "attackPattern": {
              "$type": "ConfigAttackBox",
              "triggerType": "TriggerAlways",
              "size": {
                "x": 3,
                "y": 1,
                "z": 3
              },
              "born": {
                "$type": "ConfigBornBySelf",
                "offset": {
                  "x": 0.0,
                  "y": 0.0,
                  "z": 0.0
                }
              }
            },
            "attackInfo": {
              "canBeModifiedBy": "OriginOwner",
              "attackProperty": {
                "damagePercentage": 0.5,
                "strikeType": "Pierce",
                "elementType": "Grass",
                "elementDurability": 25,
                "enBreak": 100.0
              },
              "hitPattern": {
                "hitImpulseType": "LV2",
                "hitHaltTime": 0.0,
                "hitHaltTimeScale": 0.05,
                "muteHitText": false
              }
            }
          }
        }
      ],
      "modifiers": {
        "UNIQUE_Eremite_Female_Standard_Dancer_Boomerang_Effect": {
          "isUnique": true,
          "stacking": "Unique",
          "onAdded": [
            {
              "$type": "AttachEffect",
              "effectPattern": "Eff_Monster_Eremite_Female_Standard_Dancer_Grass_Boomerang_Bullet"
            }
          ]
        },
        "Bullet_Move_Handler": {
          "duration": 0.5,
          "stacking": "Unique",
          "onRemoved": [
            {
              "$type": "ApplyModifier",
              "modifierName": "Bullet_Move_Angle_Handler_Pt1"
            }
          ]
        },
        "Bullet_Move_Angle_Handler_Pt1": {
          "duration": 0.85,
          "stacking": "Unique",
          "properties": {
            "Actor_BulletMoveAngularVelocityRatio": 1800
          }
        }
      },
      "onKill": [
        {
          "$type": "RemoveUniqueModifier",
          "modifierName": "UNIQUE_Eremite_Female_Standard_Dancer_Boomerang_Effect"
        }
      ]
    }
  },
  //销毁回旋镖
  {
    "Default": {
      "$type": "ConfigAbility",
      "abilityName": "Monster_Eremite_Female_Standard_Dancer_BoomerangLogic_Killed",
      "onAbilityStart": [
        {
          "$type": "KillGadget",
          "gadgetInfo": {
            "$type": "SelectTargetsByChildren",
            "configID": 42560001,
            "sortType": "Default"
          }
        },
        {
          "$type": "TriggerAbility",
          "abilityName": "Monster_Eremite_Female_Standard_Dancer_WeaponUnHide"
        }
      ]
    }
  },

  ////////////////////////////////////////////////////////////////
  //
  //  轮舞
  //	MeleeAttack01
  //
  ////////////////////////////////////////////////////////////////

  //创建环绕战轮
  {
    "Default": {
      "$type": "ConfigAbility",
      "abilityName": "Monster_Eremite_Female_Standard_Dancer_TriggerWheelSurround",
      "abilityMixins": [],
      "onAbilityStart": [
        {
          "$type": "ApplyModifier",
          "modifierName": "Monster_Eremite_Female_Standard_Dancer_WheelSurround_Trigger"
        },
        {
          "$type": "TriggerAbility",
          "abilityName": "Monster_Eremite_Female_Standard_Dancer_WeaponHide"
        }
      ],
      "modifiers": {
        "Monster_Eremite_Female_Standard_Dancer_WheelSurround_Trigger": {
          "duration": 1,
          "onAdded": [
            {
              "$type": "TriggerBullet",
              "bulletID": 42560002,
              "trackTarget": "Self",
              "born": {
                "$type": "ConfigBornByTarget",
                "offset": {
                  "x": 2.5,
                  "y": 1,
                  "z": 0
                },
                "direction": {
                  "$type": "ConfigDirectionByLookAtEntity",
                  "angleOffset": {
                    "x": 0.0,
                    "y": 90.0,
                    "z": 0.0
                  }
                }
              }
            },
            {
              "$type": "TriggerBullet",
              "bulletID": 42560002,
              "trackTarget": "Self",
              "born": {
                "$type": "ConfigBornByTarget",
                "offset": {
                  "x": -2.5,
                  "y": 1,
                  "z": 0
                },
                "direction": {
                  "$type": "ConfigDirectionByLookAtEntity",
                  "angleOffset": {
                    "x": 0.0,
                    "y": 90.0,
                    "z": 0.0
                  }
                }
              }
            }
          ]
        }
      }
    }
  },
  //环绕战轮逻辑
  {
    "Default": {
      "$type": "ConfigAbility",
      "abilityName": "Monster_Eremite_Female_Standard_Dancer_WheelSurround",
      "onAdded": [
        {
          "$type": "AttachModifier",
          "modifierName": "UNIQUE_Monster_Eremite_Female_Standard_Dancer_WheelSurround"
        }
      ],
      "onAbilityStart": [
        {
          "$type": "TriggerAttackEvent",
          "targetType": "Enemy",
          "attackEvent": {
            "attackPattern": {
              "$type": "ConfigAttackBox",
              "triggerType": "TriggerAlways",
              "size": {
                "x": 3,
                "y": 1,
                "z": 3
              },
              "born": {
                "$type": "ConfigBornBySelf",
                "offset": {
                  "x": 0.0,
                  "y": 0.0,
                  "z": 0.0
                }
              }
            },
            "attackInfo": {
              "canBeModifiedBy": "OriginOwner",
              "attackProperty": {
                "damagePercentage": 0.35,
                "strikeType": "Default",
                "attackType": "Range",
                "elementType": "Grass",
                "elementDurability": 25,
                "enBreak": 100.0
              },
              "hitPattern": {
                "hitImpulseType": "LV2",
                "hitHaltTime": 0.0,
                "hitHaltTimeScale": 0.05,
                "muteHitText": false
              }
            }
          }
        }
      ],
      "modifiers": {
        "UNIQUE_Monster_Eremite_Female_Standard_Dancer_WheelSurround": {
          "isUnique": true,
          "stacking": "Unique",
          "onAdded": [
            {
              "$type": "AttachEffect",
              "effectPattern": "Eff_Monster_Eremite_Female_Standard_Dancer_Grass_WheelSurround_Bullet"
            }
          ],
          "onRemoved": [
            {
              "$type": "FireEffect",
              "effectPattern": "Eff_Monster_Eremite_Female_Standard_Dancer_Grass_WheelSurround_Bullet_AS"
            }
          ]
        }
      },
      "onRemoved": [
        {
          "$type": "RemoveUniqueModifier",
          "modifierName": "UNIQUE_Monster_Eremite_Female_Standard_Dancer_WheelSurround"
        }
      ],
      "onKill": [
        {
          "$type": "RemoveUniqueModifier",
          "modifierName": "UNIQUE_Monster_Eremite_Female_Standard_Dancer_WheelSurround"
        }
      ]
    }
  },
  //销毁回旋镖
  {
    "Default": {
      "$type": "ConfigAbility",
      "abilityName": "Monster_Eremite_Female_Standard_Dancer_WheelSurround_Killed",
      "onAbilityStart": [
        {
          "$type": "KillGadget",
          "gadgetInfo": {
            "$type": "SelectTargetsByChildren",
            "configID": 42560002,
            "sortType": "Default"
          }
        },
        {
          "$type": "TriggerAbility",
          "abilityName": "Monster_Eremite_Female_Standard_Dancer_WeaponUnHide"
        }
      ]
    }
  },

  ////////////////////////////////////////////////////////////////
  //
  //  协同技能
  //	ComboAttack01
  //
  ////////////////////////////////////////////////////////////////

  //创建牢笼预警
  {
    "Default": {
      "$type": "ConfigAbility",
      "abilityName": "Monster_Eremite_Female_Standard_Dancer_TrapAlert",
      "onAbilityStart": [
        {
          "$type": "ApplyModifier",
          "modifierName": "Monster_Eremite_Female_Standard_Dancer_Wheel_BS"
        }
      ],
      "modifiers": {
        "Monster_Eremite_Female_Standard_Dancer_Wheel_BS": {
          "duration": 0.5,
          "onAdded": [
            //找到玩家当前位置
            {
              "$type": "SetGlobalPos",
              "target": "SelfAttackTarget",
              "setTarget": false,
              "key": "_EREMITE_DANCER_TRAP_POS_"
            },
            {
              "$type": "FireEffect",
              "effectPattern": "Eff_Monster_Eremite_Female_Standard_Dancer_Grass_ComboAttack01_Wheel_Fellow",
              "born": {
                "$type": "ConfigBornByGlobalValue",
                "positionKey": "_EREMITE_DANCER_TRAP_POS_"
              }
            }
          ],
          "onRemoved": [
            {
              "$type": "ApplyModifier",
              "modifierName": "Monster_Eremite_Female_Standard_Dancer_Trap"
            }
          ]
        },
        "Monster_Eremite_Female_Standard_Dancer_Trap": {
          "duration": 1.5,
          "onAdded": [
            {
              "$type": "FireEffect",
              "effectPattern": "Eff_Monster_Eremite_Female_Standard_Dancer_Grass_ComboAttack01_Wheel_Alert",
              "born": {
                "$type": "ConfigBornByGlobalValue",
                "positionKey": "_EREMITE_DANCER_TRAP_POS_",
                "onGround": true
              }
            }
          ],
          "onRemoved": [
            //创建牢笼
            {
              "$type": "CreateGadget",
              "gadgetID": 42560003,
              "lifeByOwnerV2": true,
              "born": {
                "$type": "ConfigBornByGlobalValue",
                "positionKey": "_EREMITE_DANCER_TRAP_POS_",
                "onGround": true
              }
            }
          ]
        }
      }
    }
  },
  //牢笼
  {
    "Default": {
      "$type": "ConfigAbility",
      "abilityName": "Monster_Eremite_Female_Standard_Dancer_Trap",
      "onAdded": [
        {
          "$type": "ApplyModifier",
          "modifierName": "Monster_Eremite_Female_Standard_Dancer_Trap"
        }
      ],
      "modifiers": {
        "Monster_Eremite_Female_Standard_Dancer_Trap": {
          "duration": 0.1,
          "onAdded": [
            {
              "$type": "FireEffect",
              "effectPattern": "Eff_Monster_Eremite_Female_Standard_Dancer_Grass_ComboAttack01_Wheel"
            }, //牢笼特效
            {
              "$type": "EnablePushColliderName",
              "pushColliderNames": ["Collider"],
              "setEnable": false
            }
          ],
          "onRemoved": [
            {
              "$type": "EnablePushColliderName",
              "pushColliderNames": ["Collider"],
              "setEnable": true
            },
            {
              "$type": "ApplyModifier",
              "modifierName": "Monster_Eremite_Female_Standard_Dancer_Trap_End"
            }
          ]
        },
        "Monster_Eremite_Female_Standard_Dancer_Trap_End": {
          "duration": 2,
          "onRemoved": [
            {
              "$type": "FireEffect",
              "effectPattern": "Eff_Monster_Eremite_Female_Standard_Dancer_Grass_ComboAttack01_Wheel_AS"
            }, //牢笼特效
            {
              "$type": "EnablePushColliderName",
              "pushColliderNames": ["Collider"],
              "setEnable": false
            },
            {
              "$type": "KillSelf"
            }
          ]
        }
      }
    }
  }
]
