[
  {
    "Default": {
      "$type": "ConfigAbility",
      "abilityName": "Monster_Chrysopelea_SteerAttack",
      "abilityMixins": [
        // {
        //     "$type": "SteerAttackMixin",
        //     "steerStateIDs": ["NormalIdle"],
        //     "startNormalizedTime": 0.0,
        //     "endNormalizedTime": 99,
        //     "angularSpeed": 60,
        //     "attackTrigger" : "",
        // },
        {
          "$type": "SteerAttackMixin",
          "steerStateIDs": ["Attack_01"],
          "startNormalizedTime": 0.0,
          "endNormalizedTime": 0.55,
          "angularSpeed": 120,
          "attackTrigger": ""
        },
        {
          "$type": "SteerAttackMixin",
          "steerStateIDs": ["Turn"],
          "startNormalizedTime": 0.1,
          "endNormalizedTime": 0.8,
          "angularSpeed": 160,
          "attackTrigger": ""
        },
        {
          "$type": "SteerAttackMixin",
          "steerStateIDs": ["Blink"],
          "startNormalizedTime": 0.0,
          "endNormalizedTime": 0.1,
          "angularSpeed": 3600,
          "attackTrigger": ""
        },
        {
          "$type": "SteerAttackMixin",
          "steerStateIDs": ["Blink"],
          "startNormalizedTime": 0.1,
          "endNormalizedTime": 1.0,
          "angularSpeed": 60,
          "attackTrigger": ""
        }
      ]
    }
  },
  {
    "Default": {
      "$type": "ConfigAbility",
      "abilityName": "Monster_Chrysopelea_Attack01",
      "onAbilityStart": [
        {
          "$type": "TriggerBullet",
          "bulletID": 42404003,
          "target": "SelfAttackTarget",
          "born": {
            "$type": "ConfigBornBySelf",
            "offset": {
              "x": 0,
              "y": 0.932,
              "z": 0.758
            },
            "direction": {
              "$type": "ConfigDirectionByAttackTarget"
            }
          },
          "trackTarget": "SelfAttackTarget"
        }
      ]
    }
  },
  {
    "Default": {
      "$type": "ConfigAbility",
      "abilityName": "Monster_Chrysopelea_Attack01_Bullet",
      "onAdded": [
        {
          "$type": "AttachEffect",
          "effectPattern": "Eff_Monster_Chysopelea_None_Attack01_Bullet" //临时，小雪球飞行特效
        }
      ],
      "onAbilityStart": [
        {
          "$type": "TriggerAttackEvent",
          "targetType": "Enemy",
          "attackEvent": {
            "attackPattern": {
              "$type": "ConfigAttackSphere",
              "triggerType": "TriggerNoRepeat",
              "radius": 0.5,
              "born": {
                "$type": "ConfigBornByCollisionPoint"
              }
            },
            "attackInfo": {
              "canBeModifiedBy": "OriginOwner",
              "attackProperty": {
                "damagePercentage": 1.0,
                "strikeType": "Blunt",
                "enBreak": 10.0
              },
              "hitPattern": {
                "onHitEffectName": "default",
                "hitImpulseType": "LV2",
                "hitHaltTime": 0.0,
                "hitHaltTimeScale": 0.01,
                "muteHitText": false
              }
            }
          }
        },
        {
          "$type": "KillSelf"
        }
      ]
    }
  },
  ////////////////////////////////////////////////////////////////
  //
  //  HeadControlOff
  //
  ////////////////////////////////////////////////////////////////
  {
    "Default": {
      "$type": "ConfigAbility",
      "abilityName": "Monster_Chrysopelea_HeadControlOff",
      "abilityMixins": [
        {
          "$type": "AttachToAIAlertnessMixin",
          "alertness": [0, 1],
          "modifierName": "HeadControl_Disable"
        }
      ],
      "modifiers": {
        "HeadControl_Disable": {
          "onAdded": [
            {
              "$type": "EnableHeadControl",
              "enable": false
            }
          ],
          "onRemoved": [
            {
              "$type": "EnableHeadControl",
              "enable": true
            }
          ]
        }
      }
    }
  }
]
