[
  //POSE 1 会巡逻，休闲状态
  //POSE 101 正常入战状态 （最强状态，会使用大部分技能，攻击欲望强烈
  //POSE 111 当血量低于x%值后，进入该状态（ 只会进行强化）
  //POSE 201 强化后状态（召唤鳄鱼后，技能AI强度降低）
  //POSE 301 虚弱状态（盾/鳄鱼死亡后进入）
  //POSE 102 虚弱后恢复状态（很弱，只会甩甩普通攻击，GCD很长）
  ////////////////////////////////////////////////////////////////
  //
  //  StreeControl 转身控制
  //
  ////////////////////////////////////////////////////////////////

  {
    "Default": {
      "$type": "ConfigAbility",
      "abilityName": "Monster_Eremite_Male_Strong_Katar_StreeController",
      "abilityMixins": [
        {
          "$type": "SteerAttackMixin",
          "steerStateIDs": ["Turn"],
          "startNormalizedTime": 0,
          "endNormalizedTime": 1,
          "angularSpeed": 50,
          "attackTrigger": "",
          "attackDistance": 2
        },
        {
          "$type": "SteerAttackMixin",
          "steerStateIDs": ["Alert"],
          "startNormalizedTime": 0,
          "endNormalizedTime": 0.6,
          "angularSpeed": 150,
          "attackTrigger": "",
          "attackDistance": 2
        },
        {
          "$type": "SteerAttackMixin",
          "steerStateIDs": ["NormalAtk01"],
          "startNormalizedTime": 0,
          "endNormalizedTime": 0.55,
          "angularSpeed": 90,
          "attackTrigger": "",
          "attackDistance": 2
        },
        {
          "$type": "SteerAttackMixin",
          "steerStateIDs": ["NormalAtk02"],
          "startNormalizedTime": 0,
          "endNormalizedTime": 1,
          "angularSpeed": 250,
          "attackTrigger": "",
          "attackDistance": 2
        },
        {
          "$type": "SteerAttackMixin",
          "steerStateIDs": ["ImproveNormalAtk01"],
          "startNormalizedTime": 0,
          "endNormalizedTime": 1,
          "angularSpeed": 50,
          "attackTrigger": "",
          "attackDistance": 2
        },
        {
          "$type": "SteerAttackMixin",
          "steerStateIDs": ["ImproveNormalAtk01"],
          "startNormalizedTime": 0,
          "endNormalizedTime": 1,
          "angularSpeed": 50,
          "attackTrigger": "",
          "attackDistance": 2
        },
        {
          "$type": "SteerAttackMixin",
          "steerStateIDs": ["NormalAtk03"],
          "startNormalizedTime": 0,
          "endNormalizedTime": 0.4,
          "angularSpeed": 150,
          "attackTrigger": "",
          "attackDistance": 2
        },
        {
          "$type": "SteerAttackMixin",
          "steerStateIDs": ["NormalAtk03_End"],
          "startNormalizedTime": 0,
          "endNormalizedTime": 0.26,
          "angularSpeed": 150,
          "attackTrigger": "",
          "attackDistance": 2
        },
        {
          "$type": "SteerAttackMixin",
          "steerStateIDs": ["DefendBS"],
          "startNormalizedTime": 0,
          "endNormalizedTime": 1,
          "angularSpeed": 150,
          "attackTrigger": "",
          "attackDistance": 2
        },
        {
          "$type": "SteerAttackMixin",
          "steerStateIDs": ["DefendHit"],
          "startNormalizedTime": 0,
          "endNormalizedTime": 99,
          "angularSpeed": 350,
          "attackTrigger": "",
          "attackDistance": 2
        },
        {
          "$type": "SteerAttackMixin",
          "steerStateIDs": ["DefendAS"],
          "startNormalizedTime": 0,
          "endNormalizedTime": 1,
          "angularSpeed": 50,
          "attackTrigger": "",
          "attackDistance": 2
        },
        {
          "$type": "SteerAttackMixin",
          "steerStateIDs": ["DefendBreak"],
          "startNormalizedTime": 0,
          "endNormalizedTime": 1,
          "angularSpeed": 50,
          "attackTrigger": "",
          "attackDistance": 2
        },
        {
          "$type": "SteerAttackMixin",
          "steerStateIDs": ["SlamAttack01"],
          "startNormalizedTime": 0,
          "endNormalizedTime": 0.33,
          "angularSpeed": 150,
          "attackTrigger": "",
          "attackDistance": 2
        },
        {
          "$type": "SteerAttackMixin",
          "steerStateIDs": ["MeleeAttack01_BS"],
          "startNormalizedTime": 0,
          "endNormalizedTime": 0.87,
          "angularSpeed": 150,
          "attackTrigger": "",
          "attackDistance": 2
        }
      ]
    }
  },
  ////////////////////////////////////////////////////////////////
  //
  //  StateControl 状态控制
  //
  ////////////////////////////////////////////////////////////////

  {
    "Default": {
      "$type": "ConfigAbility",
      "abilityName": "Monster_Eremite_Male_Strong_Katar_FightControl",
      "abilityMixins": [
        {
          "$type": "AttachToPoseIDMixin",
          "poseIDs": [
            1, //free
            2,
            901,
            902,
            903 //reborn
          ],
          "modifierName": "Eremite_OutFightState"
        },
        {
          "$type": "AttachToPoseIDMixin",
          "poseIDs": [
            101, //FightNormal
            102, //FightNormal_OutImproved
            111, //ForceImprove
            201, //FightImproved
            301 //FightWeak
          ],
          "modifierName": "Eremite_InFightState"
        }
      ],
      "onAdded": [
        //强化状态
        {
          "$type": "SetGlobalValue",
          "key": "_MONSTER_EREMITE_IMPROVED_",
          "minValue": 0,
          "maxValue": 1,
          "useLimitRange": true,
          "value": 0
        },
        //重置虚弱次数为0
        {
          "$type": "SetGlobalValue",
          "key": "_EREMITE_WEAK_TIMES_",
          "minValue": 0,
          "maxValue": 100,
          "useLimitRange": true,
          "value": 0
        },
        //判定是否是从Weak出来后的普通状态
        {
          "$type": "SetGlobalValue",
          "key": "_MONSTER_EREMITE_OUTIMPROVED",
          "minValue": 0,
          "maxValue": 1,
          "useLimitRange": true,
          "value": 0
        },
        //强化次数
        {
          "$type": "SetGlobalValue",
          "key": "_MONSTER_EREMITE_IMPROVED_COUNT_",
          "minValue": 0,
          "maxValue": 99,
          "useLimitRange": true,
          "value": 0
        },
        //是否入战
        {
          "$type": "SetGlobalValue",
          "key": "_MONSTER_EREMITE_ISINFIGHT_",
          "minValue": 0,
          "maxValue": 1,
          "useLimitRange": true,
          "value": 0
        },
        //虚弱状态
        {
          "$type": "SetGlobalValue",
          "key": "_MONSTER_EREMITE_WEAK_",
          "minValue": 0,
          "maxValue": 1,
          "useLimitRange": true,
          "value": 0
        },
        //是否处于重生状态
        {
          "$type": "SetGlobalValue",
          "key": "_MONSTER_EREMITE_RETURNTOBORN_",
          "value": 0,
          "useLimitRange": true,
          "maxValue": 1,
          "minValue": 0
        }
      ],
      "modifiers": {
        "Eremite_OutFightState": {
          "onAdded": [
            {
              "$type": "AddGlobalValue",
              "key": "_MONSTER_EREMITE_ISINFIGHT_",
              "value": -10,
              "useLimitRange": true,
              "maxValue": 1,
              "minValue": 0
            }, // out fight
            {
              "$type": "RemoveModifier",
              "modifierName": "Eremite_InFightState"
            } //remove in fight
          ]
        },
        "Eremite_InFightState": {
          "onAdded": [
            {
              "$type": "AddGlobalValue",
              "key": "_MONSTER_EREMITE_ISINFIGHT_",
              "value": 10,
              "useLimitRange": true,
              "maxValue": 1,
              "minValue": 0
            }, // in fight
            {
              "$type": "RemoveModifier",
              "modifierName": "Eremite_OutFightState"
            } //remove out fight
          ]
        }
      }
    }
  },

  ////////////////////////////////////////////////////////////////
  //
  //  Improve and Summon  转阶段与召唤鳄鱼
  //
  ////////////////////////////////////////////////////////////////

  //improve logic
  {
    "Default": {
      "$type": "ConfigAbility",
      "abilityName": "Monster_Eremite_Male_Strong_Katar_Improve",
      "abilityMixins": [
        {
          "$type": "AttachModifierToSelfGlobalValueMixin",
          "globalValueKey": "_MONSTER_EREMITE_IMPROVED_",
          "defaultGlobalValueOnCreate": 0,
          "valueSteps": [-0.5, 0.5, 1.5],
          "removeAppliedModifier": true,
          "modifierNameSteps": ["Eremite_NormalState", "Eremite_ImproveState"]
        }, //强化状态判定
        {
          "$type": "AttachModifierToSelfGlobalValueMixin",
          "globalValueKey": "_MONSTER_EREMITE_WEAK_",
          "defaultGlobalValueOnCreate": 0,
          "valueSteps": [-0.5, 0.5, 1.5],
          "removeAppliedModifier": true,
          "modifierNameSteps": ["Eremite_IsNotWeak", "Eremite_IsWeak"]
        }, //虚弱状态判定
        {
          "$type": "AttachModifierToSelfGlobalValueMixin",
          "globalValueKey": "_EREMITE_SLAVE_DIE_",
          "defaultGlobalValueOnCreate": 0,
          "valueSteps": [-0.5, 0.5, 1.5],
          "removeAppliedModifier": true,
          "modifierNameSteps": ["Empty", "Eremite_RemoveImprove"]
        }, //鳄鱼死亡
        {
          "$type": "AttachModifierToSelfGlobalValueMixin",
          "globalValueKey": "_MONSTER_EREMITE_OUTIMPROVED",
          "defaultGlobalValueOnCreate": 0,
          "valueSteps": [-0.5, 0.5, 1.5],
          "removeAppliedModifier": true,
          "modifierNameSteps": [
            "Eremite_ISNotOutImproved",
            "Eremite_IsOutImproved"
          ]
        }, //从强化状态退出后的普通状态判定
        {
          "$type": "AttachModifierToHPPercentMixin",
          "valueSteps": [0.7],
          "modifierNameSteps": ["Empty", "UNIQUE_Eremite_Force_ImproveState"]
        }, //强制进行强化
        {
          "$type": "AttachToStateIDMixin",
          "stateIDs": ["Improve"],
          "modifierName": "Improve_AddEndure"
        }, //转阶段霸体
        {
          "$type": "AttachToPoseIDMixin",
          "poseIDs": [111, 201, 301],
          "modifierName": "Improve_AddEndure"
        }, //强化阶段霸体
        {
          "$type": "DoActionByStateIDMixin",
          "stateIDs": ["Die", "Die_RagDoll"],
          "enterActions": [
            {
              "$type": "RemoveModifier",
              "modifierName": "Eremite_Improve_Effect"
            }
          ]
        }, //死亡移除强化特效
        {
          "$type": "AttachToPoseIDMixin",
          "poseIDs": [102],
          "modifierName": "WeakEnd_AddEndureHandle"
        } //退出强化后的霸体跟体重状态
      ],
      "onAdded": [],
      "modifiers": {
        "Improve_AddEndure": {
          "properties": {
            "Actor_EndureDelta": 0.0,
            "Entity_WeightRatio": 5.0
          }
        },
        "Empty": {},
        "Eremite_RemoveImprove": {
          "onAdded": [
            {
              "$type": "RemoveUniqueModifier",
              "modifierName": "UNIQUE_Eremite_ImproveState_Properties"
            }
          ]
        },
        "UNIQUE_Eremite_Force_ImproveState": {
          "stacking": "Unique",
          "isUnique": true,
          "onAdded": [
            {
              "$type": "SetPoseBool",
              "boolID": "ForceImprove",
              "value": true,
              "canBeHandledOnRecover": true,
              "predicates": [
                {
                  "$type": "ByTargetGlobalValue",
                  "target": "Self",
                  "key": "_MONSTER_EREMITE_IMPROVED_COUNT_",
                  "value": 0,
                  "compareType": "NoneOrEqual"
                }
              ]
            },
            {
              "$type": "SetAISkillCDAvailableNow",
              "skillIDs": [401]
            } //重置cd
          ],
          "onRemoved": [
            {
              "$type": "SetPoseBool",
              "boolID": "ForceImprove",
              "value": false
            }
          ]
        },
        "Eremite_NormalState": {
          "onAdded": [
            {
              "$type": "SetPoseBool",
              "boolID": "ImproveState",
              "value": false,
              "canBeHandledOnRecover": true
            },
            {
              "$type": "RemoveModifier",
              "modifierName": "Eremite_ImproveState"
            }
          ]
        },
        "Eremite_ImproveState": {
          "onAdded": [
            {
              "$type": "SetPoseBool",
              "boolID": "ImproveState",
              "value": true,
              "canBeHandledOnRecover": true
            },
            {
              "$type": "RemoveModifier",
              "modifierName": "Eremite_NormalState"
            }
          ]
        },
        "Eremite_IsNotWeak": {
          "onAdded": [
            {
              "$type": "SetPoseBool",
              "boolID": "WeakState",
              "value": false,
              "canBeHandledOnRecover": true
            },
            {
              "$type": "RemoveModifier",
              "modifierName": "Eremite_IsWeak"
            }
          ]
        },
        "Eremite_IsWeak": {
          "onAdded": [
            {
              "$type": "SetPoseBool",
              "boolID": "WeakState",
              "value": true,
              "canBeHandledOnRecover": true
            },
            {
              "$type": "RemoveModifier",
              "modifierName": "Eremite_IsNotWeak"
            }
          ]
        },
        "Eremite_IsOutImproved": {
          "onAdded": [
            {
              "$type": "SetPoseBool",
              "boolID": "OutImproved",
              "value": true,
              "canBeHandledOnRecover": true
            },
            {
              "$type": "RemoveModifier",
              "modifierName": "Eremite_ISNotOutImproved"
            }
          ]
        },
        "Eremite_ISNotOutImproved": {
          "onAdded": [
            {
              "$type": "SetPoseBool",
              "boolID": "OutImproved",
              "value": false,
              "canBeHandledOnRecover": true
            },
            {
              "$type": "RemoveModifier",
              "modifierName": "Eremite_IsOutImproved"
            }
          ]
        },
        "Eremite_Improve_Effect": {
          "onAdded": [
            {
              "$type": "AttachEffect",
              "effectPattern": "Eff_Monster_Eremite_Male_Strong_Katar_Rock_Improve_Loop_01"
            }
          ]
        },
        "UNIQUE_Eremite_ImproveState_Properties": {
          "isUnique": true,
          "stacking": "Unique",
          "properties": {
            //体重增加
            "Entity_WeightRatio": 5.0,
            //全抗+0.5
            "Actor_PhysicalSubHurtDelta": 0.5,
            "Actor_FireSubHurtDelta": 0.5,
            "Actor_ElecSubHurtDelta": 0.5,
            "Actor_WaterSubHurtDelta": 0.5,
            "Actor_GrassSubHurtDelta": 0.5,
            "Actor_WindSubHurtDelta": 0.5,
            "Actor_IceSubHurtDelta": 0.5,
            "Actor_RockSubHurtDelta": 0.5
          },
          "onAdded": [
            // 进入强化状态
            {
              "$type": "AddGlobalValue",
              "key": "_MONSTER_EREMITE_IMPROVED_",
              "value": 10,
              "useLimitRange": true,
              "maxValue": 1,
              "minValue": 0,
              "canBeHandledOnRecover": true
            },
            //强化次数+1
            {
              "$type": "AddGlobalValue",
              "key": "_MONSTER_EREMITE_RECOVER_",
              "value": -10,
              "useLimitRange": true,
              "maxValue": 1,
              "minValue": 0,
              "canBeHandledOnRecover": true
            },
            //重置恢复状态为0
            {
              "$type": "AddGlobalValue",
              "key": "_MONSTER_EREMITE_IMPROVED_COUNT_",
              "minValue": 0,
              "maxValue": 99,
              "useLimitRange": true,
              "value": 1
            },
            {
              "$type": "AttachModifier",
              "modifierName": "Eremite_Improve_Effect"
            },
            {
              "$type": "SetAISkillGCD",
              "value": 6
            }
          ],
          "onRemoved": [
            {
              "$type": "AddGlobalValue",
              "key": "_EREMITE_WEAK_TIMES_",
              "value": 1,
              "maxValue": 100,
              "minValue": 0,
              "useLimitRange": true,
              "canBeHandledOnRecover": true
            },
            {
              "$type": "SetAnimatorTrigger",
              "triggerID": "Weak",
              "doOffStage": true,
              "predicates": [
                {
                  "$type": "ByTargetGlobalValue",
                  "key": "_MONSTER_EREMITE_RETURNTOBORN_",
                  "value": 0,
                  "target": "Self",
                  "compareType": "Equal"
                }
              ]
            },
            //判定是否是从Weak出来后的普通状态
            {
              "$type": "KillSelf",
              "otherTargets": {
                "$type": "SelectTargetsByChildren",
                "configID": 25110101,
                "sortType": "Default"
              }
            },
            {
              "$type": "ApplyModifier",
              "modifierName": "Eremite_Out_Imporve"
            },
            {
              "$type": "RemoveModifier",
              "modifierName": "Eremite_Improve_Effect"
            },
            {
              "$type": "RemoveUniqueModifier",
              "modifierName": "UNIQUE_Eremite_Force_ImproveState"
            } //移除强制进入强化状态的状态
          ]
        },
        "WeakEnd_AddEndureHandle": {
          "properties": {
            "Actor_EndureDelta": 5
          }
        },
        "Eremite_Out_Imporve": {
          "duration": 1,
          "onAdded": [
            {
              "$type": "SetGlobalValue",
              "key": "_MONSTER_EREMITE_OUTIMPROVED",
              "minValue": 0,
              "maxValue": 1,
              "useLimitRange": true,
              "value": 1
            },
            {
              "$type": "AddGlobalValue",
              "key": "_MONSTER_EREMITE_IMPROVED_",
              "value": -10,
              "useLimitRange": true,
              "maxValue": 1,
              "minValue": 0,
              "canBeHandledOnRecover": true
            }, // 退出强化状态
            {
              "$type": "AddGlobalValue",
              "key": "_MONSTER_EREMITE_WEAK_",
              "value": 10,
              "useLimitRange": true,
              "maxValue": 1,
              "minValue": 0,
              "canBeHandledOnRecover": true
            } // 进入虚弱状态
          ]
        }
      },
      "onAbilityStart": [
        {
          "$type": "AttachModifier",
          "modifierName": "UNIQUE_Eremite_ImproveState_Properties"
        } //进入强化状态
      ]
    }
  },
  //summon
  {
    "Default": {
      "$type": "ConfigAbility",
      "abilityName": "Monster_Eremite_Male_Strong_Katar_Summon",
      "onAbilityStart": [
        {
          "$type": "SetGlobalValue",
          "key": "_EREMITE_SLAVE_DIE_",
          "value": 0,
          "useLimitRange": true,
          "minValue": 0,
          "maxValue": 1
        },
        {
          "$type": "ApplyModifier",
          "modifierName": "Summon_Eremite_Gator_Rock"
        } //释放镀金鳄鱼
      ],
      "modifiers": {
        "Summon_Eremite_Gator_Rock": {
          "duration": 1,
          "onAdded": [
            {
              "$type": "Summon",
              "aliveByOwner": true,
              "summonTag": 25110101,
              "monsterID": 25110101,
              "sightGroupWithOwner": true,
              "hasDrop": false,
              "hasExp": false,
              "born": {
                "$type": "ConfigBornBySelf"
              }
            }
          ]
        }
      }
    }
  },
  //shader logic
  {
    "Default": {
      "$type": "ConfigAbility",
      "abilityName": "Monster_Eremite_Male_Strong_Katar_ImproveShader",
      "onAbilityStart": [
        {
          "$type": "ApplyModifier",
          "modifierName": "Monster_Eremite_Male_Strong_Katar_Improve_Shader"
        }
      ],
      "modifiers": {
        "Monster_Eremite_Male_Strong_Katar_Improve_Shader": {
          "duration": 1,
          "onAdded": [
            {
              "$type": "SetAnimatorTrigger",
              "triggerID": "Shader_Improve"
            }
          ]
        }
      }
    }
  },

  ////////////////////////////////////////////////////////////////
  //
  //  RockBomb  岩爆冲击波
  //
  ////////////////////////////////////////////////////////////////

  //wave
  {
    "Default": {
      "$type": "ConfigAbility",
      "abilityName": "Monster_Eremite_Male_Strong_Katar_RockBomb",
      "onAbilityStart": [
        {
          "$type": "TriggerBullet",
          "bulletID": 42540001,
          "born": {
            "$type": "ConfigBornBySelf",
            "offset": {
              "x": -1.42,
              "y": 0.5,
              "z": 1.44
            },
            "direction": {
              "$type": "ConfigDirectionByEntity",
              "angleOffset": {
                "x": 0,
                "y": 0,
                "z": 0
              }
            }
          }
        },
        {
          "$type": "TriggerBullet",
          "bulletID": 42540001,
          "born": {
            "$type": "ConfigBornBySelf",
            "offset": {
              "x": 2.28,
              "y": 0.5,
              "z": 0.9
            },
            "direction": {
              "$type": "ConfigDirectionByEntity",
              "angleOffset": {
                "x": 0,
                "y": 0,
                "z": 0
              }
            }
          }
        }
      ]
    }
  },
  //wave Damage
  {
    "Default": {
      "$type": "ConfigAbility",
      "abilityName": "Monster_Eremite_Male_Strong_Katar_RockBomb_Wave",
      "onAdded": [
        {
          "$type": "FireSubEmitterEffect",
          "effectPattern": "Eff_Monster_Eremite_Male_Strong_Katar_Rock_RockBomb_Wave",
          "born": {
            "$type": "ConfigBornBySelf"
          }
        },
        {
          "$type": "TriggerAttackEvent",
          "targetType": "Enemy",
          "attackEvent": {
            "attackPattern": {
              "$type": "ConfigAttackCircle",
              "triggerType": "TriggerOnce",
              "radius": 1.75,
              "height": 1.5,
              "born": {
                "$type": "ConfigBornBySelf"
              }
            },
            "attackInfo": {
              "canBeModifiedBy": "OriginOwner",
              "attenuationTag": "Eremite_Katar_RockBomb_Rock",
              "attenuationGroup": "Eremite_Katar_RockBomb_Rock",
              "attackProperty": {
                "damagePercentage": 0.5,
                "strikeType": "Blunt",
                "enBreak": 100.0,
                "elementDurability": 25,
                "elementType": "Rock"
              },
              "hitPattern": {
                "onHitEffectName": "default",
                "hitImpulseType": "LV5",
                "retreatType": "ByHitDirection",
                "hitHaltTime": 0.0,
                "hitHaltTimeScale": 0.01,
                "muteHitText": false
              }
            }
          }
        },
        {
          "$type": "AttachModifier",
          "modifierName": "Monster_Eremite_Male_Strong_Katar_RockBomb_Wave_Delay"
        }
      ],
      "modifiers": {
        "Monster_Eremite_Male_Strong_Katar_RockBomb_Wave_Delay": {
          "duration": 0.2,
          "onAdded": [
            {
              "$type": "ApplyModifier",
              "modifierName": "Monster_Eremite_Male_Strong_Katar_RockBomb_Wave_Damage"
            }
          ]
        },
        "Monster_Eremite_Male_Strong_Katar_RockBomb_Wave_Damage": {
          "duration": 1,
          "thinkInterval": 0.2,
          "onThinkInterval": [
            {
              "$type": "FireSubEmitterEffect",
              "effectPattern": "Eff_Monster_Eremite_Male_Strong_Katar_Rock_RockBomb_Wave",
              "born": {
                "$type": "ConfigBornBySelf"
              }
            },
            {
              "$type": "TriggerAttackEvent",
              "targetType": "Enemy",
              "attackEvent": {
                "attackPattern": {
                  "$type": "ConfigAttackCircle",
                  "triggerType": "TriggerOnce",
                  "radius": 2,
                  "height": 2,
                  "born": {
                    "$type": "ConfigBornBySelf"
                  }
                },
                "attackInfo": {
                  "canBeModifiedBy": "OriginOwner",
                  "attenuationTag": "Eremite_Katar_RockBomb_Rock",
                  "attenuationGroup": "Eremite_Katar_RockBomb_Rock",
                  "attackProperty": {
                    "damagePercentage": 0.5,
                    "strikeType": "Blunt",
                    "enBreak": 100.0,
                    "elementDurability": 25,
                    "elementType": "Rock"
                  },
                  "hitPattern": {
                    "onHitEffectName": "default",
                    "hitImpulseType": "LV5",
                    "retreatType": "ByHitDirection",
                    "reboundRatio": 0,
                    "hitHaltTime": 0.0,
                    "hitHaltTimeScale": 0.01,
                    "muteHitText": false
                  }
                }
              }
            }
          ]
        }
      }
    }
  },

  ////////////////////////////////////////////////////////////////
  //
  //  SlamAtk01  岩炮
  //
  ////////////////////////////////////////////////////////////////

  {
    "Default": {
      "$type": "ConfigAbility",
      "abilityName": "Monster_Eremite_Male_Strong_Katar_SlamAtk01_MoveControl",
      "abilityMixins": [
        {
          "$type": "AttachToNormalizedTimeMixin",
          "modifierName": "PushCollider_Headle",
          "normalizeEnd": 0.55,
          "normalizeStart": 0.31,
          "stateID": "SlamAttack01"
        }
      ],
      "onAbilityStart": [
        {
          "$type": "ApplyModifier",
          "modifierName": "Monster_Eremite_Male_Strong_Katar_SlamAtk01_MoveControl"
        }
      ],
      "modifiers": {
        "Monster_Eremite_Male_Strong_Katar_SlamAtk01_MoveControl": {
          "duration": 0.5,
          "onAdded": [
            //找到玩家当前位置
            {
              "$type": "SetGlobalPos",
              "target": "SelfAttackTarget",
              "setTarget": false,
              "key": "_EREMITE_KATAR_SLAMATK01_POS_"
            },
            //在玩家当前位置播放预警特效
            {
              "$type": "FireEffect",
              "effectPattern": "Eff_Monster_Eremite_Male_Strong_Katar_Rock_SlamAtk01_Alert",
              "born": {
                "$type": "ConfigBornByGlobalValue",
                "positionKey": "_EREMITE_KATAR_SLAMATK01_POS_",
                "alongGround": true,
                "onGround": true
              }
            },
            {
              "$type": "RushMove",
              "timeRange": 0.32,
              "minRange": 0,
              "maxRange": 20,
              "toPos": {
                "$type": "ConfigBornByGlobalValue",
                "positionKey": "_EREMITE_KATAR_SLAMATK01_POS_"
              }
            }
          ]
        },
        "PushCollider_Headle": {
          "modifierMixins": [
            {
              "$type": "AttachActionToModifierMixin",
              "onAdded": [
                {
                  "$type": "EnablePushColliderName",
                  "pushColliderNames": ["PushCollider"],
                  "setEnable": false
                }
              ],
              "onRemoved": [
                {
                  "$type": "EnablePushColliderName",
                  "pushColliderNames": ["PushCollider"],
                  "setEnable": true
                }
              ]
            }
          ],
          "onAdded": [
            {
              "$type": "EnablePushColliderName",
              "pushColliderNames": ["PushCollider"],
              "setEnable": false
            }
          ],
          "onRemoved": [
            {
              "$type": "EnablePushColliderName",
              "pushColliderNames": ["PushCollider"],
              "setEnable": true
            }
          ],
          "onChangeAuthority": [
            {
              "$type": "EnablePushColliderName",
              "pushColliderNames": ["PushCollider"],
              "setEnable": true
            } //开启碰撞盒
          ],
          "onReconnect": [
            {
              "$type": "EnablePushColliderName",
              "pushColliderNames": ["PushCollider"],
              "setEnable": true
            } //开启碰撞盒
          ]
        }
      }
    }
  },
  {
    "Default": {
      "$type": "ConfigAbility",
      "abilityName": "Monster_Eremite_Male_Strong_Katar_SlamAtk01_Damage",
      "onAbilityStart": [
        {
          "$type": "ApplyModifier",
          "modifierName": "Monster_Eremite_Male_Strong_Katar_SlamAtk01_Damage"
        }
      ],
      "modifiers": {
        "Monster_Eremite_Male_Strong_Katar_SlamAtk01_Damage": {
          "duration": 0.55,
          "onAdded": [
            {
              "$type": "FireEffect",
              "effectPattern": "Eff_Monster_Eremite_Male_Strong_Katar_Rock_SlamAtk01_Damage",
              "born": {
                "$type": "ConfigBornByGlobalValue",
                "positionKey": "_EREMITE_KATAR_SLAMATK01_POS_",
                "alongGround": true,
                "onGround": true
              }
            },
            {
              "$type": "TriggerAttackEvent",
              "targetType": "Enemy",
              "attackEvent": {
                "attackPattern": {
                  "$type": "ConfigAttackCircle",
                  "triggerType": "TriggerNoRepeat",
                  "height": 1.8,
                  "fanAngle": 360,
                  "radius": 4.5,
                  "born": {
                    "$type": "ConfigBornByGlobalValue",
                    "positionKey": "_EREMITE_KATAR_SLAMATK01_POS_",
                    "alongGround": true,
                    "onGround": true
                  }
                },
                "attackInfo": {
                  "attackProperty": {
                    "damagePercentage": 0.8,
                    "strikeType": "Blunt",
                    "enBreak": 100.0,
                    "elementDurability": 25,
                    "elementType": "Rock"
                  },
                  "hitPattern": {
                    "onHitEffectName": "default",
                    "hitImpulseType": "LV5",
                    "retreatType": "ByHitDirection",
                    "hitHaltTime": 0.0,
                    "hitHaltTimeScale": 0.01,
                    "muteHitText": false
                  },
                  "forceCameraShake": true,
                  "cameraShake": {
                    "shakeRange": 0.25,
                    "shakeTime": 1,
                    "shakeDistance": 20,
                    "shakeType": "Center",
                    "shakeDir": {
                      "x": 0,
                      "y": 2,
                      "z": 0
                    },
                    "extension": {
                      "baseOnCamera": true,
                      "rangeAttenuation": 0.0
                    }
                  }
                }
              }
            }
          ]
        }
      }
    }
  },
  ////////////////////////////////////////////////////////////////
  //
  //  Weak 虚弱
  //
  ///////////////////////////
  /////////////////////////////////////

  {
    "Default": {
      "$type": "ConfigAbility",
      "abilityName": "Monster_Eremite_Male_Strong_Katar_Weak",
      "abilityMixins": [
        {
          "$type": "AttachToPoseIDMixin",
          "poseIDs": [301],
          "modifierName": "WeakState"
        },
        {
          "$type": "AttachModifierToSelfGlobalValueMixin",
          "globalValueKey": "_MONSTER_EREMITE_RECOVER_",
          "defaultGlobalValueOnCreate": 0,
          "valueSteps": [-0.5, 0.5, 1.5],
          "removeAppliedModifier": true,
          "modifierNameSteps": ["Empty", "Recover"]
        }
      ],
      "modifiers": {
        "WeakState": {
          "duration": 10,
          "properties": {
            "Actor_EndureDelta": 0,
            "Entity_WeightRatio": 5.0,
            "Actor_RockSubHurtDelta": -0.6 //岩元素抗性降低
          },
          "onAdded": [
            {
              "$type": "AttachEffect",
              "effectPattern": "Eff_Avatar_Properties_Defense_Down"
            },
            {
              "$type": "ApplyModifier",
              "modifierName": "WeakState_Damage",
              "target": "Self",
              "predicates": [
                {
                  "$type": "ByTargetGlobalValue",
                  "target": "Self",
                  "key": "_EREMITE_WEAK_TIMES_",
                  "value": 1,
                  "compareType": "Equal"
                }
              ]
            }, //对自身造成35%当前生命值的伤害
            {
              "$type": "AddGlobalValue",
              "key": "_MONSTER_EREMITE_WEAK_",
              "minValue": 0,
              "maxValue": 1,
              "useLimitRange": true,
              "value": 10,
              "canBeHandledOnRecover": true
            }, //进入虚弱状态
            {
              "$type": "AddGlobalValue",
              "key": "_MONSTER_EREMITE_RECOVER_",
              "value": -10,
              "useLimitRange": true,
              "maxValue": 1,
              "minValue": 0,
              "canBeHandledOnRecover": true
            } //未进入恢复状态
          ],
          "onRemoved": [
            {
              "$type": "AddGlobalValue",
              "key": "_MONSTER_EREMITE_WEAK_",
              "minValue": 0,
              "maxValue": 1,
              "useLimitRange": true,
              "value": -10,
              "canBeHandledOnRecover": true
            }, //退出虚弱状态
            {
              "$type": "AddGlobalValue",
              "key": "_MONSTER_EREMITE_RECOVER_",
              "value": 10,
              "useLimitRange": true,
              "maxValue": 1,
              "minValue": 0,
              "canBeHandledOnRecover": true
            } //进入恢复状态
          ]
        },
        "Empty": {},
        "Recover": {
          "onAdded": [
            {
              "$type": "SetAnimatorTrigger",
              "triggerID": "Recover"
            }
          ]
        },
        "WeakState_Damage": {
          "duration": 1,
          "onAdded": [
            {
              "$type": "GetFightProperty",
              "fightPropSourceTarget": "Self",
              "fightProp": "FIGHT_PROP_CUR_HP",
              "globalValueKey": "_MONSTER_CUR_HP_",
              "doOffStage": true
            }, //获取当前生命值
            {
              "$type": "SetGlobalValueToOverrideMap",
              "globalValueKey": "_MONSTER_CUR_HP_",
              "overrideMapKey": "Eremite_Cur_HP",
              "doOffStage": true
            }, //设置overridemapkey
            {
              "$type": "DamageByAttackValue",
              "target": "Self",
              "attacker": "Caster",
              "attackInfo": {
                "$type": "ConfigAttackInfo",
                "attackProperty": {
                  "$type": "ConfigAttackProperty",
                  "ignoreAttackerProperty": true,
                  "trueDamage": true,
                  "damageExtra": "0.375*%Eremite_Cur_HP",
                  "damagePercentage": 0,
                  "attackType": "Default",
                  "elementType": "Rock",
                  "enBreak": 0,
                  "strikeType": "None"
                }
              }
            }, //对本体造成当前生命值50%的伤害
            // {
            // 	"$type": "LoseHP",
            // 	"target": "Self",
            // 	"amount": "0.5*%Eremite_Cur_HP",
            // 	"lethal": true,
            // },
            {
              "$type": "FireEffect",
              "effectPattern": "Eff_Monster_Eremite_Male_Strong_Katar_Rock_ShieldBreak"
            } //受击特效
          ]
        }
      },
      "abilitySpecials": {
        "Eremite_Cur_HP": 0
      }
    }
  },

  ////////////////////////////////////////////////////////////////
  //
  //  Block 防御
  //
  ////////////////////////////////////////////////////////////////

  {
    "Default": {
      "$type": "ConfigAbility",
      "abilityName": "Monster_Eremite_Male_Strong_Katar_Block",
      "abilityMixins": [
        {
          "$type": "AttachToStateIDMixin",
          "stateIDs": ["DefendLoop", "DefendHit"],
          "modifierName": "Monster_Eremite_Male_Strong_Katar_Block_Duration"
        },
        {
          "$type": "AttachToStateIDMixin",
          "stateIDs": ["DefendLoop", "DefendHit"],
          "modifierName": "Monster_Eremite_Male_Strong_Katar_Block_Effect"
        }
      ],
      "modifiers": {
        "Monster_Eremite_Male_Strong_Katar_Block_Duration": {
          "properties": {
            "Actor_EndureDelta": 1,
            "Entity_WeightRatio": 5.0
          },
          "onAdded": [
            {
              "$type": "SetPoseBool",
              "boolID": "BlockState",
              "value": true
            }
          ],
          "onRemoved": [
            {
              "$type": "SetPoseBool",
              "boolID": "BlockState",
              "value": false
            }
          ],
          "onChangeAuthority": [
            {
              "$type": "SetPoseBool",
              "boolID": "BlockState",
              "value": false
            }
          ],
          "onReconnect": [
            {
              "$type": "SetPoseBool",
              "boolID": "BlockState",
              "value": false
            }
          ],
          "modifierMixins": [
            {
              "$type": "VelocityForceMixin",
              "excludeForces": ["RetreatAirType"]
            },
            {
              "$type": "MonsterDefendMixin",
              "stateIDs": ["DefendLoop", "DefendHit"],
              "defendTriggerID": "DefendHit",
              "defendAngle": 90,
              "onDefendSucceded": [
                {
                  "$type": "SetGlobalValue",
                  "key": "_EREMITE_BLOCK_SUCCESS",
                  "value": 1
                },
                {
                  "$type": "FireEffect",
                  "effectPattern": "Eff_Monster_Eremite_Male_Strong_Katar_Rock_DefendHit",
                  "born": {
                    "$type": "ConfigBornByAttachPoint",
                    "attachPointName": "DefendHit"
                  }
                }
              ]
            }
          ],
          "onBeingHit": [
            {
              "$type": "Predicated",
              "target": "Target",
              "targetPredicates": [
                {
                  "$type": "ByEntityTypes",
                  "entityTypes": ["Avatar"]
                }
              ],
              "successActions": [
                {
                  "$type": "Predicated",
                  "target": "Target",
                  "targetPredicates": [
                    {
                      "$type": "ByTargetGlobalValue",
                      "key": "_EREMITE_BLOCK_SUCCESS",
                      "value": 0,
                      "compareType": "NoneOrEqual",
                      "forceByCaster": true
                    },
                    {
                      "$type": "BySelfForwardAndTargetPosition",
                      "value": 90,
                      "logic": "Lesser"
                    }
                  ],
                  "successActions": [
                    {
                      "$type": "SetAnimatorTrigger",
                      "target": "Self",
                      "triggerID": "DefendBreak",
                      "predicates": [
                        {
                          "$type": "ByHitImpulse",
                          "hitImpulse": 0
                        }
                      ]
                    }
                  ]
                }
              ],
              "failActions": [
                {
                  "$type": "Predicated",
                  "target": "TargetOriginOwner",
                  "targetPredicates": [
                    {
                      "$type": "ByTargetGlobalValue",
                      "key": "_EREMITE_BLOCK_SUCCESS",
                      "value": 0,
                      "compareType": "NoneOrEqual",
                      "forceByCaster": true
                    },
                    {
                      "$type": "BySelfForwardAndTargetPosition",
                      "value": 90,
                      "logic": "Lesser"
                    }
                  ],
                  "successActions": [
                    {
                      "$type": "SetAnimatorTrigger",
                      "target": "Self",
                      "triggerID": "DefendBreak",
                      "predicates": [
                        {
                          "$type": "ByHitImpulse",
                          "hitImpulse": 0
                        }
                      ]
                    }
                  ]
                }
              ]
            },
            {
              "$type": "SetGlobalValue",
              "key": "_EREMITE_BLOCK_SUCCESS",
              "value": 0
            }
          ]
        },
        "Monster_Eremite_Male_Strong_Katar_Block_Effect": {
          "onAdded": [
            {
              "$type": "AttachEffect",
              "effectPattern": "Eff_Monster_Eremite_Male_Strong_Katar_Rock_DefendLoop"
            }
          ]
        }
      }
    }
  },

  ////////////////////////////////////////////////////////////////
  //
  //  Return To Born 重生
  //
  ////////////////////////////////////////////////////////////////

  {
    "Default": {
      "$type": "ConfigAbility",
      "abilityName": "Monster_Eremite_Male_Strong_Katar_ReturnToBorn",
      "abilityMixins": [
        {
          "$type": "AttachToPoseIDMixin",
          "poseIDs": [901],
          "modifierName": "ReturnToBorn_Start"
        },
        {
          "$type": "AttachToAnimatorStateIDMixin",
          "stateIDs": ["SheathWeapon"],
          "modifierName": "ReturnToBornHandler"
        }
      ],
      "modifiers": {
        "ReturnToBorn_Start": {
          "onAdded": [
            {
              "$type": "SetAnimatorTrigger",
              "triggerID": "SheathWeaponTrigger"
            }
          ]
        },
        "ReturnToBornHandler": {
          "onAdded": [
            //强化状态
            {
              "$type": "SetGlobalValue",
              "key": "_MONSTER_EREMITE_IMPROVED_",
              "minValue": 0,
              "maxValue": 1,
              "useLimitRange": true,
              "value": 0
            },
            {
              "$type": "SetGlobalValue",
              "key": "_MONSTER_EREMITE_RETURNTOBORN_",
              "minValue": 0,
              "maxValue": 1,
              "useLimitRange": true,
              "value": 1
            },
            {
              "$type": "SetGlobalValue",
              "key": "_MONSTER_EREMITE_WEAK_",
              "minValue": 0,
              "maxValue": 1,
              "useLimitRange": true,
              "value": 0
            },
            {
              "$type": "SetGlobalValue",
              "key": "_MONSTER_EREMITE_IMPROVED_COUNT_",
              "minValue": 0,
              "maxValue": 99,
              "useLimitRange": true,
              "value": 0
            },
            {
              "$type": "RemoveUniqueModifier",
              "modifierName": "UNIQUE_Eremite_ImproveState_Properties"
            },
            {
              "$type": "RemoveUniqueModifier",
              "modifierName": "UNIQUE_Eremite_Force_ImproveState"
            }
          ],
          "onRemoved": [
            //强化状态
            {
              "$type": "SetGlobalValue",
              "key": "_MONSTER_EREMITE_IMPROVED_",
              "minValue": 0,
              "maxValue": 1,
              "useLimitRange": true,
              "value": 0
            },
            //重置虚弱次数为0
            {
              "$type": "SetGlobalValue",
              "key": "_EREMITE_WEAK_TIMES_",
              "minValue": 0,
              "maxValue": 100,
              "useLimitRange": true,
              "value": 0
            },
            //强化次数
            {
              "$type": "SetGlobalValue",
              "key": "_MONSTER_EREMITE_IMPROVED_COUNT_",
              "minValue": 0,
              "maxValue": 99,
              "useLimitRange": true,
              "value": 0
            },

            //是否入战
            {
              "$type": "SetGlobalValue",
              "key": "_MONSTER_EREMITE_ISINFIGHT_",
              "minValue": 0,
              "maxValue": 1,
              "useLimitRange": true,
              "value": 0
            },
            //虚弱状态
            {
              "$type": "SetGlobalValue",
              "key": "_MONSTER_EREMITE_WEAK_",
              "minValue": 0,
              "maxValue": 1,
              "useLimitRange": true,
              "value": 0
            },
            //是否处于重生状态
            {
              "$type": "SetGlobalValue",
              "key": "_MONSTER_EREMITE_RETURNTOBORN_",
              "value": 0,
              "useLimitRange": true,
              "maxValue": 1,
              "minValue": 0
            },
            //判定是否是从Weak出来后的普通状态
            {
              "$type": "SetGlobalValue",
              "key": "_MONSTER_EREMITE_OUTIMPROVED",
              "minValue": 0,
              "maxValue": 1,
              "useLimitRange": true,
              "value": 0
            },
            {
              "$type": "ApplyModifier",
              "modifierName": "Slave_ReturnToBorn",
              "otherTargets": {
                "$type": "SelectTargetsByChildren",
                "configID": 25110101,
                "sortType": "Default"
              }
            },
            //将给鳄鱼的GV设置为返回重生
            {
              "$type": "KillSelf",
              "otherTargets": {
                "$type": "SelectTargetsByChildren",
                "configID": 25110101,
                "sortType": "Default"
              }
            }, //杀死鳄鱼
            {
              "$type": "SetGlobalValue",
              "key": "_EREMITE_SLAVE_DIE_",
              "minValue": 0,
              "maxValue": 1,
              "useLimitRange": true,
              "value": 0
            }
          ]
        },
        "Slave_ReturnToBorn": {
          "duration": 1,
          "onAdded": [
            {
              "$type": "AddGlobalValue",
              "key": "_EREMITE_SLAVE_RETURNTOBORN_",
              "value": 1,
              "maxValue": 1,
              "minValue": 0,
              "useLimitRange": true
            }
          ]
        }
      },
      "onAbilityStart": [
        {
          "$type": "ApplyModifier",
          "modifierName": "Slave_ReturnToBorn",
          "otherTargets": {
            "$type": "SelectTargetsByChildren",
            "configID": 25110101,
            "sortType": "Default"
          }
        },
        //将给鳄鱼的GV设置为返回重生
        {
          "$type": "KillSelf",
          "otherTargets": {
            "$type": "SelectTargetsByChildren",
            "configID": 25110101,
            "sortType": "Default"
          }
        } //杀死鳄鱼
      ]
    }
  },

  ////////////////////////////////////////////////////////////////
  //
  //  PlayShow 战前生态
  //
  ////////////////////////////////////////////////////////////////

  {
    "Default": {
      "$type": "ConfigAbility",
      "abilityName": "Monster_Eremite_Male_Strong_Katar_ControlShader",
      "onAbilityStart": [
        {
          "$type": "ApplyModifier",
          "modifierName": "Monster_Eremite_Male_Strong_Katar_ControlShader"
        }
      ],
      "modifiers": {
        "Monster_Eremite_Male_Strong_Katar_ControlShader": {
          "duration": 1,
          "onAdded": [
            {
              "$type": "SetAnimatorTrigger",
              "triggerID": "Shader_Control"
            }
          ]
        }
      }
    }
  },

  ////////////////////////////////////////////////////////////////
  //
  //  3.4剑道 格挡触发蓝光
  //
  ////////////////////////////////////////////////////////////////
  {
    "Default": {
      "$type": "ConfigAbility",
      "abilityName": "Monster_Eremite_Strong_Katar_Strong_BladeMaster2_BlockAttack",
      "abilitySpecials": {
        "DefendMaxNum": 0,
        "NormalAtkAddNum": 0,
        "DefendHeaveAtkAddNum": 10
      },
      "onAdded": [
        {
          "$type": "ApplyModifier",
          "modifierName": "Monster_Eremite_Strong_Katar_Strong_BladeMaster2_Initial"
        }
      ],
      "abilityMixins": [
        {
          "$type": "AttachToAIAlertnessMixin",
          "alertness": [2],
          "modifierName": "Monster_Eremite_Strong_Katar_Strong_BladeMaster2_ChargeBar"
        },
        {
          "$type": "AttachToStateIDMixin",
          "stateIDs": ["DefendBS", "DefendLoop", "DefendHit"],
          "modifierName": "Monster_Eremite_Strong_Katar_Strong_BladeMaster2_CheckInDefend"
        },
        {
          "$type": "AttachToAIAlertnessMixin",
          "alertness": [2],
          "modifierName": "Monster_Eremite_Strong_Katar_Strong_BladeMaster2_ChargeBarHighLevel_Down"
        },
        //破防反馈
        {
          "$type": "AttachToAIAlertnessMixin",
          "alertness": [2],
          "modifierName": "Monster_Eremite_Strong_Katar_Strong_BladeMaster2_BlockBreak_Check"
        }
      ],
      "modifiers": {
        "Monster_Eremite_Strong_Katar_Strong_BladeMaster2_BlockBreak_Check": {
          "onBeingHit": [
            {
              "$type": "Predicated",
              "targetPredicates": [
                {
                  "$type": "ByAny",
                  "predicates": [
                    {
                      "$type": "ByAttackTags",
                      "attackTags": ["BladeMaster2_FullScreenAtk"]
                    },
                    {
                      "$type": "ByAttackTags",
                      "attackTags": ["Avatar_Blocking"]
                    }
                  ]
                }
              ],
              "successActions": [
                {
                  "$type": "SetAnimatorTrigger",
                  "triggerID": "BlockBreak"
                },
                {
                  "$type": "FireEffect",
                  "effectPattern": "Eff_Mosnter_GeneralSkill_BreakeDefendShield"
                }
              ]
            }
          ]
        },
        "Monster_Eremite_Strong_Katar_Strong_BladeMaster2_Initial": {
          "onAdded": [
            //初始化剑道参数
            {
              "$type": "Predicated",
              "targetPredicates": [
                {
                  "$type": "ByTargetGlobalValue",
                  "key": "_BLADEMASTER_LEVEL",
                  "value": 1,
                  "compareType": "Equal"
                }
              ],
              "successActions": [
                {
                  "$type": "SetAnimatorInt",
                  "intID": "Level",
                  "value": 1
                },
                {
                  "$type": "UseSkillEliteSet",
                  "skillEliteSetID": 1
                },
                {
                  "$type": "SetGlobalValue",
                  "key": "_NORMALATK_NUM",
                  "value": 2
                },
                {
                  "$type": "SetGlobalValue",
                  "key": "_DEFENDMAX_NUM",
                  "value": 10
                }
              ]
            },
            {
              "$type": "Predicated",
              "targetPredicates": [
                {
                  "$type": "ByTargetGlobalValue",
                  "key": "_BLADEMASTER_LEVEL",
                  "value": 2,
                  "compareType": "Equal"
                }
              ],
              "successActions": [
                {
                  "$type": "SetAnimatorInt",
                  "intID": "Level",
                  "value": 2
                },
                {
                  "$type": "UseSkillEliteSet",
                  "skillEliteSetID": 2
                },
                {
                  "$type": "SetGlobalValue",
                  "key": "_NORMALATK_NUM",
                  "value": 2
                },
                {
                  "$type": "SetGlobalValue",
                  "key": "_DEFENDMAX_NUM",
                  "value": 10
                }
              ]
            },
            {
              "$type": "Predicated",
              "targetPredicates": [
                {
                  "$type": "ByTargetGlobalValue",
                  "key": "_BLADEMASTER_LEVEL",
                  "value": 3,
                  "compareType": "Equal"
                }
              ],
              "successActions": [
                {
                  "$type": "SetAISkillGCD",
                  "value": 1
                },
                {
                  "$type": "SetAnimatorInt",
                  "intID": "Level",
                  "value": 3
                },
                {
                  "$type": "UseSkillEliteSet",
                  "skillEliteSetID": 3
                },
                {
                  "$type": "SetGlobalValue",
                  "key": "_NORMALATK_NUM",
                  "value": 2
                },
                {
                  "$type": "SetGlobalValue",
                  "key": "_DEFENDMAX_NUM",
                  "value": 30
                }
              ]
            },
            {
              "$type": "SetGlobalValueToOverrideMap",
              "globalValueKey": "_NORMALATK_NUM",
              "overrideMapKey": "NormalAtkAddNum"
            },
            {
              "$type": "SetGlobalValueToOverrideMap",
              "globalValueKey": "_DEFENDMAX_NUM",
              "overrideMapKey": "DefendMaxNum"
            }
          ]
        },
        "Hit_CD_Checker": {
          "duration": 3,
          "onAdded": [
            {
              "$type": "SetGlobalValue",
              "key": "_HITING",
              "value": 1
            }
          ],
          "onRemoved": [
            {
              "$type": "SetGlobalValue",
              "key": "_HITING",
              "value": 0
            }
          ]
        },
        "Monster_Eremite_Strong_Katar_Strong_BladeMaster2_ChargeBarHighLevel_Down": {
          "onBeingHit": [
            {
              "$type": "ApplyModifier",
              "modifierName": "Hit_CD_Checker"
            }
          ],
          "thinkInterval": 3,
          "onThinkInterval": [
            {
              "$type": "Predicated",
              "targetPredicates": [
                {
                  "$type": "ByTargetGlobalValue",
                  "key": "_BLADEMASTER_LEVEL",
                  "value": 3,
                  "compareType": "Equal"
                }
              ],
              "successActions": [
                //难度3下3秒未受攻击，降低怒气
                {
                  "$type": "AddChargeBarValue",
                  "value": -3,
                  "minValue": 0,
                  "maxValue": "%DefendMaxNum",
                  "predicates": [
                    {
                      "$type": "ByTargetGlobalValue",
                      "key": "_HITING",
                      "value": 0,
                      "compareType": "NoneOrEqual"
                    }
                  ]
                }
              ]
            }
          ]
        },
        "Monster_Eremite_Strong_Katar_Strong_BladeMaster2_ChargeBar": {
          "modifierMixins": [
            {
              "$type": "ChargeBarMixin",
              "chargeBarElementType": "None",
              "chargeBarIconID": 2, //怪物状态专用图标
              "initialValue": 0,
              "maxValue": "%DefendMaxNum"
            },
            {
              "$type": "AttachModifierToSelfGlobalValueMixin",
              "globalValueKey": "_CHARGEBAR_VALUE",
              "valueSteps": [-0.5, "%DefendMaxNum-1", "%DefendMaxNum+1"],
              "modifierNameSteps": ["Go_BlueLightAtkEmpty", "Go_BlueLightAtk"]
            }
          ],
          "onAdded": [
            {
              "$type": "SetChargeBarValue",
              "value": 0
            }
          ],
          "onBeingHit": [
            //任意时间受到攻击时，增加怒气增长
            {
              "$type": "AddChargeBarValue",
              "value": "%NormalAtkAddNum",
              "maxValue": "%DefendMaxNum"
            }
          ]
        },
        "Go_BlueLightAtkEmpty": {},
        "Go_BlueLightAtk": {
          "onAdded": [
            {
              "$type": "SetAnimatorTrigger",
              "triggerID": "DefendAtk"
            },
            {
              "$type": "ApplyModifier",
              "modifierName": "Reset_ChargeBarValue_Delay"
            }
          ]
        },
        "Reset_ChargeBarValue_Delay": {
          "duration": 3,
          "onRemoved": [
            {
              "$type": "SetChargeBarValue",
              "value": 0
            }
          ]
        },
        "Monster_Eremite_Strong_Katar_Strong_BladeMaster2_CheckInDefend": {
          "onBeingHit": [
            //防守期间受到重击，大幅增加怒气条
            {
              "$type": "Predicated",
              "targetPredicates": [
                {
                  "$type": "ByAttackTags",
                  "attackTags": ["ExtraAttack"]
                }
              ],
              "successActions": [
                {
                  "$type": "AddChargeBarValue",
                  "value": "%DefendHeaveAtkAddNum",
                  "maxValue": "%DefendMaxNum"
                }
              ]
            }
          ]
        }
      }
    }
  }
]
