{
  "$type": "ConfigMonster",
  "common": {
    "mass": 9999999.0,
    "scale": 1.0,
    "affectedByWorld": true,
    "checkInSurface": true,
    "height": 1,
    "effectAttachShape": {
      "$type": "ConfigEffectAttachSkinnedMesh",
      "mesh": "EffectMesh"
    },
    "canTriggerElementReactionText": false,
    "useGrassDisplacement": true,
    "clearAnimatorOnSetLightDeactive": true,
    "clearAIOnSetLightDeactive": true
  },
  "animal": {
    "hasAbility": true,
    "tickAbilityElement": false,
    "hasCharacterRenderering": false
  },
  "move": {
    "$type": "ConfigAnimatorMove",
    "facingMove": "ForwardBackward"
  },
  "dither": {
    "showDitherDuration": 1.0
  },
  "model": {
    "canBakeMesh": false
  },
  "combat": {
    "property": {
      "weight": 101,
      "endureType": "Monster_Minion",
      "isInvincible": true
    },
    "combatLock": {
      "denyLockOn": false,
      "lockType": "Animal_Lv2"
    },
    "beHit": {
      "hitBloodEffect": "",
      "muteAllHit": true,
      "muteAllHitEffect": false,
      "muteAllHitText": true
    },
    "die": {
      "dieDisappearEffect": "",
      "dieEndTime": 2.0,
      "dieForceDisappearTime": 10,
      "useRagDoll": false
    },
    "animEvents": {
      "MeleeAtk01": {
        "attackPattern": {
          "$type": "ConfigAttackCircle",
          "duration": 0.0,
          "triggerType": "TriggerNoRepeat",
          "fanAngle": 180.0,
          "radius": 3.0,
          "height": 3.0,
          "born": {
            "$type": "ConfigBornBySelf",
            "offset": {
              "x": 0.0,
              "y": -0.5,
              "z": 0.0
            }
          }
        },
        "attackInfo": {
          "attackTag": "Electrohercules_MeleeAttack01",
          "attackProperty": {
            "damagePercentage": 0,
            "strikeType": "Blunt",
            "attackType": "Melee",
            "enBreak": 0
          }
        }
      }
    }
  },
  "inputKeys": [
    {
      "keyID": 1,
      "inputKeyCode": 257
    },
    {
      "keyID": 1011,
      "inputKeyCode": 258
    },
    {
      "keyID": 1012,
      "inputKeyCode": 259
    },
    {
      "keyID": 1013,
      "inputKeyCode": 260
    }
  ],
  "stateLayers": {
    "defaultLayer": {
      "$type": "ConfigNormalStateLayer",
      "stateIDs": {
        //Idle ///////////////////////////////////////
        "Born": {
          "$type": "ConfigMonsterStateIDInfo",
          "animatorStates": {
            "Born": [""]
          },
          "CombatMove": true,
          "resetAnimatorTriggerOnExit": ["DoSkill"]
        },
        "NormalIdle": {
          "$type": "ConfigMonsterStateIDInfo",
          "animatorStates": {
            "Standby": [""]
          },
          "CombatMove": true,
          "canDoSkill": true,
          "canSyncMove": true,
          "resetAnimatorTriggerOnEnter": ["IsCharging"],
          "resetAnimatorTriggerOnExit": ["DoSkill"]
        },
        "NormalMove": {
          "$type": "ConfigMonsterStateIDInfo",
          "animatorStates": {
            "WalkForward": [""],
            "WalkBack": [""]
          },
          "canDoSkill": true,
          "resetAnimatorTriggerOnExit": ["DoSkill"]
        },
        //Behit ///////////////////////////////////////
        "BeHit": {
          "$type": "ConfigMonsterStateIDInfo",
          "animatorStates": {
            "Hit_L": [""],
            "Hit_H": [""]
          },
          "combatMove": true,
          "resetAnimatorTriggerOnEnter": ["BeHit"],
          "resetAnimatorTriggerOnExit": ["DoSkill"]
        },
        "BeHitThrow": {
          "$type": "ConfigMonsterStateIDInfo",
          "animatorStates": {
            "HitThrow": [""],
            "HitThrowDrop": [],
            "HitThrowToGround": [""]
          },
          "combatMove": true,
          "resetAnimatorTriggerOnEnter": ["BeHit", "HitAir2HitDrop"],
          "resetAnimatorTriggerOnExit": ["DoSkill"]
        },
        "Struggle": {
          "$type": "ConfigMonsterStateIDInfo",
          "animatorStates": {
            "Struggle": []
          },
          "combatMove": true,
          "resetAnimatorTriggerOnEnter": ["BeHit", "HitAir2HitDrop"],
          "resetAnimatorTriggerOnExit": ["DoSkill"]
        },
        //Die ///////////////////////////////////////
        "Die": {
          "$type": "ConfigMonsterStateIDInfo",
          "animatorStates": {
            "Die": ["", ""]
          }
        },
        //Skill ///////////////////////////////////////
        "Warning": {
          "$type": "ConfigMonsterStateIDInfo",
          "animatorStates": {
            "Alert": ["", ""]
          },
          "canSyncMove": true,
          "canSteer": true,
          "resetAnimatorTriggerOnExit": ["BeHit", "DoSkill"]
        },
        "MeleeAttack01": {
          "$type": "ConfigMonsterStateIDInfo",
          "animatorStates": {
            "MeleeAttack01_01_BS": [""],
            "MeleeAttack01_01": [""],
            "MeleeAttack01_01_AS": [""],
            "MeleeAttack01_02_BS": [""],
            "MeleeAttack01_02": [""],
            "MeleeAttack01_02_AS": [""],
            "MeleeAttack01_03_BS": [""],
            "MeleeAttack01_03": [""],
            "MeleeAttack01_03_AS": [""]
          },
          "combatMove": true,
          "resetAnimatorTriggerOnExit": ["BeHit", "DoSkill"]
        },
        "RangedAttack01": {
          "$type": "ConfigMonsterStateIDInfo",
          "animatorStates": {
            "RangedAttack01_BS": [""],
            "RangedAttack01_Loop": [""],
            "RangedAttack01_AS": [""]
          },
          "combatMove": true,
          "resetAnimatorTriggerOnExit": ["BeHit", "DoSkill"]
        },
        "Taunt01": {
          "$type": "ConfigMonsterStateIDInfo",
          "animatorStates": {
            "Taunt01": [""]
          },
          "combatMove": true,
          "resetAnimatorTriggerOnExit": ["BeHit", "DoSkill"]
        }
      }
    }
  },
  "abilities": [
    //TODO:
    {
      "abilityName": "Animal_Electrohercules_Properties"
    },
    {
      "abilityName": "Animal_Electrohercules_BattleStateHandler"
    },
    {
      "abilityName": "Animal_Electrohercules_PlayAlert"
    },
    {
      "abilityName": "Animal_Electrohercules_Enemy02_SkillManager"
    }
  ],
  "initialPoses": {
    "Default": {
      "initialPoseID": 1,
      "initialPoseParams": {
        "intParams": {
          "ActionState": "0"
        }
      }
    }
  },
  "aibeta": {
    "enable": true,
    //"friendliness": 1,
    "skillGCD": 1.0,
    //"decisionArchetype": "Animal",
    "sensing": {
      "settings": {
        "DefaultSetting": {
          "viewPanoramic": true,
          "viewRange": 25,
          "feelRange": 25
        }
      }
    },
    "neurons": {
      "DefaultSetting": []
    },
    "defendArea": {
      "defendRange": 50.0
    },
    "threat": {
      "clearThreatTargetDistance": 50.0,
      "clearThreatTimerByDistance": 1,
      "viewThreatGrow": 100,
      "feelThreatGrow": 500,
      "threatDecreaseSpeed": 500
    },
    "meleeChargeTactic": {
      "enable": true,
      "condition": {
        "pose": [101]
      },
      "defaultSetting": {
        "speedLevel": 1,
        "speedLevelInner": 1,
        "innerDistance": 0,
        "stopDistance": 2.0,
        "startDistanceMin": 2.0,
        "startDistanceMax": 50,
        "turnSpeedOverride": 1.0
      }
    },
    "facingMoveTactic": {
      "enable": true,
      "condition": {
        "pose": [101]
      },
      "defaultSetting": {
        "speedLevel": 1,
        "needHasPath": false,
        "rangeMin": 1.45,
        "rangeMax": 1.95,
        "facingMoveWeight": {
          "stop": 0.0,
          "forward": 1.0,
          "back": 1.0,
          "left": 0.0,
          "right": 0.0
        },
        "facingMoveTurnInterval": 0.5,
        "restTimeMax": 4.0,
        "restTimeMin": 10.0
      }
    },
    "ui": {
      "hasDirectionIndicator": false
    },
    "skills": {
      //Melee
      "1011": {
        "cd": 10,
        "initialCD": 1.0,
        "ignoreGCD": false,
        "name": "MeleeAttack01",
        "stateIDs": ["MeleeAttack01"],
        "skillType": "Combat",
        //"faceTarget": true,
        "flagTargetReachable": "11",
        "flagTargetInZone": "11",
        "castCondition": {
          "pickRangeMin": 0,
          "pickRangeMax": 2.4,
          "pose": [101],
          "needReInitCD": true
        }
      },
      //Ranged
      // "1012":
      // {
      // 	"cd": 10,
      // 	"initialCD": 3.0,
      // 	"ignoreGCD": false,
      // 	"name": "RangedAttack01",
      // 	"stateIDs": ["RangedAttack01"],
      // 	"skillType": "Combat",
      // 	//"faceTarget": true,
      // 	"flagTargetReachable": "11",
      // 	"flagTargetInZone": "11",
      // 	"castCondition":
      // 	{
      // 		"pickRangeMin": 2,
      // 		"pickRangeMax": 4.0,
      // 		"pose": [101],
      // 		"needReInitCD": true,
      // 	},
      // },
      //Taunt
      "1013": {
        "cd": 8,
        "initialCD": 5.0,
        "ignoreGCD": true,
        "name": "Taunt01",
        "stateIDs": ["Taunt01"],
        "skillType": "Combat",
        //"faceTarget": true,
        "flagTargetReachable": "11",
        "flagTargetInZone": "11",
        "castCondition": {
          "pickRangeMin": 2,
          "pickRangeMax": 99.0,
          "pose": [101],
          "needReInitCD": true
        }
      }
    }
  }
}
